<?xml version="1.0" encoding="utf-8"?>
<!-- Generator: Adobe Illustrator 16.0.0, SVG Export Plug-In . SVG Version: 6.00 Build 0)  -->
<!DOCTYPE svg PUBLIC "-//W3C//DTD SVG 1.1//EN" "http://www.w3.org/Graphics/SVG/1.1/DTD/svg11.dtd">
<svg version="1.1" id="Layer_1" xmlns="http://www.w3.org/2000/svg" xmlns:xlink="http://www.w3.org/1999/xlink" x="0px" y="0px"
	 width="52.833px" height="36.167px" viewBox="0 0 52.833 36.167" enable-background="new 0 0 52.833 36.167" xml:space="preserve">
<path fill="#68696B" d="M50.467,35.896H2.366c-1.086,0-1.971-0.885-1.971-1.97V2.241c0-1.087,0.885-1.97,1.971-1.97h48.101
	c1.086,0,1.971,0.883,1.971,1.97v31.685C52.438,35.011,51.553,35.896,50.467,35.896z M2.366,2.241v31.685h48.103L50.467,2.241H2.366
	z"/>
<polygon fill="#68696B" points="26.754,27.433 1.019,2.216 2.397,0.81 26.734,24.658 50.427,0.818 51.823,2.208 "/>
<rect x="9.178" y="14.531" transform="matrix(0.7001 0.714 -0.714 0.7001 21.8754 0.6506)" fill="#68696B" width="1.969" height="23.677"/>
<rect x="29.983" y="25.383" transform="matrix(0.7143 0.6999 -0.6999 0.7143 30.4053 -21.7353)" fill="#68696B" width="23.677" height="1.971"/>
</svg>
