<?xml version="1.0" encoding="utf-8"?>
<!-- Generator: Adobe Illustrator 16.0.0, SVG Export Plug-In . SVG Version: 6.00 Build 0)  -->
<!DOCTYPE svg PUBLIC "-//W3C//DTD SVG 1.1//EN" "http://www.w3.org/Graphics/SVG/1.1/DTD/svg11.dtd">
<svg version="1.1" id="Layer_1" xmlns="http://www.w3.org/2000/svg" xmlns:xlink="http://www.w3.org/1999/xlink" x="0px" y="0px"
	 width="198px" height="198px" viewBox="0 0 198 198" enable-background="new 0 0 198 198" xml:space="preserve">
<g>
	<circle fill="#E56A55" cx="-355" cy="99" r="98"/>
	<g id="XMLID_21_">
		<path id="XMLID_148_" fill="#E3AF24" d="M-349.368,134.619c-25.747,0-46.619-5.312-46.619-10.759v12.543
			c0.015,5.444,20.878,10.766,46.619,10.766c25.738,0,46.603-5.321,46.617-10.766V123.86
			C-302.751,129.308-323.624,134.619-349.368,134.619"/>
		<path id="XMLID_147_" fill="#F3BF1C" d="M-354.749,114.896c-25.745,0-46.617-5.313-46.617-10.759v12.543
			c0.015,5.444,20.88,10.766,46.617,10.766c25.74,0,46.605-5.321,46.619-10.766v-12.543
			C-308.13,109.583-329.002,114.896-354.749,114.896"/>
		<path id="XMLID_146_" fill="#E3AF24" d="M-343.99,95.172c-25.746,0-46.619-5.312-46.619-10.759v12.544
			c0.016,5.443,20.881,10.766,46.619,10.766s46.604-5.323,46.619-10.766V84.413C-297.371,89.86-318.245,95.172-343.99,95.172"/>
		<path id="XMLID_145_" fill="#FFD94A" d="M-308.13,63.131c0,5.446-20.872,10.525-46.619,10.525
			c-25.745,0-46.617-5.079-46.617-10.525c0-5.446,20.872-9.197,46.617-9.197C-329.002,53.934-308.13,57.685-308.13,63.131"/>
		<path id="XMLID_144_" fill="#F3BF1C" d="M-354.749,73.656c-25.745,0-46.617-5.311-46.617-10.758v12.543
			c0.015,5.445,20.88,10.765,46.617,10.765c25.74,0,46.605-5.32,46.619-10.765V62.898C-308.13,68.345-329.002,73.656-354.749,73.656
			"/>
		<path id="XMLID_143_" fill="#DBA927" d="M-394.194,68.41v12.542c1.091,0.401,2.284,0.789,3.585,1.16V69.566
			C-391.91,69.198-393.104,68.81-394.194,68.41"/>
		<path id="XMLID_142_" fill="#DBA927" d="M-318.889,69.566v12.545c1.303-0.371,2.497-0.758,3.587-1.16V68.41
			C-316.392,68.812-317.586,69.198-318.889,69.566"/>
		<path id="XMLID_141_" fill="#DBA927" d="M-385.229,70.867v12.546c1.146,0.24,2.344,0.463,3.586,0.678V71.545
			C-382.886,71.333-384.083,71.107-385.229,70.867"/>
		<path id="XMLID_140_" fill="#DBA927" d="M-327.854,71.545v12.546c1.244-0.215,2.438-0.438,3.587-0.678V70.867
			C-325.415,71.107-326.609,71.333-327.854,71.545"/>
		<path id="XMLID_139_" fill="#DBA927" d="M-376.265,72.346v12.545c1.17,0.152,2.362,0.292,3.587,0.417V72.761
			C-373.902,72.637-375.095,72.495-376.265,72.346"/>
		<path id="XMLID_138_" fill="#DBA927" d="M-336.818,72.764V85.31c1.226-0.126,2.417-0.266,3.587-0.414V72.346
			C-334.401,72.497-335.593,72.637-336.818,72.764"/>
		<path id="XMLID_137_" fill="#DBA927" d="M-367.299,73.225v12.549c1.178,0.082,2.372,0.155,3.586,0.215V73.437
			C-364.927,73.379-366.121,73.306-367.299,73.225"/>
		<path id="XMLID_136_" fill="#DBA927" d="M-345.783,73.437v12.552c1.215-0.06,2.409-0.133,3.585-0.215V73.225
			C-343.374,73.306-344.568,73.379-345.783,73.437"/>
		<path id="XMLID_135_" fill="#DBA927" d="M-354.749,73.656c-0.599,0-1.196-0.005-1.792-0.011v12.551
			c0.596,0.004,1.193,0.01,1.792,0.01c0.602,0,1.199-0.006,1.794-0.01V73.646C-353.55,73.651-354.147,73.656-354.749,73.656"/>
		<path id="XMLID_134_" fill="#C3922D" d="M-383.437,89.926v12.542c1.089,0.401,2.284,0.788,3.586,1.158V91.082
			C-381.152,90.712-382.348,90.326-383.437,89.926"/>
		<path id="XMLID_133_" fill="#C3922D" d="M-308.13,91.082v12.544c1.301-0.37,2.496-0.757,3.587-1.158V89.926
			C-305.634,90.328-306.829,90.712-308.13,91.082"/>
		<path id="XMLID_132_" fill="#C3922D" d="M-374.471,92.384v12.545c1.147,0.237,2.345,0.464,3.585,0.678V93.062
			C-372.126,92.848-373.323,92.623-374.471,92.384"/>
		<path id="XMLID_131_" fill="#C3922D" d="M-317.095,93.062v12.547c1.242-0.215,2.438-0.441,3.586-0.679V92.384
			C-314.656,92.623-315.853,92.848-317.095,93.062"/>
		<path id="XMLID_130_" fill="#C3922D" d="M-365.506,93.863v12.547c1.169,0.149,2.36,0.289,3.586,0.417V94.279
			C-363.146,94.153-364.337,94.011-365.506,93.863"/>
		<path id="XMLID_129_" fill="#C3922D" d="M-326.06,94.278v12.549c1.224-0.128,2.416-0.269,3.585-0.417V93.863
			C-323.644,94.015-324.836,94.154-326.06,94.278"/>
		<path id="XMLID_128_" fill="#C3922D" d="M-356.541,94.741v12.547c1.177,0.084,2.372,0.157,3.586,0.215V94.954
			C-354.169,94.894-355.364,94.823-356.541,94.741"/>
		<path id="XMLID_127_" fill="#C3922D" d="M-335.025,94.954v12.549c1.214-0.058,2.409-0.131,3.586-0.215V94.741
			C-332.616,94.823-333.812,94.894-335.025,94.954"/>
		<path id="XMLID_126_" fill="#C3922D" d="M-343.99,95.172c-0.601,0-1.198-0.006-1.793-0.011v12.55
			c0.595,0.006,1.192,0.012,1.793,0.012s1.197-0.006,1.792-0.012v-12.55C-342.793,95.167-343.39,95.172-343.99,95.172"/>
		<path id="XMLID_125_" fill="#DBA927" d="M-394.194,109.647v12.544c1.091,0.4,2.284,0.786,3.585,1.157v-12.545
			C-391.91,110.436-393.104,110.047-394.194,109.647"/>
		<path id="XMLID_124_" fill="#DBA927" d="M-318.889,110.804v12.545c1.303-0.369,2.497-0.757,3.587-1.157v-12.544
			C-316.392,110.051-317.586,110.436-318.889,110.804"/>
		<path id="XMLID_123_" fill="#DBA927" d="M-385.229,112.107v12.544c1.146,0.239,2.344,0.466,3.586,0.679v-12.547
			C-382.886,112.57-384.083,112.346-385.229,112.107"/>
		<path id="XMLID_122_" fill="#DBA927" d="M-327.854,112.783v12.55c1.244-0.216,2.438-0.442,3.587-0.682v-12.544
			C-325.415,112.346-326.609,112.57-327.854,112.783"/>
		<path id="XMLID_121_" fill="#DBA927" d="M-376.265,113.586v12.547c1.17,0.151,2.362,0.291,3.587,0.418v-12.55
			C-373.902,113.874-375.095,113.734-376.265,113.586"/>
		<path id="XMLID_120_" fill="#DBA927" d="M-336.818,114.001v12.55c1.226-0.127,2.417-0.269,3.587-0.418v-12.547
			C-334.401,113.738-335.593,113.877-336.818,114.001"/>
		<path id="XMLID_119_" fill="#DBA927" d="M-367.299,114.462v12.549c1.178,0.084,2.372,0.157,3.586,0.216v-12.55
			C-364.927,114.616-366.121,114.545-367.299,114.462"/>
		<path id="XMLID_118_" fill="#DBA927" d="M-345.783,114.677v12.55c1.215-0.059,2.409-0.132,3.585-0.216v-12.549
			C-343.374,114.545-344.568,114.616-345.783,114.677"/>
		<path id="XMLID_117_" fill="#DBA927" d="M-354.749,114.896c-0.599,0-1.196-0.006-1.792-0.012v12.552
			c0.596,0.006,1.193,0.01,1.792,0.01c0.602,0,1.199-0.004,1.794-0.01v-12.552C-353.55,114.89-354.147,114.896-354.749,114.896"/>
		<path id="XMLID_116_" fill="#C3922D" d="M-388.814,129.371v12.544c1.089,0.399,2.285,0.785,3.585,1.157v-12.544
			C-386.529,130.159-387.726,129.771-388.814,129.371"/>
		<path id="XMLID_115_" fill="#C3922D" d="M-313.509,130.528v12.544c1.301-0.371,2.496-0.758,3.585-1.157v-12.544
			C-311.013,129.774-312.208,130.159-313.509,130.528"/>
		<path id="XMLID_114_" fill="#C3922D" d="M-379.851,131.83v12.544c1.146,0.24,2.344,0.466,3.586,0.68v-12.547
			C-377.507,132.295-378.704,132.067-379.851,131.83"/>
		<path id="XMLID_113_" fill="#C3922D" d="M-322.475,132.507v12.549c1.242-0.216,2.439-0.441,3.586-0.682V131.83
			C-320.035,132.067-321.232,132.295-322.475,132.507"/>
		<path id="XMLID_112_" fill="#C3922D" d="M-370.886,133.31v12.547c1.172,0.151,2.362,0.291,3.587,0.416v-12.548
			C-368.523,133.598-369.714,133.458-370.886,133.31"/>
		<path id="XMLID_111_" fill="#C3922D" d="M-331.439,133.724v12.549c1.226-0.127,2.419-0.269,3.586-0.416V133.31
			C-329.021,133.46-330.214,133.6-331.439,133.724"/>
		<path id="XMLID_110_" fill="#C3922D" d="M-361.92,134.186v12.549c1.179,0.084,2.373,0.158,3.587,0.215v-12.55
			C-359.547,134.339-360.741,134.268-361.92,134.186"/>
		<path id="XMLID_109_" fill="#C3922D" d="M-340.404,134.399v12.55c1.214-0.057,2.408-0.131,3.586-0.215v-12.549
			C-337.996,134.268-339.19,134.339-340.404,134.399"/>
		<path id="XMLID_108_" fill="#C3922D" d="M-349.368,134.619c-0.603,0-1.198-0.006-1.795-0.012v12.551
			c0.597,0.005,1.192,0.011,1.795,0.011c0.6,0,1.197-0.006,1.793-0.011v-12.551C-348.171,134.613-348.769,134.619-349.368,134.619"
			/>
		<path id="XMLID_107_" fill="#FDC72F" d="M-309.544,119.148c-5.091,4.478-23.396,8.297-45.205,8.297
			c-17.051,0-31.956-2.336-40.083-5.494c-0.748,0.678-1.155,1.394-1.155,2.143c0,5.447,20.872,10.525,46.619,10.525
			s46.617-5.078,46.617-10.525C-302.751,122.215-305.235,120.537-309.544,119.148"/>
		<path id="XMLID_106_" fill="#FFD94A" d="M-343.99,107.724c-23.69,0-43.239-4.51-46.213-9.474
			c-6.956,1.578-11.163,3.676-11.163,6.12c0,5.444,20.872,10.525,46.617,10.525c25.747,0,46.619-5.081,46.619-10.525
			c0-0.24-0.055-0.476-0.134-0.71C-316.815,106.067-329.642,107.724-343.99,107.724"/>
		<path id="XMLID_105_" fill="#FDC72F" d="M-309.937,78.227c-5.578,4.338-23.522,7.979-44.813,7.979
			c-13.749,0-26.104-1.52-34.637-3.766c-0.792,0.7-1.224,1.437-1.224,2.207c0,5.447,20.873,10.525,46.619,10.525
			c25.745,0,46.619-5.078,46.619-10.525C-297.371,82.044-302.146,79.829-309.937,78.227"/>
	</g>
</g>
<g>
	<circle fill="#E1F2EC" cx="1127.001" cy="99" r="98.001"/>
	<g>
		<g>
			<g>
				<path fill="#05A07D" d="M1147.438,90.686c-0.308-1.234-0.489-2.52-0.489-3.852c0-8.722,7.013-15.793,15.663-15.793
					c0.908,0,1.794,0.096,2.66,0.245c2.739-1.685,5.944-2.673,9.389-2.673c9.98,0,18.073,8.158,18.073,18.221
					c0,0.451-0.035,0.894-0.068,1.337c4.524,5.146,7.297,11.897,7.297,19.313c0,16.104-12.946,29.156-28.917,29.156
					c-15.969,0-28.915-13.053-28.915-29.156C1142.131,101.224,1144.106,95.438,1147.438,90.686z"/>
			</g>
			<g>
				<g>
					<polygon fill="#81605A" points="1173.678,158.306 1168.616,158.306 1169.832,107.029 1171.146,107.029 					"/>
				</g>
				<g>
					<polygon fill="#81605A" points="1170.287,126.814 1158.896,117.553 1157.531,118.31 1170.287,129.699 					"/>
				</g>
				<g>
					<polygon fill="#81605A" points="1171.046,115.595 1163.317,109.309 1162.392,109.823 1171.046,117.553 					"/>
				</g>
				<g>
					<polygon fill="#81605A" points="1171.046,121.954 1182.434,112.692 1183.803,113.449 1171.046,124.838 					"/>
				</g>
			</g>
			<g>
				<path fill="#36B294" d="M1192.666,88.171c0.033-0.444,0.068-0.886,0.068-1.338c0-10.063-8.093-18.221-18.073-18.221
					c-3.444,0-6.649,0.987-9.389,2.673c-0.866-0.15-1.752-0.245-2.66-0.245c-4.677,0-8.829,2.11-11.698,5.387
					c1.655-0.599,3.412-0.983,5.271-0.983c0.909,0,1.794,0.096,2.66,0.244c2.739-1.685,5.946-2.674,9.39-2.674
					c9.979,0,18.071,8.159,18.071,18.222c0,0.453-0.034,0.896-0.066,1.338c4.523,5.146,7.297,11.896,7.297,19.315
					c0,8.618-3.734,16.345-9.635,21.684c9.511-4.774,16.061-14.648,16.061-26.09C1199.963,100.067,1197.19,93.317,1192.666,88.171z"
					/>
			</g>
		</g>
		<g>
			<g>
				<path fill="#05A07D" d="M1112.348,83.853c0.343-1.359,0.542-2.775,0.542-4.241c0-9.603-7.782-17.387-17.387-17.387
					c-1.009,0-1.991,0.104-2.951,0.269c-3.041-1.855-6.603-2.945-10.425-2.945c-11.081,0-20.063,8.982-20.063,20.063
					c0,0.498,0.037,0.985,0.074,1.473c-5.022,5.666-8.098,13.099-8.098,21.267c0,17.727,14.369,32.101,32.099,32.101
					s32.101-14.374,32.101-32.101C1118.24,95.456,1116.048,89.084,1112.348,83.853z"/>
			</g>
			<g>
				<g>
					<path fill="#36B294" d="M1112.348,83.853c0.343-1.359,0.542-2.775,0.542-4.241c0-9.603-7.782-17.387-17.387-17.387
						c-1.009,0-1.991,0.104-2.951,0.269c-3.041-1.855-6.603-2.945-10.425-2.945c-8.242,0-15.318,4.977-18.404,12.085
						c3.572-4.117,8.854-6.734,14.759-6.734c3.713,0,7.17,1.05,10.125,2.838c0.934-0.159,1.887-0.259,2.866-0.259
						c9.328,0,16.889,7.507,16.889,16.767c0,1.414-0.194,2.778-0.526,4.089c3.595,5.044,5.725,11.189,5.725,17.838
						c0,9.782-4.585,18.49-11.719,24.162c9.782-5.5,16.399-15.961,16.399-27.983C1118.24,95.456,1116.048,89.084,1112.348,83.853z"
						/>
				</g>
			</g>
			<g>
				<g>
					<polygon fill="#81605A" points="1089.038,158.306 1083.465,158.306 1084.803,97.527 1086.252,97.527 					"/>
				</g>
				<g>
					<polygon fill="#81605A" points="1085.304,120.958 1072.764,110.759 1071.262,111.596 1085.304,124.133 					"/>
				</g>
				<g>
					<polygon fill="#81605A" points="1086.14,115.606 1098.681,105.408 1100.185,106.244 1086.14,118.782 					"/>
				</g>
			</g>
		</g>
		<g>
			<g>
				<path fill="#41B871" d="M1160.756,68.885c0.409-1.633,0.652-3.332,0.652-5.093c0-11.535-9.351-20.884-20.886-20.884
					c-1.21,0-2.39,0.125-3.544,0.325c-3.652-2.229-7.927-3.538-12.52-3.538c-13.309,0-24.097,10.789-24.097,24.097
					c0,0.597,0.046,1.183,0.091,1.769c-6.035,6.806-9.729,15.731-9.729,25.541c0,21.294,17.262,38.555,38.555,38.555
					c21.294,0,38.554-17.261,38.554-38.555C1167.832,82.821,1165.199,75.168,1160.756,68.885z"/>
			</g>
			<g>
				<g>
					<g>
						<path fill="#5EBE82" d="M1160.756,68.885c0.409-1.633,0.652-3.332,0.652-5.093c0-11.535-9.351-20.884-20.886-20.884
							c-1.21,0-2.39,0.125-3.544,0.325c-3.652-2.229-7.927-3.538-12.52-3.538c-9.901,0-18.399,5.977-22.104,14.516
							c4.292-4.946,10.633-8.088,17.726-8.088c4.46,0,8.611,1.259,12.159,3.408c1.124-0.19,2.269-0.312,3.443-0.312
							c11.205,0,20.286,9.017,20.286,20.138c0,1.699-0.233,3.338-0.632,4.912c4.315,6.06,6.873,13.438,6.873,21.423
							c0,11.75-5.503,22.208-14.074,29.023c11.747-6.607,19.696-19.176,19.696-33.612
							C1167.832,82.821,1165.199,75.168,1160.756,68.885z"/>
					</g>
				</g>
				<g>
					<g>
						<path fill="#5EBE82" d="M1096.76,71.062c-0.014-0.175-0.015-0.355-0.027-0.53c-0.411,0.647-0.791,1.315-1.163,1.988
							C1095.963,72.031,1096.342,71.529,1096.76,71.062z"/>
					</g>
				</g>
			</g>
			<g>
				<g>
					<polygon fill="#81605A" points="1132.76,158.306 1126.066,158.306 1127.674,90.5 1129.411,90.5 					"/>
				</g>
				<g>
					<polygon fill="#81605A" points="1128.273,116.661 1113.214,104.411 1111.406,105.418 1128.273,120.479 					"/>
				</g>
				<g>
					<polygon fill="#81605A" points="1129.278,101.823 1119.06,93.511 1117.833,94.193 1129.278,104.411 					"/>
				</g>
				<g>
					<polygon fill="#81605A" points="1129.278,110.235 1144.339,97.987 1146.147,98.991 1129.278,114.053 					"/>
				</g>
			</g>
		</g>
	</g>
</g>
<g>
	<circle fill="#AFE1F1" cx="884.998" cy="98.997" r="97.998"/>
	<g>
		<polygon fill="#FFCE06" points="860.053,56.177 856.085,59.57 858.19,64.35 853.141,65.682 852.963,70.9 847.835,69.917 
			845.41,74.541 841.221,71.422 837.03,74.541 834.607,69.917 829.477,70.9 829.3,65.682 824.25,64.35 826.354,59.573 
			822.389,56.177 826.354,52.782 824.25,48.002 829.3,46.672 829.477,41.453 834.607,42.438 837.03,37.813 841.221,40.932 
			845.41,37.813 847.835,42.438 852.963,41.453 853.141,46.672 858.19,48.002 856.085,52.782 		"/>
		<circle fill="#F7A91B" cx="841.221" cy="56.176" r="12.555"/>
	</g>
	<path fill="#FFD15C" d="M972.46,143.248c-16.255,31.883-49.692,53.331-86.646,53.746c-38.774,0.435-72.112-21.855-88.279-53.746"/>
	<g>
		<path fill="#334B5E" d="M916.045,154.619V44.361c0-0.701-0.988-1.244-2.202-1.244c-1.211,0-2.203,0.576-2.203,1.244v110.291h4.405
			V154.619z"/>
		<path fill="#FFFFFF" d="M913.843,47.171L913.843,47.171c-29.623,0-53.629,20.717-53.629,46.254l0,0h107.258l0,0
			C967.472,67.858,943.468,47.171,913.843,47.171z"/>
		<path fill="#F3715B" d="M913.843,47.171L913.843,47.171c-21.164,0-38.307,20.717-38.307,46.254l0,0h76.611l0,0
			C952.147,67.858,935.008,47.171,913.843,47.171z"/>
		<path fill="#FFFFFF" d="M913.843,47.171L913.843,47.171c-12.705,0-22.981,20.717-22.981,46.254l0,0h45.966l0,0
			C936.827,67.858,926.549,47.171,913.843,47.171z"/>
		<path fill="#F3715B" d="M913.843,47.171L913.843,47.171c-4.244,0-7.661,20.717-7.661,46.254l0,0h15.324l0,0
			C921.506,67.858,918.088,47.171,913.843,47.171z"/>
		<path fill="#E7E9ED" d="M967.472,93.396c0,2.902-3.415,5.233-7.66,5.233c-4.247,0-7.664-2.362-7.664-5.233"/>
		<path fill="#F15640" d="M952.147,93.396c0,2.902-3.413,5.233-7.66,5.233c-4.245,0-7.66-2.362-7.66-5.233"/>
		<path fill="#E7E9ED" d="M936.827,93.396c0,2.902-3.417,5.233-7.661,5.233c-4.248,0-7.66-2.362-7.66-5.233"/>
		<path fill="#F15640" d="M921.506,93.396c0,2.902-3.418,5.233-7.663,5.233c-4.244,0-7.661-2.362-7.661-5.233"/>
		<path fill="#E7E9ED" d="M906.182,93.396c0,2.902-3.416,5.233-7.66,5.233c-4.247,0-7.66-2.362-7.66-5.233"/>
		<path fill="#F15640" d="M890.861,93.396c0,2.902-3.417,5.233-7.663,5.233s-7.662-2.362-7.662-5.233"/>
		<path fill="#E7E9ED" d="M875.536,93.396c0,2.902-3.415,5.233-7.66,5.233s-7.662-2.362-7.662-5.233"/>
	</g>
	<path fill="#EF4645" d="M829.137,126.884c0.285-0.107,0.563-0.249,0.823-0.434l3.772-2.696c1.579-1.129,1.948-3.344,0.82-4.925
		l-7.64-10.707c-1.128-1.579-3.343-1.948-4.923-0.819l-3.773,2.696c-0.26,0.186-0.48,0.402-0.675,0.639L829.137,126.884z"/>
	<rect x="831.568" y="135.398" fill="#03847C" width="9.644" height="19.934"/>
	<rect x="831.568" y="135.398" opacity="0.1" fill="#010101" enable-background="new    " width="4.735" height="19.934"/>
	<rect x="880.229" y="135.398" fill="#03847C" width="9.646" height="19.934"/>
	<rect x="880.229" y="135.398" opacity="0.1" fill="#010101" enable-background="new    " width="4.732" height="19.934"/>
	<path fill="#07B39B" d="M897.515,136.679c0,0.97-0.793,1.765-1.765,1.765h-67.39c-0.97,0-2.227-0.646-2.791-1.436l-17.128-24.003
		c-0.563-0.791-0.379-1.897,0.41-2.462l5.93-4.237c0.789-0.566,1.896-0.383,2.46,0.408l13.895,19.47
		c0.565,0.79,1.819,1.437,2.79,1.437h61.825c0.971,0,1.764,0.794,1.764,1.765V136.679L897.515,136.679z"/>
</g>
<g>
	<circle fill="#256C70" cx="-1138.999" cy="99" r="98.001"/>
	<g>
		<path fill="#F15B5C" d="M-1166.559,153.743c-2.227,0-4.959-1.578-6.072-3.507l-27.557-47.73c-1.115-1.929-1.115-5.083,0-7.012
			l27.557-47.731c1.113-1.93,3.846-3.506,6.072-3.506h55.115c2.23,0,4.961,1.578,6.074,3.506l27.559,47.731
			c1.113,1.929,1.113,5.083,0,7.012l-27.559,47.73c-1.113,1.929-3.848,3.507-6.074,3.507H-1166.559z"/>
		<g>
			<path fill="#FFFFFF" d="M-1112.443,147.023h-53.115c-0.721,0-1.391-0.386-1.75-1.014l-26.559-45.997
				c-0.361-0.625-0.361-1.398,0-2.024l26.559-45.999c0.359-0.628,1.029-1.014,1.75-1.014h53.115c0.725,0,1.395,0.386,1.754,1.014
				l26.557,45.999c0.363,0.626,0.363,1.398,0,2.024l-26.557,45.997C-1111.049,146.638-1111.719,147.023-1112.443,147.023z
				 M-1164.391,142.975h50.781L-1088.221,99l-25.389-43.975h-50.781L-1189.777,99L-1164.391,142.975z"/>
			<path fill="#FFFFFF" d="M-1173.33,105.425c-0.367-0.263-0.629-0.709-0.629-1.237c0-0.841,0.684-1.498,1.525-1.498
				c0.447,0,0.736,0.131,0.947,0.289c1.527,1.209,3.158,1.893,5.158,1.893s3.264-0.945,3.264-2.314v-0.053
				c0-1.316-0.736-2.027-4.156-2.816c-3.924-0.946-6.133-2.104-6.133-5.498v-0.054c0-3.158,2.633-5.343,6.289-5.343
				c2.314,0,4.184,0.605,5.842,1.712c0.369,0.209,0.713,0.657,0.713,1.287c0,0.845-0.686,1.502-1.527,1.502
				c-0.316,0-0.58-0.079-0.844-0.236c-1.42-0.921-2.789-1.396-4.234-1.396c-1.896,0-3,0.975-3,2.185V93.9
				c0,1.421,0.842,2.052,4.396,2.896c3.893,0.946,5.891,2.342,5.891,5.394v0.053c0,3.446-2.709,5.499-6.578,5.499
				C-1168.906,107.741-1171.275,106.95-1173.33,105.425z"/>
			<path fill="#FFFFFF" d="M-1151.879,92.056h-4.475c-0.842,0-1.5-0.683-1.5-1.499c0-0.815,0.658-1.5,1.5-1.5h12.236
				c0.816,0,1.473,0.685,1.473,1.5c0,0.816-0.656,1.499-1.473,1.499h-4.502v13.95c0,0.893-0.736,1.604-1.631,1.604
				c-0.893,0-1.629-0.711-1.629-1.604V92.056L-1151.879,92.056z"/>
			<path fill="#FFFFFF" d="M-1141.168,98.321v-0.053c0-5.184,3.998-9.525,9.654-9.525c5.66,0,9.607,4.288,9.607,9.473v0.053
				c0,5.185-3.998,9.527-9.658,9.527C-1137.225,107.793-1141.168,103.504-1141.168,98.321z M-1125.301,98.321v-0.053
				c0-3.578-2.604-6.554-6.264-6.554c-3.658,0-6.211,2.922-6.211,6.501v0.053c0,3.579,2.605,6.527,6.262,6.527
				C-1127.855,104.795-1125.301,101.9-1125.301,98.321z"/>
			<path fill="#FFFFFF" d="M-1117.988,90.688c0-0.92,0.713-1.631,1.635-1.631h5.631c4.314,0,7,2.447,7,6.158v0.053
				c0,4.131-3.316,6.29-7.369,6.29h-3.656v4.448c0,0.895-0.713,1.604-1.605,1.604c-0.922,0-1.635-0.709-1.635-1.604V90.688z
				 M-1110.986,98.635c2.447,0,3.975-1.367,3.975-3.288v-0.054c0-2.156-1.553-3.289-3.975-3.289h-3.762v6.631H-1110.986
				L-1110.986,98.635z"/>
		</g>
	</g>
</g>
<g transform="translate(0 -540.36)">
	<path fill="#484F59" d="M-859.431,540.981c-18.631,0.081-36.817,5.475-52.466,15.525c-33.017,21.168-50.216,59.986-43.762,98.64
		l0.097,0.784c0.859,5.437,2.356,10.003,4.154,15.232h185.1c5.353-16.059,6.782-33.587,3.718-49.972h-0.124
		c-4.739-25.784-19.613-48.584-41.31-63.333C-820.367,546.782-839.696,540.897-859.431,540.981z"/>
	<path fill="#F3F3F3" d="M-858.869,737.742c44.057,0,81.272-29.219,93.367-69.332c-28.315-5.973-59.962-9.317-93.364-9.317
		c-33.4,0-65.052,3.345-93.364,9.317C-940.137,708.523-902.921,737.742-858.869,737.742z"/>
	<path fill="#F0493C" d="M-857.461,612.259v7.468l11.943-3.165L-857.461,612.259z"/>
	<g>
		<path fill="#FFFFFF" d="M-857.306,619.761c-8.296,0.285-16.344,2.858-23.331,7.354c-15.365,9.969-23.742,28.234-21.535,47.03
			h0.694c0.04,0.572,0.082,1.145,0.122,1.716l93.407,0.49c0.045-0.571,0.045-1.144,0.084-1.755h0.696
			c1.714-18.799-7.111-37.144-22.76-47.276C-838.183,622.049-847.702,619.393-857.306,619.761z"/>
		<path fill="#FFFFFF" d="M-901.725,675.82c10.423,4.495,29.383,7.396,49.078,7.56c19.694,0.122,36.896-2.491,44.537-6.862"/>
		<rect x="-890.525" y="674.551" fill="#FFFFFF" width="82.499" height="2.046"/>
	</g>
	<path fill="#FFFFFF" d="M-882.679,682.277c0.612-11.319-2.453-22.392-7.928-28.48c-5.478-6.088-12.301-6.17-17.612-0.164
		c-5.313,6.007-8.254,16.997-7.478,28.359"/>
	<path fill="#E9E9E9" d="M-901.026,659.885c-1.922,0.122-3.8,1.143-5.438,2.981c-2.407,2.739-4.125,7.068-4.78,12.097
		c1.595-0.288,3.27-0.452,4.986-0.452c7.683,0,14.344,3.148,16.099,7.561h0.817c0.41-7.6-1.675-14.996-5.312-19.083
		C-896.532,660.825-898.779,659.761-901.026,659.885L-901.026,659.885z"/>
	<ellipse fill="#F3F3F3" cx="-904.91" cy="683.543" rx="14.957" ry="9.234"/>
</g>
<g>
	<circle fill="#256C70" cx="-1627" cy="99.001" r="98"/>
	<g>
		<path fill="#CB9A59" d="M-1694.007,59.905c-0.817-2.808,0.796-5.748,3.604-6.566c0.45-0.131,0.904-0.193,1.352-0.205v-0.006h0.179
			c0.023,0.002,0.048,0.001,0.073,0.002l25.588,0.009c0.311,0.743,0.59,1.511,0.82,2.302c0.807,2.777,1.027,5.583,0.741,8.291
			l-27.271-0.014C-1691.215,63.719-1693.333,62.219-1694.007,59.905z"/>
		<path fill="#513924" d="M-1702.605,141.113v-38.074c0-0.711,0.578-1.289,1.291-1.289h150.557c0.713,0,1.289,0.578,1.289,1.289
			v38.074c0,0.711-0.576,1.291-1.289,1.291h-150.557C-1702.027,142.4-1702.605,141.824-1702.605,141.113z"/>
		<path fill="#332820" d="M-1550.758,101.75h-150.557c-0.712,0-1.291,0.578-1.291,1.289v5.158h153.137v-5.158
			C-1549.469,102.328-1550.045,101.75-1550.758,101.75z"/>
		<g>
			<g>
				<path fill="#CB9A59" d="M-1696.652,108.721v-25.58c0-16.507,13.508-30.014,30.017-30.014h16.021
					c21.462,0,39.021,17.559,39.021,39.021v2.296c0,9.897-8.098,17.995-17.996,17.995h-63.341
					C-1694.978,112.438-1696.652,110.764-1696.652,108.721z"/>
				<g>
					<path fill="#CB9A59" d="M-1629.592,112.438h-63.336c-2.049,0-3.723-1.673-3.723-3.718V83.136
						c0-16.505,13.51-30.009,30.02-30.009h16.01c21.465,0,39.027,17.559,39.027,39.014v2.305
						C-1611.594,104.342-1619.695,112.438-1629.592,112.438z"/>
				</g>
			</g>
		</g>
		<g>
			<g>
				<path fill="#AF854E" d="M-1611.594,94.447v-2.306c0-0.828-0.031-1.65-0.082-2.469c-0.85,9.119-8.582,16.323-17.916,16.323
					h-63.339c-2.046,0-3.722-1.676-3.722-3.722v6.447c0,2.045,1.676,3.718,3.722,3.718h63.339
					C-1619.693,112.438-1611.594,104.342-1611.594,94.447z"/>
				<path fill="#AF854E" d="M-1653.529,112.438h-6.906c0.213-0.805,0.488-1.605,0.819-2.396l6.505-15.42
					c1.313-3.106,4.633-4.741,7.801-4.043c0.388,0.086,0.594,0.512,0.439,0.876l-7.842,18.587
					C-1653.047,110.834-1653.316,111.634-1653.529,112.438z"/>
				<path fill="#AF854E" d="M-1666.967,112.438h-6.447V96.831c0-0.355,0.287-0.645,0.644-0.645h0.359
					c3.007,0,5.444,2.438,5.444,5.444V112.438z"/>
			</g>
		</g>
		<path fill="#CB9A59" d="M-1621.164,98.039l-20.07,34.284c-0.543,0.928-1.71,1.284-2.683,0.82l0,0
			c-8.642-4.135-12.513-14.295-8.796-23.1l9.223-21.855L-1621.164,98.039z"/>
		<path fill="#CB9A59" d="M-1673.413,96.185v23.939c0,9.878-8.036,17.883-17.95,17.883l0,0c-2.92,0-5.289-2.358-5.289-5.269V96.185
			H-1673.413L-1673.413,96.185z"/>
		<path fill="#AF854E" d="M-1599.914,44.913c17.877,0,32.369,14.547,32.369,32.488s-14.492,32.486-32.369,32.486
			c-17.874,0-32.366-14.544-32.366-32.486S-1617.788,44.913-1599.914,44.913z"/>
		<path fill="#CB9A59" d="M-1599.914,56.517c12.203,0,22.098,10.683,22.098,23.858s-9.895,23.857-22.098,23.857
			c-12.201,0-22.094-10.681-22.094-23.857S-1612.115,56.517-1599.914,56.517z"/>
		<g>
			<g>
				<path fill="#967A60" d="M-1593.59,133.346c0-1.335,1.082-2.418,2.416-2.418h35.469c1.334,0,2.418,1.083,2.418,2.418
					s-1.084,2.416-2.418,2.416h-35.469C-1592.508,135.762-1593.59,134.681-1593.59,133.346z"/>
			</g>
		</g>
		<path fill="#333F48" d="M-1610.064,78.475c0-4.429-3.59-8.018-8.018-8.018c-0.709,0-1.395,0.102-2.051,0.273l-0.004-0.007
			l-0.258,0.075c-0.035,0.012-0.07,0.021-0.106,0.032l-11.646,3.407c-0.139,1.213-0.215,2.444-0.215,3.691
			c0,4.379,0.867,8.551,2.432,12.363l14.087-4.125C-1612.506,85.2-1610.064,82.124-1610.064,78.475z"/>
		<path fill="#5D6671" d="M-1613.986,77.401c0,1.641-1.331,2.973-2.973,2.973c-1.644,0-2.974-1.332-2.974-2.973
			c0-1.645,1.33-2.975,2.974-2.975C-1615.317,74.426-1613.986,75.756-1613.986,77.401z"/>
		<path fill="#333F48" d="M-1589.842,78.077c0-4.428,3.588-8.018,8.018-8.018c0.71,0,1.393,0.102,2.051,0.273l0.003-0.008
			l0.259,0.076c0.035,0.012,0.068,0.021,0.104,0.031l11.647,3.409c0.137,1.212,0.215,2.442,0.215,3.692
			c0,4.375-0.87,8.549-2.434,12.361l-14.086-4.126C-1587.4,84.801-1589.842,81.725-1589.842,78.077z"/>
		<circle fill="#5D6671" cx="-1582.948" cy="77.002" r="2.974"/>
		<path fill="#333F48" d="M-1595.105,85.811c0.617,0,1.014,0.764,0.516,1.264l-4.402,4.4c-0.499,0.499-1.308,0.499-1.807,0
			l-4.402-4.4c-0.497-0.5-0.243-1.264,0.398-1.264H-1595.105z"/>
	</g>
</g>
<g>
	<circle fill="#FDEEE8" cx="-603" cy="99" r="98"/>
	<g>
		<polygon fill="#FFCE06" points="-538.869,99 -552.375,110.559 -545.209,126.834 -562.406,131.365 -563.012,149.139 
			-580.475,145.788 -588.73,161.535 -603,150.914 -617.27,161.535 -625.525,145.788 -642.988,149.139 -643.596,131.365 
			-660.791,126.833 -653.625,110.561 -667.131,99 -653.625,87.439 -660.791,71.165 -643.594,66.634 -642.988,48.862 
			-625.525,52.211 -617.27,36.463 -603,47.084 -588.73,36.463 -580.475,52.211 -563.012,48.862 -562.404,66.634 -545.209,71.167 
			-552.375,87.439 		"/>
		<circle fill="#F7A91B" cx="-603" cy="99" r="42.753"/>
	</g>
</g>
<g>
	<circle fill="#FFD05C" cx="3226.998" cy="98.998" r="97.998"/>
	<path fill="#EEB35B" d="M3314.46,143.249c-16.255,31.882-49.691,53.331-86.644,53.745c-38.775,0.436-72.113-21.856-88.279-53.745"
		/>
	<g>
		<path fill="#495667" d="M3273.104,137.712c-5.512,0-9.993-4.484-9.993-9.996v-15.549c0-1.836-1.494-3.329-3.33-3.329h-6.667
			c-1.835,0-3.33-1.489-3.33-3.333c0-1.84,1.495-3.332,3.33-3.332h6.667c5.509,0,9.992,4.481,9.992,9.994v15.549
			c0,1.835,1.499,3.332,3.331,3.332c1.841,0,3.332-1.497,3.332-3.332V82.968c0-1.269-0.702-2.41-1.84-2.978l-11.864-5.93
			c-1.646-0.824-2.313-2.825-1.488-4.471c0.822-1.646,2.823-2.309,4.468-1.491l11.866,5.934c3.405,1.703,5.524,5.13,5.524,8.936
			v44.748C3283.102,133.228,3278.616,137.712,3273.104,137.712z"/>
		<path fill="#2B3B4E" d="M3264.221,62.194h-11.107c-1.835,0-3.33,1.492-3.33,3.333v26.651c0,1.839,1.495,3.333,3.33,3.333h11.107
			c1.842,0,3.33-1.494,3.33-3.333V65.523C3267.551,63.686,3266.063,62.194,3264.221,62.194z"/>
		<path fill="#395566" d="M3253.113,144.374h-59.966c-1.837,0-3.332-1.489-3.332-3.329V58.863c0-5.513,4.484-9.997,9.995-9.997
			h46.643c5.507,0,9.995,4.483,9.995,9.997v82.182C3256.448,142.885,3254.953,144.374,3253.113,144.374z"/>
		<path fill="#324A5E" d="M3253.113,144.374h-59.966c-1.837,0-3.332-1.489-3.332-3.329l56.638-92.178
			c5.507,0,9.995,4.483,9.995,9.997v82.182C3256.448,142.885,3254.953,144.374,3253.113,144.374z"/>
		<path fill="#2B3B4E" d="M3183.153,149.924v-5.55c0-3.68,2.983-6.662,6.662-6.662h66.633c3.679,0,6.662,2.982,6.662,6.662v5.55
			c0,0.615-0.497,1.114-1.11,1.114h-77.736C3183.648,151.038,3183.153,150.539,3183.153,149.924z"/>
		<path fill="#D0DCE6" d="M3245.044,82.186h-43.826c-1.839,0-3.33-1.492-3.33-3.333V60.269c0-1.837,1.491-3.328,3.33-3.328h43.826
			c1.843,0,3.332,1.491,3.332,3.328v18.583C3248.376,80.694,3246.887,82.186,3245.044,82.186z"/>
	</g>
</g>
<g>
	<circle fill="#65C6B9" cx="-123" cy="99" r="98"/>
	<g>
		<path fill="#B02A24" d="M-72.886,91.642l-50.116-38.635l-50.121,38.635c-2.585,1.993-6.262,1.686-8.487-0.704l0,0
			c-2.511-2.713-2.174-6.997,0.741-9.276l53.568-41.906l4.299-3.997l4.298,3.997l53.569,41.906c2.912,2.279,3.254,6.563,0.74,9.276
			l0,0C-66.624,93.328-70.298,93.634-72.886,91.642z"/>
		<path fill="#F3705B" d="M-72.886,91.642l-50.116-38.635l-50.121,38.635c-2.585,1.993-6.262,1.686-8.487-0.704l0,0
			c-2.511-2.713-2.174-6.997,0.741-9.276l53.568-41.906l4.299-3.997l4.298,3.997l53.569,41.906c2.912,2.279,3.254,6.563,0.74,9.276
			l0,0C-66.624,93.328-70.298,93.634-72.886,91.642z"/>
		<polygon fill="#FFFFFF" points="-123.002,53.007 -171.453,90.354 -171.453,90.528 -171.453,153.72 -74.557,153.72 -74.557,90.528 
			-74.557,90.354 		"/>
		<rect x="-151.983" y="117.912" fill="#566181" width="58.796" height="35.808"/>
		<rect x="-157.406" y="109.536" fill="#7585AB" width="69.647" height="8.376"/>
	</g>
</g>
<g>
	<circle fill="#C3D2D8" cx="99" cy="99" r="98"/>
	<g>
		<rect x="84.462" y="126.111" fill="#FCD089" width="29.074" height="29.075"/>
		<path fill="#FCD089" d="M130.185,96.544c0.157-1.445,0.237-2.871,0.237-4.263c0-18.389-14.068-33.296-31.423-33.296
			c-17.353,0-31.423,14.908-31.423,33.296c0,1.392,0.081,2.817,0.238,4.263c-3.05,0.794-4.5,5.483-3.24,10.5
			c1.263,5.036,4.774,8.49,7.845,7.723c0.277-0.072,0.538-0.184,0.791-0.316c5.678,11.397,15.109,20.646,25.789,20.646
			s20.112-9.248,25.79-20.646c0.252,0.133,0.513,0.244,0.791,0.316c3.07,0.768,6.581-2.687,7.844-7.723
			C134.685,102.027,133.234,97.338,130.185,96.544z"/>
		<path fill="#4A4A49" d="M66.989,91.256c0,0,0.587,6.46,2.055,10.377l2.74-0.099c0,0-0.686-5.286,5.092-10.669
			C82.652,85.481,66.989,91.256,66.989,91.256z"/>
		<path fill="#4A4A49" d="M121.798,90.866c5.778,5.383,5.09,10.669,5.09,10.669l2.742,0.099c1.469-3.917,2.054-10.377,2.054-10.377
			S116.023,85.481,121.798,90.866z"/>
		<path fill="#4A4A49" d="M105.502,118.761c-4.354-2.822-5.689-1.578-6.503-0.189c-0.812-1.389-2.145-2.633-6.5,0.189
			c-4.455,2.889-10.328-0.438-10.328-0.438s3.134,6.095,10.816,5.335c3.29-0.326,5.312-1.672,6.013-3.04
			c0.706,1.368,2.723,2.714,6.015,3.04c7.682,0.759,10.816-5.335,10.816-5.335S109.957,121.649,105.502,118.761z"/>
		<path fill="#333333" d="M105.502,118.761c-4.188-2.713-5.58-1.667-6.403-0.348v2.356c0.77,1.317,2.751,2.575,5.916,2.888
			c7.682,0.76,10.816-5.335,10.816-5.335S109.957,121.649,105.502,118.761z"/>
		<path fill="#334B5E" d="M131.305,90.081h-64.61v-39.94c0-2.27,1.841-4.111,4.113-4.111h56.383c2.272,0,4.114,1.842,4.114,4.111
			V90.081L131.305,90.081z"/>
		<rect x="66.694" y="72.262" fill="#445C6D" width="64.61" height="17.817"/>
		<path fill="#2C3C4F" d="M140.293,92.568H57.71c-1.201,0-2.174-0.973-2.174-2.174v-2.486c0-1.201,0.973-2.175,2.174-2.175h82.58
			c1.201,0,2.173,0.975,2.173,2.175v2.486C142.464,91.596,141.491,92.568,140.293,92.568z"/>
	</g>
	<g>
		<g>
			<path fill="#2C3C4F" d="M94.08,196.86l-14.074-50.555l-28.15,7.242l-15.009,21.225C52.738,187.55,72.259,195.953,94.08,196.86z"
				/>
			<path fill="#2C3C4F" d="M161.303,174.65l-14.89-21.24l-28.285-7.242l-13.663,50.692
				C125.781,195.63,145.487,187.646,161.303,174.65z"/>
		</g>
		<path fill="#E7E9ED" d="M99.137,147.809L99.137,147.809l-17.765-3.279l5.057,35.253l-5.74,15.302
			C86.565,196.315,92.85,197,99.137,197c6.286,0,12.435-0.685,18.308-1.916l-5.603-15.027l5.058-35.527L99.137,147.809z"/>
		<g>
			<path fill="#334B5E" d="M127.284,156.416c0.275-8.199-13.664-16.531-13.664-16.531c-0.135,12.569-5.602,38.667-9.702,57.115
				c4.783-0.278,9.429-0.96,13.94-1.916c8.059-13.389,14.481-27.602,14.481-27.602l-15.44-2.731L127.284,156.416z"/>
			<path fill="#334B5E" d="M84.513,139.885c0,0-13.934,8.332-13.66,16.531l10.248,8.199l-15.441,2.733
				c0,0,6.71,14.543,14.771,27.934c4.51,0.962,8.868,1.307,13.65,1.578C90.119,178.552,84.789,152.454,84.513,139.885z"/>
		</g>
		<g>
			<path fill="#FFFFFF" d="M113.485,132.913c0,0-0.275,10.523-14.486,14.896c0,0,6.424-1.641,11.479,4.917
				C110.613,152.726,117.444,146.714,113.485,132.913z"/>
			<path fill="#FFFFFF" d="M84.652,132.913c0,0,0.274,10.523,14.484,14.896c0,0-6.423-1.641-11.479,4.917
				C87.521,152.726,80.826,146.714,84.652,132.913z"/>
		</g>
	</g>
</g>
<g>
	<circle fill="#424A60" cx="341" cy="99" r="98"/>
	<g>
		<path fill="#E7ECEC" d="M376.978,49.63h-71.957l0.002,96.711l71.954-0.003L376.978,49.63z"/>
		<g>
			<g>
				<path fill="#FFFFFF" d="M376.978,49.63V39.375c0-4.145-3.359-7.504-7.501-7.502l-56.952-0.002c-4.143,0-7.502,3.36-7.502,7.504
					l-0.002,10.255H376.978z"/>
				<path fill="#FFFFFF" d="M376.977,161.733v-15.395l-71.954,0.003v15.389c0,4.146,3.359,7.505,7.501,7.501h56.949
					C373.617,169.237,376.977,165.879,376.977,161.733z"/>
			</g>
		</g>
		<circle fill="#C1C4C9" cx="341.818" cy="157.785" r="6.541"/>
		<g>
			<polygon fill="#ED1C24" points="363.339,105.169 338.104,105.169 341.246,96.092 366.484,96.092 363.339,105.169 			"/>
			<polygon fill="#6D6E67" points="340.691,105.169 313.873,105.169 317.019,96.092 343.837,96.092 340.691,105.169 			"/>
			<polygon fill="#FFFFFF" points="320.529,103.792 317.834,97.773 318.492,97.773 320.908,103.274 323.326,97.773 323.986,97.773 
				321.286,103.792 320.529,103.792 			"/>
			<polygon fill="#FFFFFF" points="324.774,97.773 325.379,97.773 325.379,103.796 324.774,103.796 324.774,97.773 			"/>
			<polygon fill="#FFFFFF" points="326.834,103.792 326.834,97.773 331.462,97.773 331.462,98.335 327.438,98.335 327.438,100.442 
				331.154,100.442 331.154,101.011 327.438,101.011 327.438,103.227 331.462,103.227 331.462,103.792 326.834,103.792 			"/>
			<polygon fill="#FFFFFF" points="334.002,103.792 332.012,97.773 332.654,97.773 334.412,103.259 336.138,97.773 336.86,97.773 
				338.563,103.259 340.361,97.773 340.989,97.773 338.954,103.792 338.16,103.792 336.488,98.416 334.788,103.792 334.002,103.792 
							"/>
			<path fill="#FFFFFF" d="M350.079,101.731c-0.046,0.681-0.309,1.222-0.786,1.625c-0.479,0.402-1.103,0.602-1.876,0.602
				c-0.884,0-1.576-0.278-2.069-0.827c-0.492-0.556-0.737-1.335-0.737-2.331c0-1.017,0.251-1.8,0.752-2.343
				c0.504-0.542,1.225-0.816,2.165-0.816c0.766,0,1.37,0.189,1.815,0.563c0.442,0.375,0.687,0.9,0.729,1.581h-1.215
				c-0.051-0.343-0.189-0.598-0.416-0.776c-0.224-0.177-0.529-0.266-0.913-0.266c-0.54,0-0.952,0.175-1.235,0.522
				c-0.281,0.35-0.424,0.861-0.424,1.534c0,0.654,0.143,1.159,0.42,1.513c0.282,0.353,0.682,0.533,1.199,0.533
				c0.373,0,0.681-0.099,0.921-0.29c0.237-0.189,0.395-0.463,0.461-0.824H350.079L350.079,101.731z"/>
			<path fill="#FFFFFF" d="M352.58,97.8h1.422l2.162,5.992h-1.296l-0.407-1.234h-2.319l-0.398,1.234h-1.3L352.58,97.8L352.58,97.8z
				 M353.294,99l-0.83,2.551h1.664L353.294,99L353.294,99z"/>
			<path fill="#FFFFFF" d="M356.783,103.796V97.8h2.905c0.653,0,1.139,0.14,1.453,0.417c0.313,0.279,0.472,0.708,0.472,1.282
				c0,0.367-0.076,0.672-0.229,0.918c-0.155,0.241-0.375,0.41-0.664,0.499c0.262,0.092,0.445,0.232,0.556,0.42
				c0.112,0.19,0.175,0.488,0.189,0.891l0.023,0.708v0.023c0.011,0.355,0.084,0.577,0.233,0.651v0.187h-1.35
				c-0.045-0.084-0.078-0.194-0.101-0.313c-0.023-0.126-0.038-0.271-0.045-0.441l-0.015-0.631c-0.014-0.372-0.085-0.627-0.212-0.757
				c-0.124-0.131-0.353-0.191-0.68-0.191h-1.308v2.334H356.783L356.783,103.796z M358.014,100.421h1.451
				c0.314,0,0.546-0.068,0.694-0.194c0.146-0.125,0.223-0.33,0.223-0.602c0-0.262-0.073-0.459-0.217-0.591
				c-0.144-0.135-0.358-0.199-0.643-0.199h-1.509V100.421L358.014,100.421z"/>
			<path fill="#ED1C24" d="M313.457,96.276l-0.162-0.183c2.399-2.122,5.75-3.197,10.54-3.384c3.474-0.132,7.913-0.13,12.205-0.128
				c4.51,0.002,8.773,0.005,11.22-0.157l0.025-0.001c0.805-0.043,3.497-0.292,4.415-1.702l0.205,0.134
				c-0.98,1.506-3.773,1.767-4.604,1.811l-0.027,0.002c-2.451,0.165-6.718,0.161-11.233,0.155
				c-4.292-0.002-8.728-0.005-12.194,0.129C319.111,93.136,315.809,94.194,313.457,96.276"/>
			<path fill="#ED1C24" d="M366.499,92.669c-7.162,0-9.055-0.936-11.245-2.016c-0.719-0.351-1.459-0.717-2.43-1.064
				c-2.664-0.958-6.074-1.474-10.429-1.58c-1.773-0.042-6.446,0.207-11.567,3.477l-0.263-0.414c3.684-2.355,7.997-3.65,11.839-3.555
				c4.411,0.107,7.872,0.636,10.584,1.608c0.999,0.359,1.752,0.731,2.48,1.09c2.136,1.055,3.981,1.962,11.03,1.962V92.669
				L366.499,92.669z"/>
		</g>
	</g>
</g>
<g>
	<circle fill="#E1F2EC" cx="613.001" cy="99" r="98.001"/>
	<g>
		<g>
			<path fill="#21AE88" d="M586.826,48.309c-0.004,0.012-0.01,0.018-0.015,0.03l-0.625,1.078c-0.012,0.022-0.022,0.048-0.033,0.071
				l-10.728,18.57l22.709,13.11l10.421-18.051l1.306-2.26l3.142-5.438l7.565-13.11h-22.706
				C593.236,42.305,589.167,44.697,586.826,48.309z"/>
			<path fill="#21AE88" d="M639.494,48.861c-1.11-1.928-2.732-3.604-4.798-4.798c-2.069-1.196-4.327-1.758-6.559-1.758h-22.704
				h-7.569c4.614,0,8.673,2.377,11.02,5.973l0.709,1.236l18.279,31.651l22.704-13.11L639.494,48.861z"/>
			<polygon fill="#21AE88" points="616.967,81.167 643.01,81.167 656.031,58.618 			"/>
			<path fill="#21AE88" d="M669.548,100.914c-0.005-0.008-0.009-0.016-0.021-0.023l-0.624-1.083
				c-0.009-0.024-0.027-0.048-0.037-0.065l-10.72-18.574l-22.709,13.11l10.423,18.048l1.304,2.263l3.136,5.439l7.574,13.109
				l11.354-19.665C671.542,109.467,671.506,104.747,669.548,100.914z"/>
			<path fill="#21AE88" d="M642.736,146.252c2.224,0,4.487-0.56,6.552-1.758c2.068-1.195,3.686-2.869,4.801-4.798l11.354-19.666
				l3.788-6.557c-2.311,3.995-6.393,6.323-10.681,6.556h-1.432l-36.55,0.001v26.222H642.736L642.736,146.252L642.736,146.252z"/>
			<polygon fill="#21AE88" points="626.019,110.593 613.003,133.143 626.019,155.693 			"/>
			<path fill="#21AE88" d="M605.428,120.029h-20.847h-2.609h-6.279h-15.138l11.353,19.665c2.313,4.005,6.417,6.333,10.717,6.553
				c0.012,0,0.018,0,0.018,0h1.262c0.022,0.005,0.053,0,0.077-0.002l21.446,0.002L605.428,120.029L605.428,120.029z"/>
			<path fill="#21AE88" d="M556.763,100.361c-1.105,1.927-1.752,4.167-1.752,6.556c0,2.387,0.646,4.624,1.752,6.554l11.358,19.664
				l3.787,6.558c-2.307-3.995-2.278-8.697-0.338-12.528l0.714-1.237l18.272-31.652l-22.708-13.112L556.763,100.361z"/>
			<polygon fill="#21AE88" points="596.006,103.714 582.988,81.167 556.951,81.163 			"/>
		</g>
	</g>
</g>
<g>
	<circle fill="#FFD05C" cx="2749" cy="99" r="98"/>
	<g>
		<g>
			<g>
				<polygon fill="#FFFFFF" points="2804.14,144.73 2694.741,144.73 2694.741,93.804 2717.376,93.804 2749.44,61.739 
					2781.506,93.804 2804.14,93.804 				"/>
			</g>
		</g>
		<g>
			<rect x="2722.534" y="121.508" fill="#3C4356" width="53.775" height="22.635"/>
		</g>
		<g>
			<rect x="2717.212" y="118.196" fill="#CCCBC9" width="64.563" height="4.105"/>
		</g>
		<g>
			<g>
				<path fill="#F3705B" d="M2761.458,41.66c0,0,3.792-6.327,3.327-6.327h-14.895c-0.694,0-1.257,0.707-1.257,1.582v9.489
					c0,0.876,0.563,1.583,1.257,1.583h14.934C2765.288,47.987,2761.458,41.66,2761.458,41.66z"/>
			</g>
		</g>
		<g>
			<g>
				<path fill="#5D556B" d="M2749.492,63.625c-1.042,0-1.886-0.844-1.886-1.887v-24.52c0-1.043,0.844-1.887,1.886-1.887
					s1.886,0.844,1.886,1.887v24.52C2751.378,62.782,2750.534,63.625,2749.492,63.625z"/>
			</g>
		</g>
		<g>
			<g>
				<path fill="#F3705B" d="M2757.129,70.448c0.291-0.705,0.979-1.164,1.743-1.164h35.838c0.644,0,1.243,0.33,1.59,0.873
					l13.204,20.749c0.371,0.581,0.393,1.317,0.062,1.921c-0.33,0.602-0.965,0.978-1.654,0.978h-28.291
					c-0.502,0-0.98-0.198-1.333-0.552l-20.749-20.748C2756.999,71.964,2756.837,71.154,2757.129,70.448z"/>
			</g>
		</g>
		<g>
			<g>
				<path fill="#F3705B" d="M2741.804,70.448c-0.292-0.705-0.979-1.164-1.743-1.164h-35.837c-0.645,0-1.245,0.33-1.592,0.873
					l-13.203,20.749c-0.371,0.581-0.392,1.317-0.062,1.921c0.33,0.602,0.964,0.978,1.654,0.978h28.292
					c0.501,0,0.979-0.198,1.332-0.552l20.75-20.748C2741.935,71.964,2742.097,71.154,2741.804,70.448z"/>
			</g>
		</g>
		<g>
			<g>
				<g>
					<path fill="#BD4D33" d="M2781.532,95.666c-0.483,0-0.965-0.185-1.334-0.554l-30.706-30.705l-30.706,30.705
						c-0.736,0.738-1.93,0.738-2.666,0c-0.738-0.736-0.738-1.93,0-2.666l32.039-32.04c0.736-0.737,1.93-0.737,2.666,0l32.039,32.04
						c0.738,0.736,0.738,1.93,0,2.666C2782.497,95.481,2782.014,95.666,2781.532,95.666z"/>
				</g>
			</g>
		</g>
		<g>
			<circle fill="#CCCBC9" cx="2749.492" cy="93.804" r="11.317"/>
		</g>
		<g>
			<path fill="#3C4356" d="M2749.492,86.26c-1.042,0-1.886,0.844-1.886,1.887v3.771h-3.772c-1.044,0-1.886,0.844-1.886,1.886
				c0,1.043,0.842,1.887,1.886,1.887h5.658c1.042,0,1.886-0.844,1.886-1.887v-5.657C2751.378,87.104,2750.534,86.26,2749.492,86.26z
				"/>
		</g>
		<g>
			<path fill="#3C4356" d="M2749.492,107.008c-7.28,0-13.204-5.924-13.204-13.204c0-7.28,5.924-13.202,13.204-13.202
				s13.204,5.922,13.204,13.202C2762.696,101.084,2756.772,107.008,2749.492,107.008z M2749.492,84.374
				c-5.2,0-9.432,4.23-9.432,9.431s4.231,9.431,9.432,9.431c5.199,0,9.432-4.231,9.432-9.431S2754.691,84.374,2749.492,84.374z"/>
		</g>
		<g>
			<g>
				<g>
					<path fill="#CCCBC9" d="M2807.963,146.618h-116.941c-1.044,0-1.888-0.845-1.888-1.888c0-1.042,0.844-1.886,1.888-1.886h116.941
						c1.044,0,1.888,0.844,1.888,1.886C2809.851,145.773,2809.007,146.618,2807.963,146.618z"/>
				</g>
			</g>
		</g>
	</g>
</g>
<g>
	<path fill="#E1F2EC" d="M-1281,99c0,54.127-43.875,98-98,98s-98-43.873-98-98C-1477,44.875-1433.125,1-1379,1S-1281,44.875-1281,99
		z"/>
	<g>
		<path fill="#47505E" d="M-1285.021,71.211h-75.97c-35.988,0-65.164,29.175-65.164,65.164v48.545
			c9.617,5.289,20.218,9.004,31.458,10.814v-59.359c0-18.615,15.093-33.706,33.706-33.706h79.898
			c0.043-1.22,0.092-2.438,0.092-3.669C-1281,89.343-1282.419,80.024-1285.021,71.211z"/>
	</g>
	<g>
		<path fill="#FFFFFF" d="M-1350.039,89.188h-9.604c-1.243,0-2.249-1.005-2.249-2.247c0-1.243,1.006-2.247,2.249-2.247h9.604
			c1.244,0,2.248,1.004,2.248,2.247C-1347.791,88.183-1348.797,89.188-1350.039,89.188 M-1326.02,89.188h-9.607
			c-1.242,0-2.246-1.005-2.246-2.247c0-1.243,1.004-2.247,2.246-2.247h9.607c1.242,0,2.248,1.004,2.248,2.247
			C-1323.771,88.183-1324.777,89.188-1326.02,89.188 M-1301.103,89.188h-9.606c-1.242,0-2.247-1.005-2.247-2.247
			c0-1.243,1.005-2.247,2.247-2.247h9.606c1.243,0,2.249,1.004,2.249,2.247C-1298.854,88.183-1299.859,89.188-1301.103,89.188
			 M-1382.873,94.284c-0.828,0-1.627-0.461-2.016-1.252c-0.55-1.111-0.096-2.459,1.016-3.011c3.002-1.479,6.159-2.673,9.383-3.545
			c1.203-0.319,2.43,0.386,2.757,1.585c0.323,1.196-0.386,2.43-1.583,2.757c-2.947,0.792-5.824,1.88-8.563,3.233
			C-1382.199,94.208-1382.539,94.284-1382.873,94.284 M-1401.035,109.631c-0.459,0-0.922-0.139-1.318-0.43
			c-1.003-0.728-1.229-2.133-0.5-3.136c1.963-2.709,4.196-5.235,6.639-7.51c0.908-0.846,2.334-0.799,3.175,0.112
			c0.849,0.909,0.798,2.329-0.112,3.174c-2.23,2.078-4.27,4.387-6.064,6.859C-1399.654,109.307-1400.342,109.631-1401.035,109.631
			 M-1409.938,131.676c-0.103,0-0.209-0.006-0.313-0.021c-1.232-0.173-2.09-1.309-1.914-2.533c0.465-3.32,1.258-6.602,2.354-9.749
			c0.41-1.173,1.688-1.794,2.863-1.385c1.173,0.409,1.793,1.69,1.383,2.862c-1,2.873-1.727,5.866-2.15,8.893
			C-1407.871,130.867-1408.832,131.676-1409.938,131.676 M-1410.425,155.671c-1.242,0-2.247-1.005-2.247-2.247v-9.607
			c0-1.242,1.005-2.246,2.247-2.246c1.243,0,2.247,1.004,2.247,2.246v9.607C-1408.178,154.666-1409.182,155.671-1410.425,155.671
			 M-1410.425,178.81c-1.242,0-2.247-1.006-2.247-2.249v-9.606c0-1.242,1.005-2.245,2.247-2.245c1.243,0,2.247,1.003,2.247,2.245
			v9.606C-1408.178,177.804-1409.182,178.81-1410.425,178.81"/>
	</g>
	<g>
		<path fill="#A7683A" d="M-1353.211,152.885v25.389c0,2.92-2.369,5.289-5.287,5.289c-2.927,0-5.295-2.369-5.295-5.289v-25.389
			c0-2.922,2.368-5.293,5.295-5.293C-1355.58,147.592-1353.211,149.963-1353.211,152.885z"/>
		<path fill="#9A532F" d="M-1353.211,152.885v25.389c0,2.92-2.369,5.289-5.287,5.289v-35.971
			C-1355.58,147.592-1353.211,149.963-1353.211,152.885z"/>
		<path fill="#8AC640" d="M-1334.108,152.408c0,1.239-0.431,2.375-1.142,3.275c-0.014,0.021-0.021,0.033-0.031,0.049
			c-0.084,0.096-0.176,0.196-0.266,0.293c-0.027,0.03-0.053,0.064-0.08,0.092c-0.088,0.088-0.172,0.166-0.262,0.245
			c-0.042,0.033-0.078,0.069-0.119,0.105c-0.096,0.079-0.193,0.148-0.295,0.228c-0.039,0.027-0.072,0.055-0.113,0.082
			c-0.137,0.097-0.281,0.182-0.426,0.264c-0.008,0-0.008,0-0.012,0.002c-0.355,0.195-0.738,0.352-1.141,0.459
			c-0.094,0.027-0.187,0.051-0.275,0.072c-0.059,0.016-0.117,0.027-0.178,0.033c-0.111,0.023-0.223,0.036-0.33,0.051
			c-0.043,0.004-0.091,0.013-0.133,0.013c-0.17,0.021-0.334,0.03-0.494,0.03c-0.012,0-0.023,0-0.031,0h-37.854
			c-0.008,0-0.021,0-0.034,0c-0.163,0-0.325-0.01-0.494-0.03c-0.039,0-0.079-0.003-0.118-0.013c-0.117-0.015-0.232-0.029-0.35-0.051
			c-0.055-0.012-0.109-0.018-0.159-0.027c-0.114-0.03-0.231-0.058-0.353-0.094c-0.371-0.106-0.73-0.252-1.061-0.437
			c-0.084-0.042-0.156-0.091-0.232-0.143c-0.068-0.039-0.141-0.075-0.201-0.121c-0.1-0.063-0.189-0.137-0.287-0.209
			c-0.037-0.033-0.084-0.067-0.121-0.097c-0.092-0.073-0.174-0.154-0.262-0.233c-0.039-0.042-0.08-0.073-0.113-0.112
			c-0.078-0.072-0.143-0.154-0.213-0.233c-0.047-0.048-0.092-0.1-0.133-0.148c-0.059-0.069-0.104-0.14-0.156-0.206
			c-0.051-0.072-0.108-0.139-0.154-0.212c-0.036-0.055-0.066-0.112-0.1-0.173c-0.058-0.085-0.111-0.176-0.164-0.272
			c-0.023-0.042-0.044-0.091-0.068-0.136c-0.049-0.106-0.103-0.216-0.149-0.324c-0.017-0.046-0.03-0.092-0.048-0.14
			c-0.045-0.112-0.088-0.225-0.125-0.339c-0.018-0.073-0.031-0.146-0.057-0.213c-0.021-0.097-0.048-0.188-0.069-0.279
			c-0.103-0.514-0.128-1.051-0.075-1.58c0.008-0.095,0.025-0.18,0.039-0.273c0.018-0.082,0.021-0.16,0.036-0.24
			c0.036-0.193,0.088-0.375,0.144-0.557l18.922-61.105c0.063-0.203,0.13-0.399,0.213-0.592c0.012-0.016,0.014-0.027,0.023-0.047
			c0.061-0.141,0.13-0.277,0.199-0.416c0.025-0.037,0.051-0.082,0.073-0.119c0.065-0.111,0.127-0.215,0.194-0.318
			c0.031-0.047,0.064-0.088,0.098-0.135c0.071-0.092,0.137-0.186,0.211-0.278c0.036-0.039,0.072-0.079,0.105-0.116
			c0.079-0.092,0.16-0.18,0.244-0.264c0.033-0.033,0.066-0.063,0.099-0.092c0.091-0.088,0.188-0.174,0.288-0.255
			c0.03-0.022,0.059-0.038,0.084-0.065c0.105-0.08,0.217-0.16,0.33-0.238c0.027-0.022,0.061-0.033,0.088-0.055
			c0.115-0.07,0.23-0.142,0.35-0.204c0.039-0.021,0.083-0.04,0.117-0.06c0.115-0.054,0.225-0.11,0.342-0.156
			c0.072-0.031,0.145-0.057,0.219-0.081c0.08-0.027,0.158-0.067,0.24-0.087c0.006-0.006,0.016-0.006,0.023-0.008
			c0.125-0.037,0.25-0.068,0.377-0.1c0.041-0.009,0.084-0.021,0.127-0.028c0.17-0.035,0.346-0.06,0.521-0.079
			c0.057-0.004,0.119-0.004,0.182-0.008c0.063-0.003,0.131-0.009,0.199-0.012c0.044-0.003,0.088-0.003,0.135-0.003
			c0.113,0,0.229,0.006,0.338,0.015c0.059,0.004,0.123,0.004,0.184,0.008c0.172,0.02,0.348,0.044,0.517,0.079
			c0.039,0.007,0.083,0.02,0.122,0.028c0.133,0.031,0.258,0.061,0.381,0.1c0.01,0.002,0.018,0.002,0.025,0.008
			c0.08,0.02,0.158,0.054,0.236,0.087c0.072,0.024,0.15,0.05,0.22,0.081c0.118,0.046,0.231,0.098,0.337,0.156
			c0.042,0.02,0.084,0.038,0.121,0.06c0.123,0.063,0.238,0.134,0.354,0.204c0.027,0.018,0.059,0.032,0.086,0.055
			c0.114,0.078,0.224,0.158,0.326,0.238c0.033,0.021,0.058,0.043,0.085,0.065c0.103,0.081,0.2,0.167,0.29,0.255
			c0.034,0.029,0.068,0.059,0.097,0.092c0.089,0.084,0.171,0.172,0.247,0.264c0.037,0.037,0.072,0.077,0.105,0.116
			c0.072,0.093,0.145,0.187,0.211,0.278c0.033,0.047,0.066,0.088,0.098,0.135c0.068,0.104,0.135,0.213,0.195,0.318
			c0.027,0.041,0.051,0.082,0.068,0.119c0.074,0.139,0.145,0.281,0.207,0.418c0.008,0.018,0.014,0.029,0.016,0.045
			c0.088,0.192,0.154,0.389,0.219,0.592l18.9,61.053C-1334.204,151.275-1334.108,151.832-1334.108,152.408z"/>
		<path fill="#80B441" d="M-1334.108,152.408c0,1.239-0.431,2.375-1.142,3.275c-0.014,0.021-0.021,0.033-0.031,0.049
			c-0.084,0.096-0.176,0.196-0.266,0.293c-0.027,0.03-0.053,0.064-0.08,0.092c-0.088,0.088-0.172,0.166-0.262,0.245
			c-0.042,0.033-0.078,0.069-0.119,0.105c-0.096,0.079-0.193,0.148-0.295,0.228c-0.039,0.027-0.072,0.055-0.113,0.082
			c-0.137,0.097-0.281,0.182-0.426,0.264c-0.008,0-0.008,0-0.012,0.002c-0.355,0.195-0.738,0.352-1.141,0.459
			c-0.094,0.027-0.187,0.051-0.275,0.072c-0.059,0.016-0.117,0.027-0.178,0.033c-0.111,0.023-0.223,0.036-0.33,0.051
			c-0.043,0.004-0.091,0.013-0.133,0.013c-0.17,0.021-0.334,0.03-0.494,0.03c-0.012,0-0.023,0-0.031,0h-19.063V85.888
			c0.044-0.001,0.091-0.001,0.135-0.001c0.113,0,0.229,0.007,0.338,0.013c0.059,0.007,0.123,0.007,0.184,0.011
			c0.172,0.017,0.348,0.044,0.517,0.077c0.039,0.009,0.083,0.021,0.122,0.03c0.133,0.031,0.258,0.058,0.384,0.094
			c0.007,0.008,0.015,0.008,0.022,0.01c0.08,0.023,0.164,0.058,0.238,0.09c0.07,0.025,0.148,0.049,0.218,0.08
			c0.118,0.048,0.231,0.098,0.337,0.154c0.042,0.021,0.084,0.039,0.121,0.061c0.123,0.065,0.238,0.137,0.354,0.206
			c0.027,0.019,0.059,0.033,0.086,0.056c0.114,0.071,0.224,0.154,0.326,0.238c0.033,0.021,0.058,0.041,0.085,0.065
			c0.103,0.081,0.2,0.165,0.292,0.253c0.032,0.031,0.066,0.061,0.095,0.094c0.089,0.082,0.171,0.17,0.247,0.264
			c0.037,0.037,0.072,0.077,0.105,0.115c0.072,0.094,0.145,0.184,0.211,0.279c0.033,0.045,0.066,0.088,0.098,0.133
			c0.068,0.105,0.135,0.215,0.195,0.32c0.027,0.039,0.051,0.082,0.068,0.119c0.074,0.139,0.145,0.277,0.207,0.418
			c0.008,0.015,0.014,0.027,0.016,0.045c0.088,0.192,0.16,0.389,0.219,0.592l18.9,61.05
			C-1334.204,151.275-1334.108,151.832-1334.108,152.408z"/>
	</g>
	<g>
		<path fill="#A7683A" d="M-1405.002,66.016v13.369c0,1.537-1.248,2.785-2.783,2.785c-1.541,0-2.788-1.248-2.788-2.785V66.016
			c0-1.537,1.247-2.785,2.788-2.785C-1406.25,63.231-1405.002,64.479-1405.002,66.016z"/>
		<path fill="#9A532F" d="M-1405.002,66.016v13.369c0,1.537-1.248,2.785-2.783,2.785V63.231
			C-1406.25,63.231-1405.002,64.479-1405.002,66.016z"/>
		<path fill="#8AC640" d="M-1394.944,65.764c0,0.654-0.228,1.255-0.601,1.728c-0.008,0.011-0.014,0.017-0.016,0.024
			c-0.045,0.051-0.094,0.104-0.143,0.154c-0.016,0.018-0.025,0.033-0.041,0.049c-0.045,0.045-0.092,0.088-0.139,0.129
			c-0.02,0.018-0.039,0.037-0.063,0.055c-0.049,0.043-0.1,0.08-0.154,0.121c-0.021,0.013-0.039,0.028-0.06,0.043
			c-0.073,0.051-0.147,0.094-0.226,0.14c-0.004,0-0.004,0-0.004,0.001c-0.188,0.102-0.391,0.184-0.603,0.241
			c-0.048,0.015-0.097,0.024-0.144,0.038c-0.032,0.008-0.063,0.014-0.096,0.019c-0.058,0.012-0.117,0.019-0.173,0.025
			c-0.022,0.001-0.048,0.006-0.069,0.008c-0.09,0.009-0.176,0.015-0.261,0.015c-0.006,0-0.013,0-0.017,0h-19.928
			c-0.006,0-0.013,0-0.021,0c-0.084,0-0.17-0.006-0.258-0.015c-0.021-0.002-0.043-0.002-0.063-0.008
			c-0.062-0.007-0.123-0.016-0.184-0.027c-0.028-0.007-0.056-0.009-0.083-0.015c-0.063-0.016-0.125-0.029-0.187-0.049
			c-0.196-0.055-0.386-0.134-0.56-0.23c-0.043-0.021-0.08-0.049-0.121-0.072c-0.035-0.021-0.074-0.041-0.107-0.065
			c-0.051-0.035-0.098-0.073-0.15-0.11c-0.019-0.018-0.045-0.033-0.063-0.052c-0.049-0.036-0.092-0.081-0.139-0.122
			c-0.02-0.023-0.042-0.039-0.061-0.06c-0.041-0.038-0.074-0.082-0.111-0.122c-0.024-0.026-0.047-0.053-0.068-0.078
			c-0.031-0.036-0.055-0.074-0.084-0.109c-0.025-0.037-0.055-0.072-0.08-0.111c-0.021-0.027-0.035-0.059-0.055-0.09
			c-0.029-0.044-0.057-0.092-0.084-0.144c-0.012-0.024-0.024-0.049-0.037-0.073c-0.027-0.055-0.055-0.111-0.078-0.17
			c-0.01-0.023-0.016-0.048-0.024-0.072c-0.024-0.061-0.048-0.119-0.067-0.18c-0.008-0.038-0.018-0.076-0.029-0.111
			c-0.011-0.051-0.024-0.1-0.037-0.145c-0.055-0.275-0.067-0.555-0.039-0.836c0.004-0.049,0.014-0.094,0.021-0.143
			c0.01-0.043,0.011-0.086,0.018-0.128c0.021-0.101,0.048-0.195,0.076-0.291l9.962-32.173c0.032-0.107,0.069-0.213,0.114-0.313
			c0.004-0.008,0.007-0.014,0.01-0.024c0.033-0.074,0.07-0.146,0.107-0.219c0.011-0.02,0.026-0.043,0.037-0.063
			c0.034-0.06,0.067-0.114,0.102-0.168c0.018-0.025,0.035-0.046,0.053-0.07c0.037-0.049,0.07-0.099,0.11-0.146
			c0.021-0.022,0.038-0.042,0.058-0.062c0.039-0.048,0.082-0.096,0.127-0.141c0.019-0.018,0.035-0.031,0.052-0.047
			c0.046-0.048,0.1-0.092,0.151-0.136c0.016-0.013,0.03-0.021,0.045-0.033c0.055-0.042,0.113-0.085,0.174-0.126
			c0.015-0.011,0.033-0.017,0.045-0.029c0.061-0.037,0.123-0.075,0.185-0.107c0.021-0.01,0.042-0.021,0.063-0.031
			c0.06-0.027,0.115-0.058,0.178-0.082c0.039-0.015,0.077-0.03,0.117-0.042c0.041-0.016,0.081-0.034,0.125-0.046
			c0.004-0.003,0.008-0.003,0.014-0.006c0.065-0.018,0.131-0.036,0.197-0.049c0.021-0.006,0.045-0.012,0.066-0.018
			c0.09-0.019,0.182-0.03,0.274-0.039c0.03-0.006,0.063-0.006,0.095-0.007c0.033-0.001,0.07-0.003,0.107-0.006
			c0.02,0,0.045,0,0.07,0c0.059,0,0.119,0.003,0.178,0.006c0.031,0.001,0.064,0.001,0.096,0.007
			c0.094,0.009,0.184,0.021,0.273,0.039c0.02,0.006,0.044,0.012,0.064,0.018c0.068,0.013,0.135,0.031,0.199,0.049
			c0.006,0.003,0.01,0.003,0.016,0.006c0.04,0.012,0.082,0.029,0.123,0.046c0.039,0.012,0.08,0.027,0.115,0.042
			c0.063,0.024,0.121,0.052,0.178,0.082c0.023,0.01,0.043,0.021,0.063,0.031c0.065,0.032,0.126,0.07,0.187,0.107
			c0.016,0.01,0.03,0.019,0.045,0.029c0.059,0.041,0.117,0.084,0.174,0.126c0.014,0.011,0.027,0.021,0.043,0.033
			c0.053,0.044,0.105,0.088,0.152,0.136c0.018,0.016,0.035,0.029,0.051,0.047c0.047,0.045,0.09,0.093,0.131,0.141
			c0.02,0.02,0.037,0.039,0.055,0.062c0.037,0.047,0.076,0.097,0.111,0.146c0.018,0.024,0.035,0.045,0.052,0.07
			c0.035,0.054,0.069,0.111,0.103,0.168c0.014,0.021,0.026,0.043,0.037,0.063c0.037,0.072,0.074,0.147,0.107,0.221
			c0.003,0.009,0.008,0.015,0.009,0.022c0.046,0.101,0.082,0.206,0.115,0.313l9.952,32.146
			C-1394.994,65.168-1394.944,65.463-1394.944,65.764z"/>
		<path fill="#80B441" d="M-1394.944,65.764c0,0.654-0.228,1.255-0.601,1.728c-0.008,0.011-0.014,0.017-0.016,0.024
			c-0.045,0.051-0.094,0.104-0.143,0.154c-0.016,0.018-0.025,0.033-0.041,0.049c-0.045,0.045-0.092,0.088-0.139,0.129
			c-0.02,0.018-0.039,0.037-0.063,0.055c-0.049,0.043-0.1,0.08-0.154,0.121c-0.021,0.013-0.039,0.028-0.06,0.043
			c-0.073,0.051-0.147,0.094-0.226,0.14c-0.004,0-0.004,0-0.004,0.001c-0.188,0.102-0.391,0.184-0.603,0.241
			c-0.048,0.015-0.097,0.024-0.144,0.038c-0.032,0.008-0.063,0.014-0.096,0.019c-0.058,0.012-0.117,0.019-0.173,0.025
			c-0.022,0.001-0.048,0.006-0.069,0.008c-0.09,0.009-0.176,0.015-0.261,0.015c-0.006,0-0.013,0-0.017,0h-10.035v-37.81
			c0.02-0.003,0.046-0.003,0.07-0.003c0.059,0,0.119,0.006,0.178,0.008c0.031,0.002,0.064,0.002,0.096,0.008
			c0.094,0.006,0.184,0.021,0.273,0.039c0.02,0.003,0.044,0.012,0.064,0.018c0.068,0.013,0.135,0.027,0.201,0.049
			c0.004,0.003,0.008,0.003,0.014,0.003c0.04,0.015,0.084,0.032,0.123,0.049c0.039,0.012,0.08,0.024,0.115,0.04
			c0.063,0.026,0.121,0.054,0.178,0.082c0.023,0.011,0.043,0.02,0.063,0.032c0.065,0.033,0.126,0.071,0.187,0.108
			c0.016,0.01,0.03,0.019,0.045,0.029c0.059,0.038,0.117,0.08,0.174,0.126c0.014,0.011,0.027,0.021,0.043,0.033
			c0.053,0.044,0.105,0.088,0.153,0.134c0.017,0.018,0.034,0.031,0.05,0.049c0.047,0.045,0.09,0.09,0.131,0.141
			c0.02,0.02,0.037,0.039,0.055,0.059c0.037,0.05,0.076,0.098,0.111,0.148c0.018,0.024,0.035,0.045,0.052,0.069
			c0.035,0.055,0.069,0.112,0.103,0.169c0.014,0.021,0.026,0.043,0.037,0.063c0.037,0.072,0.074,0.146,0.107,0.221
			c0.003,0.008,0.008,0.015,0.009,0.022c0.046,0.101,0.083,0.206,0.115,0.313l9.952,32.145
			C-1394.994,65.168-1394.944,65.463-1394.944,65.764z"/>
	</g>
</g>
<g>
	<circle fill="#BFE6EE" cx="-1919" cy="99" r="98"/>
	<path fill="#B2CC3C" d="M-1921.451,88.478c-1.035,0.108-2.086,0.167-3.15,0.167c-16.279,0-29.475-13.153-29.475-29.379
		c0-2.232,0.251-4.407,0.725-6.498c1.035-0.109,2.086-0.167,3.15-0.167c16.279,0,29.475,13.152,29.475,29.377
		C-1920.727,84.212-1920.979,86.387-1921.451,88.478L-1921.451,88.478z"/>
	<path fill="#8DB83F" d="M-1890.014,52.768c0.473,2.091,0.723,4.265,0.723,6.498c0,16.226-13.193,29.379-29.474,29.379
		c-1.063,0-2.113-0.059-3.149-0.167c-0.473-2.091-0.725-4.266-0.725-6.499c0-16.225,13.196-29.377,29.475-29.377
		C-1892.099,52.601-1891.049,52.658-1890.014,52.768L-1890.014,52.768z"/>
	<path fill="#687E36" d="M-1904.082,71.02l-15.428,18.016v27.155c0,0.923-0.748,1.671-1.668,1.671c-0.922,0-1.669-0.748-1.669-1.671
		V89.064l-16.403-18.006c-0.621-0.681-0.57-1.738,0.109-2.358c0.68-0.62,1.736-0.572,2.355,0.109l15.567,17.089l14.603-17.05
		c0.6-0.7,1.652-0.782,2.352-0.181C-1903.563,69.266-1903.482,70.32-1904.082,71.02z"/>
	<g>
		<path fill="#B8873C" d="M-1889.006,140.866c0-17.88-14.494-32.374-32.373-32.374c-17.88,0-32.373,14.494-32.373,32.374
			c0,5.39,1.318,10.471,3.65,14.941h57.448C-1890.324,151.337-1889.006,146.256-1889.006,140.866z"/>
		<path fill="#A3692D" d="M-1911.418,150.828c-17.203,0-32.012-10.264-38.633-25.003c-2.363,4.495-3.701,9.609-3.701,15.041
			c0,5.39,1.318,10.471,3.65,14.941h57.448c1.791-3.44,2.981-7.239,3.437-11.267
			C-1895.672,148.528-1903.275,150.828-1911.418,150.828z"/>
		<path fill="#FFE5BB" d="M-1964.572,139.243c1.986-1.806,4.684-1.132,6.973,0.266c4.262,2.601,19.266,12.225,19.266,12.225
			l19.369-1.763l3.844-3.84c0.66-0.659,0.391-1.779-0.496-2.064c-2.583-0.828-7.34-2.322-11.803-3.596
			c-2.092-0.599-3.604-2.499-3.566-4.67c0.049-2.73,2.284-4.916,5.02-4.896c0,0,22.662,4.523,32.492,6.194
			c3.059,0.518,5.881,1.981,8.072,4.172l17.504,17.506c0.975,0.973,0.975,2.552,0,3.521l-12.324,12.328
			c-0.973,0.97-2.551,0.97-3.523,0l-8.804-8.805l-43.361-1.735c-0.431-0.017-0.853-0.146-1.218-0.378l-27.617-17.257
			C-1966.746,144.449-1966.688,141.168-1964.572,139.243z"/>
		<path fill="#FFD686" d="M-1935.387,159.076l-30.414-18.104c-0.774,1.818-0.426,3.996,1.055,5.479l27.617,17.257
			c0.365,0.232,0.787,0.361,1.218,0.378l43.362,1.735l8.803,8.805c0.973,0.97,2.551,0.97,3.523,0l3.57-3.571l-12.043-10.735
			L-1935.387,159.076z"/>
	</g>
</g>
<g>
	<circle fill="#256C70" cx="1387" cy="99.001" r="98"/>
	<g>
		<path fill="#DC9727" d="M1422.771,62.078c-1.801,0.201-3.531,1.055-4.771,2.555c-4.881,5.92-11.729,9.749-19.241,11.322
			c-4.062,0.848-7.87,3.042-10.702,6.511c-6.253,7.663-5.399,19.201,1.934,25.837c8.018,7.256,20.375,6.287,27.175-1.965
			c2.537-3.078,3.934-6.726,4.233-10.419c0.636-7.786,3.922-15.125,8.89-21.155C1430.288,74.765,1435.664,64.275,1422.771,62.078z"
			/>
		<path fill="#F0B51D" d="M1352.998,82.523c3.324-5.095,7.279-12.502,6.936-18.493c-0.142-2.45,2.479-4.072,4.59-2.82
			c9.061,5.382,20.841,18.091-2.789,42.627c-9.611,9.979-16.698,4.666-17.472-2.307
			C1343.526,94.868,1349.334,88.141,1352.998,82.523z"/>
		<path fill="#E6E6E5" d="M1429.362,143.766h-89.393c-3.986,0-7.727-1.927-10.045-5.17l-4.934-6.912
			c-0.961-1.344,0-3.208,1.65-3.208h116.053c1.646,0,2.609,1.864,1.649,3.208l-4.936,6.912
			C1437.09,141.842,1433.349,143.766,1429.362,143.766z"/>
		<path fill="#F4C44E" d="M1428.325,77.361c0.624-0.887,1.272-1.758,1.966-2.597c0,0,5.373-10.489-7.521-12.688
			c-1.801,0.201-3.531,1.054-4.771,2.555c-1.047,1.27-2.202,2.427-3.419,3.502c-9.181-2.969-20.396-1.212-32.596,9.243
			c-1.349,1.157-3.639,3.604-6.82,4.8c-1.217,5.894-5.136,13.047-13.431,21.661c-9.611,9.98-16.698,4.664-17.472-2.309
			c-0.736-6.662,5.071-13.389,8.735-19.007c1.639-2.508,3.423-5.578,4.775-8.763c-1.307-0.829-2.759-1.37-4.473-1.37
			c-13.778,0.002-19.958,9.494-19.958,21.205c0,1.216,0.123,2.404,0.357,3.56c0.666,3.31,0.863,6.686,0.176,9.995
			c-0.349,1.68-0.533,3.401-0.533,5.153c0,3.915,1.221,7.156,3.369,9.848c2.134-1.512,4.735-2.407,7.551-2.407
			c5.703,0,10.542,3.649,12.344,8.734h1.522c1.804-5.085,6.639-8.734,12.343-8.734c5.702,0,10.541,3.649,12.339,8.734h1.524
			c1.802-5.085,6.639-8.734,12.344-8.734c5.7,0,10.54,3.649,12.339,8.734h1.527c1.798-5.085,6.637-8.734,12.339-8.734
			c3.908,0,7.379,1.738,9.777,4.45c6.241-4.254,10.587-9.842,12.062-16.878C1446.613,98.312,1436.107,86.035,1428.325,77.361z"/>
		<path fill="#D3D5D7" d="M1447.934,47.769c-0.792-0.976-1.811-1.554-2.887-1.794c-0.673-0.152-1.212-0.598-1.49-1.228
			c-0.44-1.01-1.206-1.902-2.313-2.493c-1.975-1.055-4.507-0.7-6.111,0.862c-1.277,1.242-1.769,2.922-1.541,4.507
			c0.261,1.789-0.088,3.612-1.239,5.008l-8.072,9.792c4.68,1.181,6.471,3.608,6.954,6.016l8.211-9.96
			c1.151-1.395,2.874-2.087,4.682-2.176c1.6-0.075,3.157-0.879,4.129-2.37C1449.479,52.057,1449.347,49.508,1447.934,47.769z"/>
		<path fill="#DC9727" d="M1422.771,62.078c-1.801,0.201-3.531,1.055-4.771,2.555c-4.881,5.92-11.729,9.749-19.241,11.322
			c-4.062,0.848-7.87,3.042-10.702,6.511c-6.253,7.663-5.399,19.201,1.934,25.837c8.018,7.256,20.375,6.287,27.175-1.965
			c2.537-3.078,3.934-6.726,4.233-10.419c0.636-7.786,3.922-15.125,8.89-21.155C1430.288,74.765,1435.664,64.275,1422.771,62.078z"
			/>
		<path fill="#E6E6E5" d="M1429.362,143.766h-89.393c-3.986,0-7.727-1.927-10.045-5.17l-4.934-6.912
			c-0.961-1.344,0-3.208,1.65-3.208h116.053c1.646,0,2.609,1.864,1.649,3.208l-4.936,6.912
			C1437.09,141.842,1433.349,143.766,1429.362,143.766z"/>
		<path fill="#E6E6E5" d="M1429.362,143.766h-89.393c-3.986,0-7.727-1.927-10.045-5.17l-4.934-6.912
			c-0.961-1.344,0-3.208,1.65-3.208h116.053c1.646,0,2.609,1.864,1.649,3.208l-4.936,6.912
			C1437.09,141.842,1433.349,143.766,1429.362,143.766z"/>
		<path fill="#E6E6E5" d="M1429.362,143.766h-89.393c-3.986,0-7.727-1.927-10.045-5.17l-4.934-6.912
			c-0.961-1.344,0-3.208,1.65-3.208h116.053c1.646,0,2.609,1.864,1.649,3.208l-4.936,6.912
			C1437.09,141.842,1433.349,143.766,1429.362,143.766z"/>
		<path fill="#E6E6E5" d="M1429.362,143.766h-89.393c-3.986,0-7.727-1.927-10.045-5.17l-4.934-6.912
			c-0.961-1.344,0-3.208,1.65-3.208h116.053c1.646,0,2.609,1.864,1.649,3.208l-4.936,6.912
			C1437.09,141.842,1433.349,143.766,1429.362,143.766z"/>
		<g>
			<path fill="#88C057" d="M1420.159,128.476h0.004c4.731-3.794,8.775-6.965,11.755-9.275l0,0
				C1428.938,121.509,1424.892,124.68,1420.159,128.476z"/>
			<path fill="#456C33" d="M1392.884,128.476c9.584-10.819,17.655-20.356,22.343-25.966v-0.001
				C1410.535,108.122,1402.469,117.652,1392.884,128.476L1392.884,128.476z"/>
			<g>
				<path fill="#659C41" d="M1403.483,128.476h6.56l19.36-19.361l-5.049-5.048c0,0-1.25,1.529-3.431,4.139v0.002
					C1417.266,112.585,1410.964,120.029,1403.483,128.476z"/>
				<path fill="#659C41" d="M1424.772,128.476c3.696-2.962,6.855-5.438,9.181-7.241l0,0c2.7-2.092,4.284-3.285,4.284-3.285
					l-6.312-6.312l-16.837,16.838H1424.772z"/>
				<path fill="#88C057" d="M1441.195,128.476l-7.242-7.241c-2.325,1.805-5.482,4.281-9.175,7.241H1441.195z"/>
				<path fill="#456C33" d="M1420.924,108.205l-9.187-9.186c0,0-6.703,13.799-17.998,29.457h9.742
					C1410.964,120.028,1417.261,112.589,1420.924,108.205z"/>
				<polygon fill="#659C41" points="1415.089,128.476 1431.926,111.638 1429.403,109.114 1410.043,128.476 				"/>
			</g>
			<path fill="#E6E6E5" d="M1442.694,128.476h-1.499h-21.032h-0.004h-12.407h-6.466h-8.402h-0.001h-12.48h-53.761
				c-1.65,0-2.611,1.864-1.65,3.208l4.934,6.912c2.318,3.243,6.059,5.17,10.045,5.17h28.479h10.611h0.005h6.934h6.464h9.137h0.008
				h15.831h11.924c3.986,0,7.728-1.924,10.046-5.17l4.936-6.912C1445.304,130.34,1444.341,128.476,1442.694,128.476z"/>
		</g>
		<g>
			<path fill="#659C41" d="M1382.787,128.477c-1.801-5.085-6.637-8.734-12.34-8.734c-5.704,0-10.542,3.649-12.342,8.734H1382.787z"
				/>
			<path fill="#EE4033" d="M1356.541,128.477c-1.804-5.085-6.641-8.734-12.344-8.734c-5.7,0-10.54,3.649-12.341,8.734H1356.541z"/>
			<path fill="#EE4033" d="M1409.016,128.477c-1.804-5.085-6.64-8.734-12.343-8.734c-5.701,0-10.541,3.649-12.341,8.734H1409.016z"
				/>
		</g>
	</g>
</g>
<g>
	<circle fill="#FFD05C" cx="1659" cy="99.002" r="98"/>
	<g>
		<path fill="#FFFFFF" d="M1679.799,85.677c3.441-2.299,5.51-6.164,5.51-10.303V55.691h-52.617v19.683
			c0,4.14,2.069,8.004,5.51,10.303l16.348,12.002c0.592,0.436,0.943,1.127,0.943,1.861l0,0c0,0.736-0.352,1.425-0.943,1.86
			l-16.346,12.001c-3.442,2.302-5.512,6.165-5.512,10.304v19.685h52.617v-19.685c0-4.139-2.068-8.002-5.51-10.304l-16.347-12.001
			c-0.593-0.435-0.944-1.124-0.944-1.86l0,0c0-0.734,0.352-1.425,0.944-1.861L1679.799,85.677z"/>
		<rect x="1623.918" y="143.39" fill="#9E6D54" width="70.163" height="7.016"/>
		<rect x="1623.918" y="48.675" fill="#9E6D54" width="70.163" height="7.016"/>
		<g>
			<path fill="#8B5437" d="M1697.991,148.65h-3.91h-74.074c-0.967,0-1.754,0.785-1.754,1.755c0,0.971,0.787,1.756,1.754,1.756
				h74.074h3.91c0.967,0,1.755-0.785,1.755-1.756C1699.746,149.436,1698.958,148.65,1697.991,148.65z"/>
			<path fill="#8B5437" d="M1620.007,50.428h74.074h3.91c0.967,0,1.755-0.783,1.755-1.753s-0.788-1.755-1.755-1.755h-3.91h-74.074
				c-0.967,0-1.754,0.785-1.754,1.755S1619.04,50.428,1620.007,50.428z"/>
		</g>
		<path fill="#E56A55" d="M1676.878,81.299c1.985-1.324,3.169-3.539,3.169-5.923l0,0c0-2.291-1.559-4.288-3.78-4.844l-26.403-6.602
			c-6.048-1.512-11.911,3.062-11.911,9.301v2.145c0,2.384,1.184,4.599,3.168,5.923l16.126,11.833v27.846
			c0,6.367-6.601,10.588-12.38,7.914l0,0c-3.113-1.443-6.878,0.689-6.911,4.117c0,0.027,0,0.051,0,0.072v10.309h42.095v-19.685
			c0-0.027,0-0.048,0-0.074c-0.033-3.384-3.314-5.826-6.65-5.244l-3.593,0.625c-4.729,0.824-9.053-2.816-9.053-7.61v-18.27
			L1676.878,81.299z"/>
	</g>
</g>
<g>
	<circle fill="#EDE9D6" cx="1965" cy="99.001" r="98"/>
	<g>
		<path fill="#3F475C" d="M2014.085,138.469h-98.168c-2.515,0-4.554-2.038-4.554-4.555V61.642c0-2.516,2.039-4.557,4.554-4.557
			h98.168c2.516,0,4.554,2.041,4.554,4.557v72.272C2018.639,136.431,2016.601,138.469,2014.085,138.469z"/>
		<rect x="1918.761" y="64.484" fill="#FFFBF3" width="92.48" height="62.886"/>
		<path fill="#EC2127" d="M1984.893,101.477l-7.015-24.552c-0.228-0.794-0.954-1.343-1.779-1.343c-0.826,0-1.552,0.55-1.778,1.343
			l-6.225,21.846l-3.353-5.637c-0.368-0.62-1.053-0.964-1.791-0.891c-0.718,0.078-1.327,0.569-1.555,1.253l-3.918,11.756
			l-7.397-19.233c-0.28-0.731-0.996-1.195-1.768-1.187c-0.781,0.02-1.467,0.524-1.713,1.266l-5.128,15.379h-22.713v3.699h24.046
			c0.796,0,1.5-0.51,1.751-1.264l3.921-11.755l7.396,19.231c0.277,0.715,0.964,1.185,1.729,1.185c0.017,0,0.029,0,0.041,0
			c0.78-0.018,1.465-0.524,1.713-1.264l4.272-12.816l3.483,5.848c0.378,0.633,1.104,0.981,1.827,0.886
			c0.73-0.096,1.339-0.616,1.541-1.324l5.62-19.734l5.617,19.661c0.229,0.799,0.954,1.346,1.779,1.346h27.744v-3.699H1984.893z"/>
		<rect x="1918.761" y="138.469" fill="#373F4C" width="11.096" height="5.551"/>
		<rect x="2000.145" y="138.469" fill="#373F4C" width="11.097" height="5.551"/>
	</g>
</g>
<g>
	<path fill="#EDE9D6" d="M2335,99c0,54.126-43.875,98-98,98s-98-43.873-98-98c0-54.123,43.875-98,98-98S2335,44.877,2335,99z"/>
	<g>
		<path fill="#F27E71" d="M2293.572,90.262l-5.956-4.12l-5.458-23.802c-1.311-5.711-6.393-9.758-12.254-9.758h-61.373
			c-5.861,0-10.943,4.047-12.256,9.758l-5.456,23.802l-5.957,4.12c-3.937,2.727-6.288,7.213-6.288,12.003v21.421
			c0,3.978,3.226,7.203,7.203,7.203h106.881c3.978,0,7.204-3.226,7.204-7.203v-21.421
			C2299.862,97.475,2297.51,92.989,2293.572,90.262z"/>
		<path fill="#78CCCD" d="M2280.66,86.142h-82.883l5.112-22.284c0.606-2.645,2.925-4.496,5.642-4.496h61.373
			c2.718,0,5.035,1.852,5.643,4.496L2280.66,86.142z"/>
		<g>
			<g>
				<path fill="#FFFFFF" d="M2188.253,103.99c0,5.244,4.254,9.498,9.5,9.498c5.247,0,9.501-4.254,9.501-9.498H2188.253z"/>
			</g>
			<g>
				<path fill="#FFFFFF" d="M2271.183,103.99c0,5.244,4.254,9.498,9.499,9.498c5.247,0,9.501-4.254,9.501-9.498H2271.183z"/>
			</g>
		</g>
		<path fill="#CDCCCC" d="M2297.276,120.604h-116.118c-2.84,0-5.141,2.305-5.141,5.143l0,0c0,2.841,2.301,5.144,5.141,5.144h116.118
			c2.841,0,5.142-2.303,5.142-5.144l0,0C2302.418,122.908,2300.117,120.604,2297.276,120.604z"/>
		<path fill="#676767" d="M2185.351,130.89v12.551c0,1.651,1.339,2.99,2.99,2.99h11.452c1.65,0,2.989-1.339,2.989-2.99V130.89"/>
		<path fill="#676767" d="M2275.653,130.89v12.551c0,1.651,1.339,2.99,2.989,2.99h11.452c1.649,0,2.99-1.339,2.99-2.99V130.89"/>
		<path fill="#4E4E4E" d="M2259.09,130.89v1.521c0,3.695-2.995,6.691-6.691,6.691h-21.761c-3.695,0-6.691-2.996-6.691-6.691v-1.521"
			/>
		<path fill="#9CD8D9" d="M2280.66,86.142h-28.536l-26.779-26.78h44.56c2.718,0,5.035,1.852,5.643,4.496L2280.66,86.142z"/>
		<rect x="2217.176" y="103.99" fill="#824142" width="46.553" height="3.697"/>
		<rect x="2217.176" y="110.224" fill="#824142" width="46.553" height="3.699"/>
	</g>
</g>
<g>
	<circle fill="#E1F2EC" cx="2485" cy="99" r="98"/>
	<g>
		<path fill="#334B5E" d="M2513.438,115.173c1.871-29.038,15.549-72.875,15.549-72.875c-17.799-7.867-32.224-9.928-42.527-9.742
			c-10.305-0.186-24.543,1.688-42.527,9.742c0,0,13.49,43.838,15.552,72.875H2513.438z"/>
		<path fill="#2C3C4F" d="M2486.459,120.793c-17.049,0-38.779-2.436-48.334-9.555c-2.81-2.062-3.373-5.996-1.312-8.806
			c2.062-2.808,5.994-3.37,8.806-1.311c4.869,3.56,20.421,7.118,41.027,7.118c20.607,0,35.968-3.559,40.838-7.118
			c2.811-2.059,6.746-1.498,8.808,1.311c2.059,2.81,1.497,6.744-1.313,8.806C2525.238,118.17,2503.508,120.793,2486.459,120.793z"/>
		<path fill="#4A4A49" d="M2498.518,149.102c-8.367-5.424-10.935-3.033-12.498-0.367c-1.561-2.666-4.122-5.057-12.492,0.367
			c-8.562,5.551-19.848-0.846-19.848-0.846s6.023,11.716,20.786,10.252c6.323-0.627,10.208-3.211,11.557-5.838
			c1.354,2.627,5.232,5.211,11.558,5.838c14.759,1.461,20.785-10.252,20.785-10.252S2507.076,154.652,2498.518,149.102z"/>
		<path fill="#333333" d="M2498.518,149.102c-8.051-5.215-10.726-3.206-12.306-0.67v4.529c1.479,2.529,5.284,4.947,11.368,5.547
			c14.759,1.464,20.785-10.252,20.785-10.252S2507.076,154.652,2498.518,149.102z"/>
	</g>
</g>
<g>
	<path fill="#AFE1F1" d="M2985.137,194.727v-12.074c-4.258-1.979-7.208-6.289-7.208-11.293v-33.77
		c0-14.367,10.464-26.291,24.188-28.555h0.001v-8.021c-2.466-0.482-4.327-2.651-4.327-5.258c0-2.916,2.334-5.279,5.236-5.348
		c1.189-3.688,3.49-6.879,6.543-9.127c3.032-2.234,6.774-3.554,10.828-3.554s7.8,1.319,10.831,3.554
		c0.742,0.546,1.447,1.15,2.097,1.801c2.028,2.029,3.583,4.532,4.481,7.329c2.886,0.087,5.203,2.44,5.203,5.345
		c0,2.607-1.861,4.776-4.328,5.258v8.021c2.464,0.41,4.822,1.125,7.037,2.113c1.355,0.605,2.657,1.311,3.896,2.113
		c3.949,2.551,7.24,6.037,9.555,10.152c2.354,4.188,3.705,9.023,3.705,14.176v23.426C3076.698,144.121,3085,122.533,3085,99
		c0-54.124-43.875-98-98-98s-98,43.876-98,98c0,54.125,43.875,98,98,98c0.795,0,1.58-0.041,2.371-0.061v-1.656L2985.137,194.727z"/>
	<g>
		<polygon fill="#FFCE06" points="3033.364,84.015 3020.618,94.92 3027.382,110.273 3011.156,114.552 3010.587,131.316 
			2994.112,128.161 2986.32,143.018 2972.858,132.996 2959.396,143.018 2951.608,128.161 2935.129,131.316 2934.56,114.552 
			2918.334,110.273 2925.098,94.924 2912.352,84.015 2925.098,73.108 2918.334,57.753 2934.56,53.48 2935.129,36.708 
			2951.608,39.872 2959.396,25.013 2972.858,35.034 2986.32,25.013 2994.112,39.872 3010.587,36.708 3011.156,53.48 
			3027.382,57.753 3020.618,73.108 		"/>
		<path fill="#F7A91B" d="M2972.858,43.678c22.274,0,40.337,18.061,40.337,40.337c0,22.276-18.063,40.334-40.337,40.334
			c-22.276,0-40.343-18.059-40.343-40.334C2932.516,61.739,2950.582,43.678,2972.858,43.678z"/>
	</g>
	<path fill="#C6AB75" d="M3002.123,95.756c0.025-1.867,0.359-3.654,0.904-5.348c-2.902,0.068-5.236,2.432-5.236,5.348
		c0,2.607,1.861,4.776,4.327,5.258v-5.002C3002.118,95.925,3002.118,95.842,3002.123,95.756z"/>
	<path fill="#C6AB75" d="M3038.683,96.012v5.002c2.467-0.482,4.328-2.651,4.328-5.258c0-2.904-2.317-5.258-5.203-5.345
		c0.542,1.688,0.847,3.483,0.87,5.345C3038.683,95.842,3038.683,95.925,3038.683,96.012z"/>
	<path fill="#E5C888" d="M3059.17,123.414c-0.236,0.035-0.47,0.075-0.699,0.117c-10.005,1.791-16.675,11.36-15.137,21.404
		l3.309,21.605l-3.998,7.589c-0.844,1.6,0.32,3.524,2.128,3.524h0.689c6.466-4.813,12.314-10.406,17.413-16.639V137.59
		C3062.875,132.438,3061.524,127.602,3059.17,123.414z"/>
	<path fill="#5B4533" d="M3042.645,174.13l3.998-7.589l-3.309-21.605c-1.538-10.044,5.132-19.613,15.137-21.404
		c0.229-0.042,0.463-0.082,0.699-0.117c-2.314-4.115-5.605-7.602-9.555-10.152c-1.238-0.803-2.54-1.508-3.896-2.113
		c-2.215-0.988-4.573-1.703-7.037-2.113v2.666c0,2.721-1.604,5.18-4.091,6.278c-2.172,15.458-15.396,26.952-31.004,26.952h-2.405
		h-3.72l-3.309,21.609l4,7.589c0.844,1.6-0.32,3.524-2.127,3.524h-1.873v2.475c0,2.029-1.645,3.676-3.675,3.676h-0.105
		c-1.87,0-3.646-0.413-5.237-1.152v12.074l4.234,0.557l8.418,1.113c17.745-1.945,34.069-8.613,47.673-18.742h-0.689
		C3042.965,177.654,3041.801,175.729,3042.645,174.13z"/>
	<path fill="#8C7954" d="M3006.209,117.979l11.581,5.11c1.661,0.73,3.554,0.73,5.217,0l11.585-5.11
		c2.486-1.099,4.091-3.558,4.091-6.278v-2.666v-8.021c-0.335,0.065-0.68,0.104-1.034,0.104c-0.527,0-1.027-0.1-1.508-0.242
		c-1.16,0.938-2.616,1.521-4.223,1.521h-23.037c-1.607,0-3.063-0.584-4.222-1.52c-0.48,0.141-0.98,0.24-1.506,0.24
		c-0.354,0-0.7-0.039-1.035-0.104v8.021v2.666C3002.118,114.422,3003.723,116.881,3006.209,117.979z"/>
	<path fill="#8C7954" d="M3004.659,100.879c-1.506-1.216-2.5-3.042-2.536-5.123c-0.005,0.086-0.005,0.169-0.005,0.256v5.002
		c0.335,0.065,0.681,0.104,1.035,0.104C3003.679,101.119,3004.179,101.02,3004.659,100.879z"/>
	<path fill="#8C7954" d="M3038.678,95.756c-0.035,2.08-1.029,3.906-2.537,5.121c0.48,0.143,0.98,0.242,1.508,0.242
		c0.354,0,0.699-0.039,1.034-0.104v-5.002C3038.683,95.925,3038.683,95.842,3038.678,95.756z"/>
	<path fill="#E5C888" d="M3008.514,95.756c0,2.436-1.633,4.467-3.854,5.123c1.159,0.936,2.614,1.52,4.222,1.52h23.037
		c1.606,0,3.063-0.584,4.223-1.521c-2.222-0.654-3.854-2.685-3.854-5.121c0-2.959,2.399-5.36,5.361-5.36
		c0.055,0,0.104,0.015,0.159,0.016c-0.898-2.797-2.453-5.3-4.481-7.329c-0.649-0.65-1.354-1.255-2.097-1.801l-0.116,0.165
		c-2.968,2.272-6.684,3.626-10.712,3.626c-4.029,0-7.742-1.354-10.713-3.626l-0.118-0.165c-3.053,2.248-5.354,5.438-6.543,9.127
		c0.043-0.002,0.082-0.013,0.126-0.013C3006.113,90.396,3008.514,92.797,3008.514,95.756z"/>
	<path fill="#E5C888" d="M3004.659,100.879c2.222-0.655,3.854-2.687,3.854-5.123c0-2.959-2.4-5.36-5.36-5.36
		c-0.044,0-0.083,0.011-0.126,0.013c-0.545,1.693-0.879,3.48-0.904,5.348C3002.159,97.836,3003.153,99.663,3004.659,100.879z"/>
	<path fill="#E5C888" d="M3032.287,95.756c0,2.436,1.632,4.466,3.854,5.121c1.508-1.214,2.502-3.041,2.537-5.121
		c-0.023-1.861-0.328-3.656-0.87-5.345c-0.055-0.001-0.104-0.016-0.159-0.016C3034.687,90.396,3032.287,92.797,3032.287,95.756z"/>
	<path fill="#E5C888" d="M2990.479,183.805c2.03,0,3.675-1.646,3.675-3.676v-2.475h1.873c1.807,0,2.971-1.925,2.127-3.524l-4-7.589
		l3.309-21.609l2.406-11.991l1.313,11.991h2.405c15.607,0,28.832-11.494,31.004-26.952l-11.585,5.11c-1.663,0.73-3.556,0.73-5.217,0
		l-11.581-5.11c-2.486-1.099-4.091-3.558-4.091-6.278v-2.666h-0.001c-13.725,2.264-24.188,14.188-24.188,28.555v33.77
		c0,5.004,2.95,9.314,7.208,11.293c1.591,0.739,3.367,1.152,5.237,1.152H2990.479z"/>
	<path fill="#8C7954" d="M3020.401,85.073c4.028,0,7.744-1.354,10.712-3.626l0.116-0.165c-3.031-2.234-6.777-3.554-10.831-3.554
		s-7.796,1.319-10.828,3.554l0.118,0.165C3012.659,83.719,3016.372,85.073,3020.401,85.073z"/>
	<polygon fill="#C6AB75" points="2997.463,144.932 3001.183,144.932 2999.869,132.94 	"/>
	<path fill="#C6AB75" d="M2989.371,195.283v1.656c2.837-0.066,5.646-0.24,8.418-0.543L2989.371,195.283z"/>
</g>
</svg>
