<?xml version="1.0" encoding="utf-8"?>
<!-- Generator: Adobe Illustrator 16.0.0, SVG Export Plug-In . SVG Version: 6.00 Build 0)  -->
<!DOCTYPE svg PUBLIC "-//W3C//DTD SVG 1.1//EN" "http://www.w3.org/Graphics/SVG/1.1/DTD/svg11.dtd">
<svg version="1.1" id="Layer_1" xmlns="http://www.w3.org/2000/svg" xmlns:xlink="http://www.w3.org/1999/xlink" x="0px" y="0px"
	 width="39.188px" height="43.75px" viewBox="15.125 16.063 39.188 43.75" enable-background="new 15.125 16.063 39.188 43.75"
	 xml:space="preserve">
<path fill="#696B6C" d="M47.5,29.5c-3.584,0-6.5-2.916-6.5-6.5s2.916-6.5,6.5-6.5S54,19.416,54,23S51.084,29.5,47.5,29.5z
	 M47.5,18.5c-2.481,0-4.5,2.019-4.5,4.5s2.019,4.5,4.5,4.5S52,25.481,52,23S49.981,18.5,47.5,18.5z"/>
<path fill="#696B6C" d="M47.5,59.49c-3.584,0-6.5-2.916-6.5-6.5s2.916-6.5,6.5-6.5s6.5,2.916,6.5,6.5S51.084,59.49,47.5,59.49z
	 M47.5,48.49c-2.481,0-4.5,2.019-4.5,4.5s2.019,4.5,4.5,4.5s4.5-2.019,4.5-4.5S49.981,48.49,47.5,48.49z"/>
<path fill="#696B6C" d="M22.059,44.495c-3.584,0-6.5-2.916-6.5-6.5s2.916-6.5,6.5-6.5s6.5,2.916,6.5,6.5
	S25.643,44.495,22.059,44.495z M22.059,33.495c-2.481,0-4.5,2.019-4.5,4.5s2.019,4.5,4.5,4.5s4.5-2.019,4.5-4.5
	S24.54,33.495,22.059,33.495z"/>
<rect x="33.582" y="20.869" transform="matrix(0.5116 0.8592 -0.8592 0.5116 42.7962 -14.9882)" fill="#696B6C" width="2" height="18.566"/>
<rect x="25.299" y="44.838" transform="matrix(0.8592 0.5117 -0.5117 0.8592 28.3237 -11.24)" fill="#696B6C" width="18.567" height="2"/>
<circle fill="none" stroke="#696B6C" stroke-width="2" stroke-miterlimit="10" cx="-19.641" cy="23" r="5.5"/>
<circle fill="none" stroke="#696B6C" stroke-width="2" stroke-miterlimit="10" cx="-19.641" cy="52.99" r="5.5"/>
<circle fill="none" stroke="#696B6C" stroke-width="2" stroke-miterlimit="10" cx="-45.082" cy="37.995" r="5.5"/>
<line fill="none" stroke="#696B6C" stroke-width="2" stroke-miterlimit="10" x1="-24.582" y1="25.402" x2="-40.534" y2="34.901"/>
<line fill="none" stroke="#696B6C" stroke-width="2" stroke-miterlimit="10" x1="-40.534" y1="41.088" x2="-24.582" y2="50.588"/>
</svg>
