<?xml version="1.0" encoding="utf-8"?>
<!-- Generator: Adobe Illustrator 16.0.0, SVG Export Plug-In . SVG Version: 6.00 Build 0)  -->
<!DOCTYPE svg PUBLIC "-//W3C//DTD SVG 1.1//EN" "http://www.w3.org/Graphics/SVG/1.1/DTD/svg11.dtd">
<svg version="1.1" id="Layer_1" xmlns="http://www.w3.org/2000/svg" xmlns:xlink="http://www.w3.org/1999/xlink" x="0px" y="0px"
	 width="34px" height="34px" viewBox="0 0 34 34" enable-background="new 0 0 34 34" xml:space="preserve">
<g>
	<path fill="#FFFFFF" d="M-5.749,31.756c0,0.549-0.447,0.994-1,0.994H-36.25c-0.553,0-1-0.445-1-0.994V2.245
		c0-0.549,0.447-0.995,1-0.995h29.501c0.553,0,1,0.445,1,0.995V31.756z"/>
	<path fill="#6F6F70" d="M-6.749,33.25H-36.25c-0.827,0-1.5-0.67-1.5-1.494V2.245c0-0.824,0.673-1.495,1.5-1.495h29.501
		c0.826,0,1.5,0.67,1.5,1.495v29.511C-5.249,32.58-5.923,33.25-6.749,33.25z M-36.25,1.75c-0.275,0-0.5,0.222-0.5,0.495v29.511
		c0,0.273,0.225,0.494,0.5,0.494h29.501c0.275,0,0.5-0.221,0.5-0.494V2.245c0-0.273-0.225-0.495-0.5-0.495H-36.25z"/>
</g>
<polygon fill="#E92027" points="-22.522,26.971 -32.753,16.631 -30.62,14.521 -22.899,22.324 -12.866,8.225 -10.423,9.964 "/>
<g>
	<path fill="#FFFFFF" d="M32.751,31.756c0,0.549-0.447,0.994-1,0.994H2.25c-0.553,0-1-0.445-1-0.994V2.245
		c0-0.549,0.447-0.995,1-0.995h29.501c0.553,0,1,0.445,1,0.995V31.756z"/>
	<path fill="#6F6F70" d="M31.751,33.25H2.25c-0.827,0-1.5-0.67-1.5-1.494V2.245c0-0.824,0.673-1.495,1.5-1.495h29.501
		c0.826,0,1.5,0.67,1.5,1.495v29.511C33.251,32.58,32.577,33.25,31.751,33.25z M2.25,1.75c-0.275,0-0.5,0.222-0.5,0.495v29.511
		c0,0.273,0.225,0.494,0.5,0.494h29.501c0.275,0,0.5-0.221,0.5-0.494V2.245c0-0.273-0.225-0.495-0.5-0.495H2.25z"/>
</g>
<g>
	<path fill="#FFFFFF" d="M70.418,31.756c0,0.549-0.447,0.994-1,0.994H39.917c-0.553,0-1-0.445-1-0.994V2.245
		c0-0.549,0.447-0.995,1-0.995h29.501c0.553,0,1,0.445,1,0.995V31.756z"/>
	<path fill="#DDDCDC" d="M69.418,33.25H39.917c-0.827,0-1.5-0.67-1.5-1.494V2.245c0-0.824,0.673-1.495,1.5-1.495h29.501
		c0.826,0,1.5,0.67,1.5,1.495v29.511C70.918,32.58,70.244,33.25,69.418,33.25z M39.917,1.75c-0.275,0-0.5,0.222-0.5,0.495v29.511
		c0,0.273,0.225,0.494,0.5,0.494h29.501c0.275,0,0.5-0.221,0.5-0.494V2.245c0-0.273-0.225-0.495-0.5-0.495H39.917z"/>
</g>
</svg>
