<?xml version="1.0" encoding="utf-8"?>
<!-- Generator: Adobe Illustrator 16.0.0, SVG Export Plug-In . SVG Version: 6.00 Build 0)  -->
<!DOCTYPE svg PUBLIC "-//W3C//DTD SVG 1.1//EN" "http://www.w3.org/Graphics/SVG/1.1/DTD/svg11.dtd">
<svg version="1.1" id="Layer_1" xmlns="http://www.w3.org/2000/svg" xmlns:xlink="http://www.w3.org/1999/xlink" x="0px" y="0px"
	 width="60px" height="18px" viewBox="0 0 60 18" enable-background="new 0 0 60 18" xml:space="preserve">
<path fill="#FFFFFF" d="M13.923,4.058c2.796,0,5.072,2.275,5.072,5.072c0,2.796-2.275,5.071-5.072,5.071S8.852,11.926,8.852,9.13
	C8.852,6.333,11.127,4.058,13.923,4.058 M13.923,3.058c-3.354,0-6.072,2.718-6.072,6.072c0,3.353,2.718,6.071,6.072,6.071
	s6.072-2.719,6.072-6.071C19.995,5.776,17.277,3.058,13.923,3.058L13.923,3.058z"/>
<path fill="#FFFFFF" d="M30,4.058c2.796,0,5.072,2.275,5.072,5.072c0,2.796-2.275,5.071-5.072,5.071s-5.072-2.275-5.072-5.071
	C24.929,6.333,27.204,4.058,30,4.058 M30,3.058c-3.354,0-6.072,2.718-6.072,6.072c0,3.353,2.718,6.071,6.072,6.071
	c3.353,0,6.072-2.719,6.072-6.071C36.072,5.776,33.354,3.058,30,3.058L30,3.058z"/>
<path fill="#FFFFFF" d="M46.165,4.058c2.796,0,5.071,2.275,5.071,5.072c0,2.796-2.275,5.071-5.071,5.071s-5.071-2.275-5.071-5.071
	C41.094,6.333,43.369,4.058,46.165,4.058 M46.165,3.058c-3.354,0-6.071,2.718-6.071,6.072c0,3.353,2.718,6.071,6.071,6.071
	c3.353,0,6.071-2.719,6.071-6.071C52.236,5.776,49.518,3.058,46.165,3.058L46.165,3.058z"/>
<g>
	<path fill="#FFFFFF" d="M-47.574,4.058c2.796,0,5.072,2.275,5.072,5.072c0,2.796-2.275,5.071-5.072,5.071s-5.072-2.275-5.072-5.071
		C-52.646,6.333-50.37,4.058-47.574,4.058 M-47.574,3.058c-3.354,0-6.072,2.718-6.072,6.072c0,3.353,2.718,6.071,6.072,6.071
		s6.072-2.719,6.072-6.071C-41.502,5.776-44.22,3.058-47.574,3.058L-47.574,3.058z"/>
</g>
<g>
	<path fill="#FFFFFF" d="M-31.497,4.058c2.796,0,5.072,2.275,5.072,5.072c0,2.796-2.275,5.071-5.072,5.071s-5.072-2.275-5.072-5.071
		C-36.568,6.333-34.293,4.058-31.497,4.058 M-31.497,3.058c-3.354,0-6.072,2.718-6.072,6.072c0,3.353,2.718,6.071,6.072,6.071
		c3.353,0,6.072-2.719,6.072-6.071C-25.425,5.776-28.144,3.058-31.497,3.058L-31.497,3.058z"/>
</g>
<g>
	<path fill="#FFFFFF" d="M-15.332,4.058c2.796,0,5.071,2.275,5.071,5.072c0,2.796-2.275,5.071-5.071,5.071s-5.071-2.275-5.071-5.071
		C-20.403,6.333-18.128,4.058-15.332,4.058 M-15.332,3.058c-3.354,0-6.071,2.718-6.071,6.072c0,3.353,2.718,6.071,6.071,6.071
		c3.353,0,6.071-2.719,6.071-6.071C-9.261,5.776-11.979,3.058-15.332,3.058L-15.332,3.058z"/>
</g>
</svg>
