<?xml version="1.0" encoding="utf-8"?>
<!-- Generator: Adobe Illustrator 16.0.0, SVG Export Plug-In . SVG Version: 6.00 Build 0)  -->
<!DOCTYPE svg PUBLIC "-//W3C//DTD SVG 1.1//EN" "http://www.w3.org/Graphics/SVG/1.1/DTD/svg11.dtd">
<svg version="1.1" id="Layer_1" xmlns="http://www.w3.org/2000/svg" xmlns:xlink="http://www.w3.org/1999/xlink" x="0px" y="0px"
	 width="29.667px" height="29.667px" viewBox="0 0 29.667 29.667" enable-background="new 0 0 29.667 29.667" xml:space="preserve">
<g>
	<path fill="#434343" d="M25.835-49.096c-6.787,0-12.291,5.503-12.291,12.291s5.504,12.291,12.291,12.291
		c6.789,0,12.291-5.503,12.291-12.291S32.624-49.096,25.835-49.096z M25.835-46.555c0.791,0,1.434,0.642,1.434,1.433
		c0,0.792-0.643,1.433-1.434,1.433s-1.433-0.642-1.433-1.433C24.402-45.913,25.044-46.555,25.835-46.555z M17.728-34.873
		c-0.791,0-1.432-0.641-1.432-1.433c0-0.791,0.641-1.433,1.432-1.433c0.792,0,1.434,0.642,1.434,1.433
		C19.161-35.513,18.52-34.873,17.728-34.873z M20.41-40.675c0.359-0.419,0.991-0.467,1.409-0.108l3.971,3.403l5.526-5.417
		c0.395-0.386,1.027-0.381,1.414,0.015c0.387,0.394,0.381,1.027-0.014,1.414l-6.182,6.058c-0.194,0.19-0.447,0.286-0.7,0.286
		c-0.231,0-0.463-0.08-0.65-0.241l-4.666-4C20.099-39.624,20.05-40.255,20.41-40.675z M25.835-26.468
		c-0.791,0-1.433-0.642-1.433-1.434c0-0.791,0.642-1.432,1.433-1.432s1.434,0.641,1.434,1.432
		C27.269-27.11,26.626-26.468,25.835-26.468z M34.103-34.873c-0.791,0-1.434-0.641-1.434-1.433c0-0.791,0.643-1.433,1.434-1.433
		s1.433,0.642,1.433,1.433C35.535-35.513,34.894-34.873,34.103-34.873z"/>
	<circle fill="#FFFFFF" cx="25.835" cy="-45.122" r="1.433"/>
	<circle fill="#FFFFFF" cx="25.835" cy="-27.901" r="1.433"/>
	<circle fill="#FFFFFF" cx="17.728" cy="-36.305" r="1.433"/>
	<circle fill="#FFFFFF" cx="34.103" cy="-36.305" r="1.433"/>
	<path fill="#FFFFFF" d="M25.835-35.024c0.253,0,0.506-0.096,0.7-0.286l6.182-6.058c0.395-0.387,0.4-1.02,0.014-1.414
		c-0.387-0.396-1.02-0.4-1.414-0.015L25.79-37.38l-3.971-3.403c-0.418-0.359-1.05-0.311-1.409,0.108
		c-0.36,0.419-0.312,1.051,0.108,1.41l4.666,4C25.372-35.104,25.604-35.024,25.835-35.024z"/>
</g>
<g>
	<polygon fill="#434343" points="56.669,-52.208 57.128,-52.208 56.897,-53.248 	"/>
	<polygon fill="#434343" points="59.497,-48.417 60.017,-50.787 58.962,-50.787 	"/>
	<path fill="#434343" d="M56.89-63.636c-6.787,0-12.291,5.503-12.291,12.291s5.504,12.292,12.291,12.292
		c6.789,0,12.291-5.503,12.291-12.292S63.679-63.636,56.89-63.636z M63.594-50.971c0,0.051-0.021,0.095-0.062,0.13
		s-0.086,0.053-0.137,0.053h-1.789l-1.223,5.442c-0.021,0.071-0.041,0.115-0.062,0.13s-0.076,0.023-0.168,0.023h-1.208
		c-0.111,0-0.176-0.008-0.191-0.023c-0.015-0.015-0.033-0.059-0.053-0.13l-1.238-5.442h-1.131l-1.238,5.442
		c-0.021,0.071-0.039,0.115-0.055,0.13c-0.015,0.015-0.078,0.023-0.19,0.023h-1.208c-0.092,0-0.147-0.008-0.168-0.023
		s-0.041-0.059-0.061-0.13l-1.223-5.442h-1.805c-0.051,0-0.097-0.018-0.138-0.053c-0.04-0.036-0.062-0.079-0.062-0.13v-1.055
		c0-0.051,0.021-0.094,0.062-0.13c0.041-0.036,0.087-0.053,0.138-0.053h1.498l-0.855-3.761c-0.021-0.071-0.021-0.125,0-0.161
		c0.02-0.036,0.096-0.053,0.229-0.053h1.146c0.072,0,0.123,0.007,0.153,0.022c0.03,0.016,0.056,0.059,0.076,0.13l0.841,3.822h1.697
		l0.871-3.822c0.021-0.071,0.043-0.115,0.068-0.13c0.025-0.015,0.074-0.022,0.146-0.022h1.284c0.071,0,0.119,0.007,0.146,0.022
		c0.025,0.016,0.048,0.059,0.069,0.13l0.871,3.822h1.696l0.841-3.822c0.021-0.071,0.046-0.115,0.076-0.13
		c0.031-0.015,0.082-0.022,0.153-0.022h1.146c0.132,0,0.209,0.018,0.229,0.053c0.02,0.036,0.02,0.089,0,0.161l-0.856,3.761h1.483
		c0.132,0,0.198,0.061,0.198,0.183V-50.971z"/>
	<polygon fill="#434343" points="54.3,-48.417 54.835,-50.787 53.78,-50.787 	"/>
	<path fill="#FFFFFF" d="M63.396-52.208h-1.483l0.856-3.761c0.02-0.071,0.02-0.125,0-0.161c-0.021-0.036-0.098-0.053-0.229-0.053
		h-1.146c-0.071,0-0.122,0.007-0.153,0.022c-0.03,0.016-0.056,0.059-0.076,0.13l-0.841,3.822h-1.696l-0.871-3.822
		c-0.021-0.071-0.044-0.115-0.069-0.13c-0.026-0.015-0.074-0.022-0.146-0.022h-1.284c-0.071,0-0.12,0.007-0.146,0.022
		c-0.025,0.016-0.048,0.059-0.068,0.13l-0.871,3.822h-1.697l-0.841-3.822c-0.021-0.071-0.046-0.115-0.076-0.13
		c-0.03-0.015-0.081-0.022-0.153-0.022h-1.146c-0.133,0-0.209,0.018-0.229,0.053c-0.021,0.036-0.021,0.089,0,0.161l0.855,3.761
		h-1.498c-0.051,0-0.097,0.018-0.138,0.053c-0.04,0.036-0.062,0.079-0.062,0.13v1.055c0,0.051,0.021,0.095,0.062,0.13
		c0.041,0.036,0.087,0.053,0.138,0.053h1.805l1.223,5.442c0.02,0.071,0.04,0.115,0.061,0.13s0.076,0.023,0.168,0.023h1.208
		c0.112,0,0.176-0.008,0.19-0.023c0.016-0.015,0.033-0.059,0.055-0.13l1.238-5.442h1.131l1.238,5.442
		c0.02,0.071,0.038,0.115,0.053,0.13c0.016,0.015,0.08,0.023,0.191,0.023h1.208c0.092,0,0.147-0.008,0.168-0.023
		s0.04-0.059,0.062-0.13l1.223-5.442h1.789c0.051,0,0.096-0.018,0.137-0.053s0.062-0.079,0.062-0.13v-1.055
		C63.594-52.147,63.527-52.208,63.396-52.208z M54.3-48.417l-0.52-2.37h1.055L54.3-48.417z M56.669-52.208l0.229-1.04l0.23,1.04
		H56.669z M59.497-48.417l-0.535-2.37h1.055L59.497-48.417z"/>
</g>
<path fill="#434343" d="M105.712,24.754V13.86h0.742c0.411,0,0.742,0.331,0.742,0.742v6.933c0,1.778,1.442,3.22,3.221,3.22
	c1.776,0,3.219-1.441,3.219-3.22V8.205c0-0.699-0.288-1.328-0.748-1.778l-2.625-2.61c-0.474-0.476-1.244-0.476-1.718,0
	c-0.476,0.475-0.476,1.243,0,1.718l1.703,1.709l-1.259,1.312c-0.411,0.421-0.411,1.099,0,1.521c0.202,0.218,0.476,0.322,0.748,0.316
	l1.422-0.004v11.147c0,0.411-0.333,0.742-0.742,0.742c-0.411,0-0.744-0.332-0.744-0.742v-6.934c0-1.777-1.44-3.218-3.219-3.218
	h-0.742V5.441c0-1.095-0.888-1.981-1.98-1.981h-10.4c-1.093,0-1.98,0.886-1.98,1.981v19.313h-0.248
	c-0.684,0-1.238,0.554-1.238,1.238c0,0.684,0.555,1.238,1.238,1.238h14.857c0.684,0,1.236-0.555,1.236-1.238
	c0-0.684-0.553-1.238-1.236-1.238H105.712z M94.917,5.936h7.229c0.604,0,1.09,0.485,1.09,1.09v5.249c0,0.604-0.485,1.09-1.09,1.09
	h-7.229c-0.604,0-1.09-0.486-1.09-1.09V7.026C93.827,6.421,94.313,5.936,94.917,5.936z"/>
<path fill="#434343" d="M-34.634,20.204c0,0,1.509-1.348,4.526-1.348c3.539,0,6.381,2.515,9.443,2.515
	c2.615,0,4.525-1.132,5.561-2.173c0.332-0.332,0.584-0.904,0.584-1.442V5.496c0-0.614-0.422-1.117-1.041-1.117
	c-0.418,0-0.734,0.251-1.051,0.569c-0.428,0.427-1.68,1.337-4.682,1.337c-2.74,0-4.912-2.515-8.453-2.515
	c-3.41,0-4.888,1.111-4.888,1.111v-0.86c0-0.694-0.563-1.257-1.257-1.257c-0.694,0-1.258,0.563-1.258,1.257v21.624
	c0,0.693,0.563,1.257,1.258,1.257c0.693,0,1.257-0.563,1.257-1.257V20.204L-34.634,20.204z M-32.622,7.793v8.046
	c0,0.552-0.453,1.005-1.005,1.005c-0.554,0-1.007-0.453-1.007-1.005V7.793c0-0.553,0.453-1.006,1.007-1.006
	C-33.075,6.788-32.622,7.241-32.622,7.793z"/>
<path fill="#434343" d="M14.834,2.542c-6.787,0-12.291,5.503-12.291,12.291s5.504,12.292,12.291,12.292
	c6.789,0,12.291-5.503,12.291-12.292S21.623,2.542,14.834,2.542z M14.834,5.084c0.791,0,1.434,0.642,1.434,1.433
	c0,0.792-0.643,1.433-1.434,1.433s-1.433-0.642-1.433-1.433C13.401,5.726,14.043,5.084,14.834,5.084z M6.727,16.766
	c-0.791,0-1.432-0.641-1.432-1.433c0-0.791,0.641-1.433,1.432-1.433c0.792,0,1.434,0.642,1.434,1.433
	C8.16,16.125,7.519,16.766,6.727,16.766z M9.409,10.964c0.359-0.419,0.991-0.467,1.409-0.108l3.971,3.403l5.526-5.417
	c0.395-0.386,1.027-0.381,1.414,0.015c0.387,0.394,0.381,1.027-0.014,1.414l-6.182,6.058c-0.194,0.19-0.447,0.286-0.7,0.286
	c-0.231,0-0.463-0.08-0.65-0.241l-4.666-4C9.098,12.015,9.049,11.383,9.409,10.964z M14.834,25.17c-0.791,0-1.433-0.642-1.433-1.434
	c0-0.791,0.642-1.432,1.433-1.432s1.434,0.641,1.434,1.432C16.268,24.529,15.625,25.17,14.834,25.17z M23.102,16.766
	c-0.791,0-1.434-0.641-1.434-1.433c0-0.791,0.643-1.433,1.434-1.433s1.433,0.642,1.433,1.433
	C24.534,16.125,23.893,16.766,23.102,16.766z"/>
<g>
	<path fill="#434343" d="M59.999,2.542c-6.787,0-12.291,5.503-12.291,12.291s5.504,12.292,12.291,12.292
		c6.789,0,12.291-5.503,12.291-12.292S66.788,2.542,59.999,2.542z M66.703,15.208c0,0.051-0.021,0.095-0.062,0.13
		s-0.086,0.053-0.137,0.053h-1.789l-1.223,5.442c-0.021,0.071-0.041,0.115-0.062,0.13s-0.076,0.023-0.168,0.023h-1.208
		c-0.111,0-0.176-0.008-0.191-0.023c-0.015-0.015-0.033-0.059-0.053-0.13l-1.238-5.442h-1.131l-1.238,5.442
		c-0.021,0.071-0.039,0.115-0.055,0.13c-0.015,0.015-0.078,0.023-0.19,0.023h-1.208c-0.092,0-0.147-0.008-0.168-0.023
		s-0.041-0.059-0.061-0.13L55.3,15.391h-1.805c-0.051,0-0.097-0.018-0.138-0.053c-0.04-0.036-0.062-0.079-0.062-0.13v-1.055
		c0-0.051,0.021-0.094,0.062-0.13c0.041-0.036,0.087-0.053,0.138-0.053h1.498l-0.855-3.761c-0.021-0.071-0.021-0.125,0-0.161
		c0.02-0.036,0.096-0.053,0.229-0.053h1.146c0.072,0,0.123,0.007,0.153,0.022c0.03,0.016,0.056,0.059,0.076,0.13l0.841,3.822h1.697
		l0.871-3.822c0.021-0.071,0.043-0.115,0.068-0.13c0.025-0.015,0.074-0.022,0.146-0.022h1.284c0.071,0,0.119,0.007,0.146,0.022
		c0.025,0.016,0.048,0.059,0.069,0.13l0.871,3.822h1.696l0.841-3.822c0.021-0.071,0.046-0.115,0.076-0.13
		c0.031-0.015,0.082-0.022,0.153-0.022h1.146c0.132,0,0.209,0.018,0.229,0.053c0.02,0.036,0.02,0.089,0,0.161l-0.856,3.761h1.483
		c0.132,0,0.198,0.061,0.198,0.183V15.208z"/>
	<path fill="#434343" d="M57.409,17.761l-0.52-2.37h1.055L57.409,17.761z M59.778,13.97l0.229-1.04l0.23,1.04H59.778z
		 M62.606,17.761l-0.535-2.37h1.055L62.606,17.761z"/>
</g>
</svg>
