<?xml version="1.0" encoding="utf-8"?>
<!-- Generator: Adobe Illustrator 16.0.0, SVG Export Plug-In . SVG Version: 6.00 Build 0)  -->
<!DOCTYPE svg PUBLIC "-//W3C//DTD SVG 1.1//EN" "http://www.w3.org/Graphics/SVG/1.1/DTD/svg11.dtd">
<svg version="1.1" id="Layer_1" xmlns="http://www.w3.org/2000/svg" xmlns:xlink="http://www.w3.org/1999/xlink" x="0px" y="0px"
	 width="23px" height="32px" viewBox="0 0 23 32" enable-background="new 0 0 23 32" xml:space="preserve">
<path fill="#989CA2" d="M11.499,8.06c1.901,0,3.448,1.546,3.448,3.447c0,1.902-1.547,3.45-3.448,3.45s-3.448-1.547-3.448-3.45
	C8.051,9.606,9.598,8.06,11.499,8.06 M11.499,7.06c-2.457,0-4.448,1.992-4.448,4.447c0,2.458,1.992,4.45,4.448,4.45
	c2.457,0,4.448-1.992,4.448-4.45C15.947,9.051,13.956,7.06,11.499,7.06L11.499,7.06z"/>
<g>
	<path fill="#989CA2" d="M11.484,31.238l-0.369-0.399c-0.384-0.416-9.408-10.285-10.072-17.943C0.751,9.539,1.736,6.44,3.815,4.172
		c1.937-2.112,4.66-3.276,7.668-3.276c3.052,0,5.792,1.175,7.717,3.308c2.04,2.26,2.975,5.35,2.63,8.7
		c-0.81,7.866-9.604,17.527-9.979,17.934L11.484,31.238z M11.483,1.896c-2.724,0-5.186,1.048-6.931,2.952
		c-1.888,2.059-2.78,4.886-2.513,7.961c0.562,6.468,7.723,14.98,9.443,16.939c1.691-1.939,8.669-10.297,9.354-16.947
		c0.314-3.064-0.529-5.879-2.378-7.927C16.726,2.954,14.248,1.896,11.483,1.896z"/>
</g>
<g>
	<path fill="#989CA2" d="M39.476,8.06c1.901,0,3.448,1.546,3.448,3.447c0,1.902-1.547,3.45-3.448,3.45s-3.448-1.547-3.448-3.45
		C36.027,9.606,37.574,8.06,39.476,8.06 M39.476,7.06c-2.456,0-4.448,1.992-4.448,4.447c0,2.458,1.992,4.45,4.448,4.45
		c2.457,0,4.448-1.992,4.448-4.45C43.924,9.051,41.933,7.06,39.476,7.06L39.476,7.06z"/>
</g>
<g>
	<path fill="none" stroke="#989CA2" stroke-miterlimit="10" d="M49.31,12.853C48.508,20.644,39.46,30.5,39.46,30.5
		s-9.284-10.071-9.942-17.647C28.967,6.505,33.25,1.396,39.46,1.396S49.97,6.428,49.31,12.853z"/>
</g>
</svg>
