<?xml version="1.0" encoding="utf-8"?>
<!-- Generator: Adobe Illustrator 16.0.0, SVG Export Plug-In . SVG Version: 6.00 Build 0)  -->
<!DOCTYPE svg PUBLIC "-//W3C//DTD SVG 1.1//EN" "http://www.w3.org/Graphics/SVG/1.1/DTD/svg11.dtd">
<svg version="1.1" id="Layer_1" xmlns="http://www.w3.org/2000/svg" xmlns:xlink="http://www.w3.org/1999/xlink" x="0px" y="0px"
	 width="96px" height="64px" viewBox="0 0 96 64" enable-background="new 0 0 96 64" xml:space="preserve">
<g>
	<path fill="#8F9094" d="M283.604-40.854l-0.684-0.691c-0.651-0.658-15.946-16.256-17.001-28.403
		c-0.435-4.995,1.157-9.741,4.479-13.365c3.343-3.646,8.157-5.737,13.208-5.737c5.18,0,10.081,2.141,13.448,5.87
		c3.254,3.606,4.767,8.312,4.26,13.247c-1.284,12.474-16.383,27.747-17.025,28.392L283.604-40.854z M283.606-87.12
		c-4.512,0-8.807,1.862-11.785,5.111c-2.953,3.22-4.365,7.443-3.979,11.894c0.874,10.056,12.764,23.3,15.766,26.496
		c2.986-3.159,14.723-16.177,15.786-26.512c0.451-4.386-0.889-8.561-3.772-11.756C292.62-85.213,288.24-87.12,283.606-87.12z"/>
	<path fill="#8F9094" d="M283.607-63.556c-4.058,0-7.36-3.355-7.36-7.479c0-4.125,3.303-7.48,7.36-7.48s7.359,3.355,7.359,7.48
		C290.967-66.911,287.665-63.556,283.607-63.556z M283.607-76.585c-2.994,0-5.43,2.489-5.43,5.55c0,3.059,2.436,5.549,5.43,5.549
		s5.43-2.49,5.43-5.549C289.037-74.096,286.602-76.585,283.607-76.585z"/>
</g>
<g>
	<path fill="#EC2127" d="M283.604,56.646l-0.684-0.691c-0.651-0.658-15.946-16.256-17.001-28.403
		c-0.435-4.995,1.157-9.741,4.479-13.365c3.343-3.646,8.157-5.737,13.208-5.737c5.18,0,10.081,2.141,13.448,5.87
		c3.254,3.606,4.767,8.312,4.26,13.247c-1.284,12.474-16.383,27.747-17.025,28.392L283.604,56.646z M283.606,10.38
		c-4.512,0-8.807,1.862-11.785,5.111c-2.953,3.22-4.365,7.443-3.979,11.894c0.874,10.056,12.764,23.3,15.766,26.496
		c2.986-3.159,14.723-16.177,15.786-26.512c0.451-4.386-0.889-8.561-3.772-11.756C292.62,12.287,288.24,10.38,283.606,10.38z"/>
	<path fill="#EC2127" d="M283.607,33.944c-4.058,0-7.36-3.355-7.36-7.479c0-4.125,3.303-7.48,7.36-7.48s7.359,3.355,7.359,7.48
		C290.967,30.589,287.665,33.944,283.607,33.944z M283.607,20.915c-2.994,0-5.43,2.489-5.43,5.55c0,3.059,2.436,5.549,5.43,5.549
		s5.43-2.49,5.43-5.549C289.037,23.404,286.602,20.915,283.607,20.915z"/>
</g>
<g>
	<g>
		<rect x="-183.506" y="-58.063" fill="#8F9094" width="2" height="14.975"/>
		
			<rect x="-205.373" y="-70.065" transform="matrix(0.9734 0.2291 -0.2291 0.9734 -21.0679 43.3661)" fill="#8F9094" width="16.089" height="2"/>
		
			<rect x="-168.781" y="-77.109" transform="matrix(0.229 0.9734 -0.9734 0.229 -196.5963 110.0728)" fill="#8F9094" width="2" height="16.089"/>
		<path fill="#8F9094" d="M-182.506-41.852c-13.043,0-23.652-10.61-23.652-23.652s10.609-23.652,23.652-23.652
			c13.041,0,23.652,10.61,23.652,23.652S-169.465-41.852-182.506-41.852z M-182.506-87.156c-11.939,0-21.652,9.713-21.652,21.652
			s9.713,21.652,21.652,21.652c11.938,0,21.652-9.713,21.652-21.652S-170.567-87.156-182.506-87.156z"/>
		<path fill="#8F9094" d="M-182.506-57.298c-4.525,0-8.207-3.681-8.207-8.205c0-4.525,3.682-8.207,8.207-8.207
			s8.205,3.682,8.205,8.207C-174.301-60.979-177.98-57.298-182.506-57.298z M-182.506-71.71c-3.422,0-6.207,2.784-6.207,6.207
			c0,3.421,2.785,6.205,6.207,6.205s6.205-2.784,6.205-6.205C-176.301-68.926-179.084-71.71-182.506-71.71z"/>
	</g>
</g>
<g>
	<g>
		<rect x="-183.506" y="39.438" fill="#EC2127" width="2" height="14.975"/>
		
			<rect x="-205.373" y="27.435" transform="matrix(0.9734 0.2291 -0.2291 0.9734 1.2667 45.9587)" fill="#EC2127" width="16.089" height="2"/>
		
			<rect x="-168.781" y="20.391" transform="matrix(0.229 0.9734 -0.9734 0.229 -101.6862 185.2494)" fill="#EC2127" width="2" height="16.089"/>
		<path fill="#EC2127" d="M-182.506,55.648c-13.043,0-23.652-10.61-23.652-23.652s10.609-23.652,23.652-23.652
			c13.041,0,23.652,10.61,23.652,23.652S-169.465,55.648-182.506,55.648z M-182.506,10.344c-11.939,0-21.652,9.713-21.652,21.652
			s9.713,21.652,21.652,21.652c11.938,0,21.652-9.713,21.652-21.652S-170.567,10.344-182.506,10.344z"/>
		<path fill="#EC2127" d="M-182.506,40.202c-4.525,0-8.207-3.681-8.207-8.205c0-4.525,3.682-8.207,8.207-8.207
			s8.205,3.682,8.205,8.207C-174.301,36.521-177.98,40.202-182.506,40.202z M-182.506,25.79c-3.422,0-6.207,2.784-6.207,6.207
			c0,3.421,2.785,6.205,6.207,6.205s6.205-2.784,6.205-6.205C-176.301,28.574-179.084,25.79-182.506,25.79z"/>
	</g>
</g>
<path fill="#8F9094" d="M187.977-41.25c-1.41,0-2.735-0.549-3.733-1.545l-18.154-18.158c-3.25-3.25-7.485-3.734-9.721-3.734
	l-0.374,0.004c-0.23,0.027-0.535,0.043-0.838,0.048l-0.062,0.001h-0.014v0.001c-2.356,0-4.39-0.819-5.939-2.369
	c-1.907-1.908-3.374-4.347-4.024-6.691c-0.732-2.636-0.376-4.847,1.001-6.222l0.708-0.707l5.546,5.548
	c0.233,0.233,0.586,0.351,1.049,0.351c1.232,0,2.879-0.85,4.195-2.166c2.02-2.02,2.624-4.434,1.815-5.244l-5.551-5.547l0.708-0.707
	c0.896-0.896,2.178-1.369,3.707-1.369c2.923,0,6.536,1.725,9.207,4.395c1.554,1.554,2.372,3.592,2.368,5.896
	c0.003,0.051,0.003,0.134-0.008,0.244c-0.001,0.201-0.013,0.482-0.042,0.766c-0.049,1.793,0.209,6.515,3.732,10.04l18.156,18.155
	c2.059,2.059,2.059,5.408,0,7.467C190.712-41.799,189.387-41.25,187.977-41.25z M156.368-66.688c2.545,0,7.375,0.561,11.135,4.32
	l18.154,18.158c1.238,1.236,3.4,1.238,4.639,0c1.278-1.279,1.278-3.359,0-4.639L172.14-67.002
	c-4.073-4.076-4.373-9.461-4.313-11.586c0.028-0.303,0.038-0.527,0.042-0.752c0.015-1.896-0.585-3.415-1.779-4.609
	c-2.279-2.277-5.411-3.809-7.793-3.809c-0.545,0-1.022,0.078-1.428,0.233l3.979,3.976c1.753,1.756,0.954,5.301-1.816,8.073
	c-1.725,1.724-3.821,2.751-5.609,2.751c-0.998,0-1.85-0.323-2.463-0.936l-3.973-3.975c-0.331,0.868-0.317,2.053,0.059,3.406
	c0.562,2.021,1.841,4.141,3.512,5.812c1.184,1.183,2.686,1.783,4.465,1.783l0.163,0.006c0.188-0.011,0.432-0.022,0.68-0.05
	C156.072-66.686,156.215-66.688,156.368-66.688z"/>
<path fill="#EC2127" d="M187.977,56.25c-1.41,0-2.735-0.549-3.733-1.545l-18.154-18.158c-3.25-3.25-7.485-3.734-9.721-3.734
	l-0.374,0.004c-0.23,0.027-0.535,0.043-0.838,0.048l-0.062,0.001h-0.014v0.001c-2.356,0-4.39-0.819-5.939-2.369
	c-1.907-1.908-3.374-4.347-4.024-6.691c-0.732-2.636-0.376-4.847,1.001-6.222l0.708-0.707l5.546,5.548
	c0.233,0.233,0.586,0.351,1.049,0.351c1.232,0,2.879-0.85,4.195-2.166c2.02-2.02,2.624-4.434,1.815-5.244l-5.551-5.547l0.708-0.707
	c0.896-0.896,2.178-1.369,3.707-1.369c2.923,0,6.536,1.725,9.207,4.395c1.554,1.554,2.372,3.592,2.368,5.896
	c0.003,0.051,0.003,0.134-0.008,0.244c-0.001,0.201-0.013,0.482-0.042,0.766c-0.049,1.793,0.209,6.515,3.732,10.04l18.156,18.155
	c2.059,2.059,2.059,5.408,0,7.467C190.712,55.701,189.387,56.25,187.977,56.25z M156.368,30.813c2.545,0,7.375,0.561,11.135,4.32
	l18.154,18.158c1.238,1.236,3.4,1.238,4.639,0c1.278-1.279,1.278-3.359,0-4.639L172.14,30.498
	c-4.073-4.076-4.373-9.461-4.313-11.586c0.028-0.303,0.038-0.527,0.042-0.752c0.015-1.896-0.585-3.415-1.779-4.609
	c-2.279-2.277-5.411-3.809-7.793-3.809c-0.545,0-1.022,0.078-1.428,0.233l3.979,3.976c1.753,1.756,0.954,5.301-1.816,8.073
	c-1.725,1.724-3.821,2.751-5.609,2.751c-0.998,0-1.85-0.323-2.463-0.936l-3.973-3.975c-0.331,0.868-0.317,2.053,0.059,3.406
	c0.562,2.021,1.841,4.141,3.512,5.812c1.184,1.183,2.686,1.783,4.465,1.783l0.163,0.006c0.188-0.011,0.432-0.022,0.68-0.05
	C156.072,30.814,156.215,30.813,156.368,30.813z"/>
<g>
	<path fill="#8F9094" d="M30.201-75.273c-0.807,0-2.715-0.138-3.972-1.308c-0.735-0.685-1.124-1.623-1.124-2.714
		c0-2.879,2.041-4.598,5.463-4.598h29.398c2.814,0,4.938,1.977,4.938,4.598v2.01h0.486v2H30.568
		C30.525-75.281,30.396-75.273,30.201-75.273z M30.568-81.893c-2.299,0-3.463,0.875-3.463,2.598c0,0.542,0.153,0.938,0.484,1.248
		c0.783,0.732,2.363,0.8,2.91,0.765l32.404-0.003v-2.01c0-1.529-1.208-2.598-2.938-2.598H30.568z"/>
	<path fill="#8F9094" d="M70.584-55.999H59.617c-1.13,0-2.049-0.919-2.049-2.05v-7.008c0-1.13,0.919-2.049,2.049-2.049h10.967
		c1.131,0,2.051,0.919,2.051,2.049v7.008C72.635-56.918,71.715-55.999,70.584-55.999z M59.617-65.105l-0.049,7.057l11.016,0.051
		c0.028,0,0.051-0.023,0.051-0.051v-7.008L59.617-65.105z"/>
	<path fill="#8F9094" d="M66.479-46.29H28.195c-1.709,0-3.1-1.391-3.1-3.1v-29.892c0-1.024,0.652-1.182,0.932-1.201
		c0.096-0.01,0.936-0.039,1.081,0.966c0.196,1.361,0.623,2.241,1.087,2.241h38.283c1.709,0,3.1,1.391,3.1,3.1v8.07h-2v-8.07
		c0-0.607-0.493-1.1-1.1-1.1H28.195c-0.312,0-0.701-0.058-1.1-0.262v26.147c0,0.607,0.492,1.1,1.1,1.1h38.283
		c0.606,0,1.1-0.492,1.1-1.1v-7.608h2v7.608C69.578-47.681,68.188-46.29,66.479-46.29z"/>
</g>
<g>
	<path fill="#EC2127" d="M30.201,22.227c-0.807,0-2.715-0.138-3.972-1.308c-0.735-0.685-1.124-1.623-1.124-2.714
		c0-2.879,2.041-4.598,5.463-4.598h29.398c2.814,0,4.938,1.977,4.938,4.598v2.01h0.486v2H30.568
		C30.525,22.219,30.396,22.227,30.201,22.227z M30.568,15.607c-2.299,0-3.463,0.875-3.463,2.598c0,0.542,0.153,0.938,0.484,1.248
		c0.783,0.732,2.363,0.8,2.91,0.765l32.404-0.003v-2.01c0-1.529-1.208-2.598-2.938-2.598H30.568z"/>
	<path fill="#EC2127" d="M70.584,41.501H59.617c-1.13,0-2.049-0.919-2.049-2.05v-7.008c0-1.13,0.919-2.049,2.049-2.049h10.967
		c1.131,0,2.051,0.919,2.051,2.049v7.008C72.635,40.582,71.715,41.501,70.584,41.501z M59.617,32.395l-0.049,7.057l11.016,0.051
		c0.028,0,0.051-0.023,0.051-0.051v-7.008L59.617,32.395z"/>
	<path fill="#EC2127" d="M66.479,51.21H28.195c-1.709,0-3.1-1.391-3.1-3.1V18.219c0-1.024,0.652-1.182,0.932-1.201
		c0.096-0.01,0.936-0.039,1.081,0.966c0.196,1.361,0.623,2.241,1.087,2.241h38.283c1.709,0,3.1,1.391,3.1,3.1v8.07h-2v-8.07
		c0-0.607-0.493-1.1-1.1-1.1H28.195c-0.312,0-0.701-0.058-1.1-0.262V48.11c0,0.607,0.492,1.1,1.1,1.1h38.283
		c0.606,0,1.1-0.492,1.1-1.1v-7.608h2v7.608C69.578,49.819,68.188,51.21,66.479,51.21z"/>
</g>
<g>
	<path fill="#8F9094" d="M-71.184-56.143"/>
	<path fill="#8F9094" d="M-57.345-60.01l-1.03-1.715c7.517-4.516,8.964-12.295,9.242-15.045h-6.21v-2h8.273l0.002,0.996
		C-47.065-77.301-47.151-66.134-57.345-60.01z"/>
	<path fill="#8F9094" d="M-79.136-60c-10.708-6.119-10.798-17.301-10.797-17.773l0.004-0.996h8.645v2h-6.59
		c0.263,2.749,1.716,10.453,9.73,15.033L-79.136-60z"/>
	<path fill="#8F9094" d="M-57.339-46.604c-0.45-0.733-1.431-1.478-2.436-1.478h-4.441v-6.97c2.514-0.186,4.62-1.64,4.785-1.76
		c1.353-1.148,1.964-2.122,2.728-4.341c2.673-7.785,2.589-24.617,2.583-25.33l-0.006-0.992h-28.563l0.008,1.008
		c0.133,16.604,1.752,21.783,2.623,24.566l0.119,0.385c0.637,2.068,1.462,3.64,2.324,4.424c1.136,1.031,3.197,1.744,5.431,1.911
		v7.099h-4.306c-1.001,0-2.031,0.768-2.438,1.49l-2,3.375l-0.049,0.091c-0.232,0.505-0.199,1.056,0.09,1.509
		c0.431,0.672,1.248,0.91,1.818,0.91h21.875c0.734,0,1.52-0.45,1.865-1.07c0.263-0.472,0.258-1.016-0.004-1.439L-57.339-46.604z
		 M-78.905-42.707l1.71-2.885c0.12-0.212,0.536-0.481,0.706-0.49h6.306v-1v-1v-9.061h-1c-2.413,0-4.328-0.741-5.085-1.429
		c-0.451-0.409-1.148-1.553-1.759-3.533l-0.122-0.393c-0.822-2.628-2.336-7.47-2.521-22.978h24.549
		c-0.024,3.766-0.27,17.256-2.473,23.672c-0.646,1.882-1.065,2.563-2.055,3.408c-0.023,0.016-2.248,1.529-4.479,1.346l-1.088-0.096
		v9.063h-0.003v2h6.444c0.142,0.002,0.547,0.225,0.723,0.51l1.697,2.865H-78.905z"/>
</g>
<g>
	<path fill="#EC2127" d="M-71.184,41.357"/>
	<path fill="#EC2127" d="M-57.345,37.49l-1.03-1.715c7.517-4.516,8.964-12.295,9.242-15.045h-6.21v-2h8.273l0.002,0.996
		C-47.065,20.199-47.151,31.366-57.345,37.49z"/>
	<path fill="#EC2127" d="M-79.136,37.5c-10.708-6.119-10.798-17.301-10.797-17.773l0.004-0.996h8.645v2h-6.59
		c0.263,2.749,1.716,10.453,9.73,15.033L-79.136,37.5z"/>
	<path fill="#EC2127" d="M-57.339,50.896c-0.45-0.733-1.431-1.478-2.436-1.478h-4.441v-6.97c2.514-0.186,4.62-1.64,4.785-1.76
		c1.353-1.148,1.964-2.122,2.728-4.341c2.673-7.785,2.589-24.617,2.583-25.33l-0.006-0.992h-28.563l0.008,1.008
		c0.133,16.604,1.752,21.783,2.623,24.566l0.119,0.385c0.637,2.068,1.462,3.64,2.324,4.424c1.136,1.031,3.197,1.744,5.431,1.911
		v7.099h-4.306c-1.001,0-2.031,0.768-2.438,1.49l-2,3.375l-0.049,0.091c-0.232,0.505-0.199,1.056,0.09,1.509
		c0.431,0.672,1.248,0.91,1.818,0.91h21.875c0.734,0,1.52-0.45,1.865-1.07c0.263-0.472,0.258-1.016-0.004-1.439L-57.339,50.896z
		 M-78.905,54.793l1.71-2.885c0.12-0.212,0.536-0.481,0.706-0.49h6.306v-1v-1v-9.061h-1c-2.413,0-4.328-0.741-5.085-1.429
		c-0.451-0.409-1.148-1.553-1.759-3.533l-0.122-0.393c-0.822-2.628-2.336-7.47-2.521-22.978h24.549
		c-0.024,3.766-0.27,17.256-2.473,23.672c-0.646,1.882-1.065,2.563-2.055,3.408c-0.023,0.016-2.248,1.529-4.479,1.346l-1.088-0.096
		v9.063h-0.003v2h6.444c0.142,0.002,0.547,0.225,0.723,0.51l1.697,2.865H-78.905z"/>
</g>
</svg>
