<?xml version="1.0" encoding="utf-8"?>
<!-- Generator: Adobe Illustrator 16.0.0, SVG Export Plug-In . SVG Version: 6.00 Build 0)  -->
<!DOCTYPE svg PUBLIC "-//W3C//DTD SVG 1.1//EN" "http://www.w3.org/Graphics/SVG/1.1/DTD/svg11.dtd">
<svg version="1.1" id="Layer_1" xmlns="http://www.w3.org/2000/svg" xmlns:xlink="http://www.w3.org/1999/xlink" x="0px" y="0px"
	 width="96px" height="64px" viewBox="0 0 96 64" enable-background="new 0 0 96 64" xml:space="preserve">
<g>
	<path fill="#8F9094" d="M175.193,56.646l-0.684-0.691c-0.651-0.658-15.946-16.256-17.002-28.403
		c-0.435-4.995,1.158-9.741,4.479-13.365c3.343-3.646,8.157-5.737,13.208-5.737c5.18,0,10.082,2.141,13.449,5.87
		c3.254,3.606,4.766,8.312,4.26,13.247c-1.285,12.473-16.383,27.746-17.025,28.391L175.193,56.646z M175.195,10.38
		c-4.512,0-8.807,1.862-11.785,5.111c-2.953,3.22-4.365,7.443-3.979,11.894c0.873,10.057,12.764,23.301,15.766,26.496
		c2.986-3.158,14.723-16.177,15.787-26.512c0.451-4.386-0.891-8.561-3.773-11.756C184.209,12.287,179.83,10.38,175.195,10.38z"/>
	<path fill="#8F9094" d="M175.196,33.943c-4.058,0-7.36-3.354-7.36-7.479c0-4.125,3.303-7.48,7.36-7.48s7.358,3.355,7.358,7.48
		C182.557,30.589,179.254,33.943,175.196,33.943z M175.196,20.915c-2.994,0-5.431,2.489-5.431,5.55c0,3.059,2.437,5.549,5.431,5.549
		c2.995,0,5.431-2.49,5.431-5.549C180.627,23.404,178.191,20.915,175.196,20.915z"/>
</g>
<g>
	<path fill="#EC2127" d="M182.529,154.146l-0.684-0.691c-0.65-0.658-15.945-16.256-17.001-28.403
		c-0.435-4.995,1.157-9.741,4.479-13.364c3.343-3.646,8.156-5.737,13.207-5.737c5.181,0,10.082,2.141,13.449,5.87
		c3.254,3.605,4.766,8.312,4.26,13.246c-1.285,12.475-16.383,27.748-17.025,28.393L182.529,154.146z M182.531,107.88
		c-4.512,0-8.807,1.862-11.785,5.111c-2.952,3.22-4.364,7.442-3.979,11.894c0.874,10.057,12.764,23.301,15.766,26.496
		c2.986-3.158,14.724-16.177,15.787-26.512c0.451-4.387-0.89-8.561-3.772-11.756C191.546,109.787,187.166,107.88,182.531,107.88z"/>
	<path fill="#EC2127" d="M182.533,131.443c-4.059,0-7.36-3.354-7.36-7.479c0-4.125,3.303-7.48,7.36-7.48
		c4.057,0,7.358,3.355,7.358,7.48C189.893,128.089,186.591,131.443,182.533,131.443z M182.533,118.415
		c-2.994,0-5.431,2.489-5.431,5.55c0,3.059,2.437,5.549,5.431,5.549s5.43-2.49,5.43-5.549
		C187.963,120.904,185.527,118.415,182.533,118.415z"/>
</g>
<g>
	<g>
		<rect x="-420.006" y="39.438" fill="#8F9094" width="2" height="14.976"/>
		
			<rect x="-441.87" y="27.423" transform="matrix(-0.9734 -0.2291 0.2291 -0.9734 -862.6234 -43.3005)" fill="#8F9094" width="16.089" height="2"/>
		
			<rect x="-405.297" y="20.407" transform="matrix(-0.229 -0.9734 0.9734 -0.229 -524.5818 -358.5851)" fill="#8F9094" width="2" height="16.089"/>
		<path fill="#8F9094" d="M-419.006,55.648c-13.043,0-23.652-10.61-23.652-23.652s10.609-23.652,23.652-23.652
			c13.041,0,23.652,10.61,23.652,23.652S-405.965,55.648-419.006,55.648z M-419.006,10.344c-11.939,0-21.652,9.713-21.652,21.652
			c0,11.939,9.713,21.652,21.652,21.652c11.938,0,21.652-9.713,21.652-21.652C-397.354,20.057-407.067,10.344-419.006,10.344z"/>
		<path fill="#8F9094" d="M-419.006,40.202c-4.525,0-8.207-3.681-8.207-8.205c0-4.525,3.682-8.207,8.207-8.207
			c4.525,0,8.205,3.682,8.205,8.207C-410.801,36.521-414.48,40.202-419.006,40.202z M-419.006,25.79
			c-3.422,0-6.207,2.784-6.207,6.207c0,3.421,2.785,6.205,6.207,6.205s6.205-2.784,6.205-6.205
			C-412.801,28.574-415.584,25.79-419.006,25.79z"/>
	</g>
</g>
<g>
	<g>
		<rect x="-420.006" y="136.938" fill="#EC2127" width="2" height="14.976"/>
		
			<rect x="-441.872" y="124.922" transform="matrix(-0.9734 -0.2291 0.2291 -0.9734 -884.9653 149.117)" fill="#EC2127" width="16.089" height="2.001"/>
		
			<rect x="-405.293" y="117.912" transform="matrix(-0.2291 -0.9734 0.9734 -0.2291 -619.5109 -238.7355)" fill="#EC2127" width="1.999" height="16.088"/>
		<path fill="#EC2127" d="M-419.006,153.148c-13.043,0-23.652-10.61-23.652-23.652s10.609-23.652,23.652-23.652
			c13.041,0,23.652,10.61,23.652,23.652S-405.965,153.148-419.006,153.148z M-419.006,107.844c-11.939,0-21.652,9.713-21.652,21.652
			s9.713,21.652,21.652,21.652c11.938,0,21.652-9.713,21.652-21.652S-407.067,107.844-419.006,107.844z"/>
		<path fill="#EC2127" d="M-419.006,137.702c-4.525,0-8.207-3.681-8.207-8.205s3.682-8.207,8.207-8.207
			c4.525,0,8.205,3.683,8.205,8.207S-414.48,137.702-419.006,137.702z M-419.006,123.29c-3.422,0-6.207,2.784-6.207,6.207
			c0,3.421,2.785,6.205,6.207,6.205s6.205-2.784,6.205-6.205C-412.801,126.074-415.584,123.29-419.006,123.29z"/>
	</g>
</g>
<path fill="#8F9094" d="M-48.523,56.25c-1.41,0-2.735-0.549-3.733-1.545L-70.41,36.547c-3.25-3.25-7.485-3.734-9.721-3.734
	l-0.374,0.004c-0.23,0.027-0.535,0.043-0.838,0.049l-0.062,0.001h-0.014v0.001c-2.356,0-4.39-0.819-5.939-2.369
	c-1.907-1.908-3.374-4.347-4.024-6.691c-0.732-2.636-0.376-4.847,1.001-6.222l0.708-0.707l5.546,5.548
	c0.233,0.233,0.586,0.351,1.049,0.351c1.232,0,2.879-0.85,4.195-2.166c2.02-2.02,2.624-4.434,1.815-5.244l-5.551-5.547l0.708-0.707
	c0.896-0.896,2.178-1.369,3.707-1.369c2.923,0,6.536,1.725,9.207,4.395c1.554,1.554,2.372,3.592,2.368,5.896
	c0.003,0.051,0.003,0.134-0.008,0.244c-0.001,0.201-0.013,0.482-0.042,0.766c-0.049,1.793,0.209,6.515,3.732,10.04l18.156,18.155
	c2.059,2.059,2.059,5.408,0,7.467C-45.788,55.701-47.113,56.25-48.523,56.25z M-80.132,30.813c2.545,0,7.375,0.561,11.135,4.32
	l18.154,18.158c1.238,1.236,3.4,1.238,4.639,0c1.278-1.279,1.278-3.359,0-4.639L-64.36,30.498
	c-4.073-4.076-4.373-9.461-4.313-11.586c0.028-0.303,0.038-0.527,0.042-0.752c0.015-1.896-0.585-3.415-1.779-4.609
	c-2.279-2.277-5.411-3.809-7.793-3.809c-0.545,0-1.022,0.078-1.428,0.233l3.979,3.976c1.753,1.756,0.954,5.301-1.816,8.073
	c-1.725,1.724-3.821,2.751-5.609,2.751c-0.998,0-1.85-0.323-2.463-0.936l-3.973-3.975c-0.331,0.868-0.317,2.053,0.059,3.406
	c0.562,2.021,1.841,4.141,3.512,5.812c1.184,1.183,2.686,1.783,4.465,1.783l0.163,0.006c0.188-0.011,0.432-0.022,0.68-0.05
	C-80.428,30.814-80.285,30.813-80.132,30.813z"/>
<path fill="#EC2127" d="M-48.523,153.75c-1.41,0-2.735-0.549-3.733-1.545l-18.154-18.158c-3.25-3.25-7.485-3.734-9.721-3.734
	l-0.374,0.004c-0.23,0.027-0.535,0.043-0.838,0.049l-0.062,0.001h-0.014v0.001c-2.356,0-4.39-0.819-5.939-2.369
	c-1.907-1.908-3.374-4.348-4.024-6.691c-0.732-2.636-0.376-4.847,1.001-6.222l0.708-0.707l5.546,5.548
	c0.233,0.233,0.586,0.352,1.049,0.352c1.232,0,2.879-0.851,4.195-2.166c2.02-2.021,2.624-4.435,1.815-5.244l-5.551-5.547
	l0.708-0.707c0.896-0.896,2.178-1.369,3.707-1.369c2.923,0,6.536,1.725,9.207,4.395c1.554,1.555,2.372,3.592,2.368,5.896
	c0.003,0.051,0.003,0.134-0.008,0.244c-0.001,0.201-0.013,0.482-0.042,0.766c-0.049,1.793,0.209,6.516,3.732,10.04l18.156,18.155
	c2.059,2.059,2.059,5.408,0,7.467C-45.788,153.201-47.113,153.75-48.523,153.75z M-80.132,128.313c2.545,0,7.375,0.562,11.135,4.32
	l18.154,18.158c1.238,1.236,3.4,1.238,4.639,0c1.278-1.279,1.278-3.359,0-4.639l-18.156-18.154
	c-4.073-4.076-4.373-9.461-4.313-11.586c0.028-0.303,0.038-0.527,0.042-0.752c0.015-1.896-0.585-3.415-1.779-4.609
	c-2.279-2.277-5.411-3.809-7.793-3.809c-0.545,0-1.022,0.078-1.428,0.232l3.979,3.977c1.753,1.756,0.954,5.301-1.816,8.072
	c-1.725,1.725-3.821,2.752-5.609,2.752c-0.998,0-1.85-0.323-2.463-0.937l-3.973-3.975c-0.331,0.868-0.317,2.053,0.059,3.405
	c0.562,2.021,1.841,4.142,3.512,5.813c1.184,1.184,2.686,1.783,4.465,1.783l0.163,0.006c0.188-0.012,0.432-0.021,0.68-0.051
	C-80.428,128.314-80.285,128.313-80.132,128.313z"/>
<g>
	<path fill="#8F9094" d="M-206.299,22.227c-0.807,0-2.715-0.138-3.972-1.308c-0.735-0.685-1.124-1.623-1.124-2.714
		c0-2.879,2.041-4.598,5.463-4.598h29.398c2.814,0,4.938,1.977,4.938,4.598v2.01h0.486v2h-34.822
		C-205.975,22.219-206.104,22.227-206.299,22.227z M-205.932,15.607c-2.299,0-3.463,0.875-3.463,2.598
		c0,0.542,0.153,0.938,0.484,1.248c0.783,0.732,2.363,0.8,2.91,0.765l32.404-0.003v-2.01c0-1.529-1.208-2.598-2.938-2.598H-205.932z
		"/>
	<path fill="#8F9094" d="M-165.916,41.501h-10.967c-1.13,0-2.049-0.919-2.049-2.05v-7.008c0-1.13,0.919-2.049,2.049-2.049h10.967
		c1.131,0,2.051,0.919,2.051,2.049v7.008C-163.865,40.582-164.785,41.501-165.916,41.501z M-176.883,32.395l-0.049,7.057
		l11.016,0.051c0.028,0,0.051-0.022,0.051-0.051v-7.008L-176.883,32.395z"/>
	<path fill="#8F9094" d="M-170.021,51.21h-38.283c-1.709,0-3.1-1.392-3.1-3.101V18.219c0-1.024,0.652-1.182,0.932-1.201
		c0.096-0.01,0.936-0.039,1.081,0.966c0.196,1.361,0.623,2.241,1.087,2.241h38.283c1.709,0,3.1,1.391,3.1,3.1v8.07h-2v-8.07
		c0-0.607-0.493-1.1-1.1-1.1h-38.283c-0.312,0-0.701-0.058-1.1-0.262v26.146c0,0.607,0.492,1.101,1.1,1.101h38.283
		c0.606,0,1.1-0.492,1.1-1.101v-7.607h2v7.607C-166.922,49.818-168.313,51.21-170.021,51.21z"/>
</g>
<g>
	<path fill="#EC2127" d="M-206.299,119.727c-0.807,0-2.715-0.138-3.972-1.308c-0.735-0.685-1.124-1.623-1.124-2.714
		c0-2.879,2.041-4.598,5.463-4.598h29.398c2.814,0,4.938,1.977,4.938,4.598v2.01h0.486v2h-34.822
		C-205.975,119.719-206.104,119.727-206.299,119.727z M-205.932,113.107c-2.299,0-3.463,0.875-3.463,2.598
		c0,0.542,0.153,0.938,0.484,1.248c0.783,0.732,2.363,0.8,2.91,0.765l32.404-0.003v-2.01c0-1.529-1.208-2.598-2.938-2.598H-205.932z
		"/>
	<path fill="#EC2127" d="M-165.916,139.001h-10.967c-1.13,0-2.049-0.919-2.049-2.05v-7.008c0-1.131,0.919-2.049,2.049-2.049h10.967
		c1.131,0,2.051,0.918,2.051,2.049v7.008C-163.865,138.082-164.785,139.001-165.916,139.001z M-176.883,129.895l-0.049,7.058
		l11.016,0.051c0.028,0,0.051-0.022,0.051-0.051v-7.009L-176.883,129.895z"/>
	<path fill="#EC2127" d="M-170.021,148.71h-38.283c-1.709,0-3.1-1.392-3.1-3.101v-29.892c0-1.024,0.652-1.182,0.932-1.2
		c0.096-0.011,0.936-0.039,1.081,0.965c0.196,1.361,0.623,2.242,1.087,2.242h38.283c1.709,0,3.1,1.391,3.1,3.1v8.07h-2v-8.07
		c0-0.607-0.493-1.1-1.1-1.1h-38.283c-0.312,0-0.701-0.059-1.1-0.263v26.147c0,0.606,0.492,1.1,1.1,1.1h38.283
		c0.606,0,1.1-0.492,1.1-1.1v-7.608h2v7.608C-166.922,147.318-168.313,148.71-170.021,148.71z"/>
</g>
<g>
	<path fill="#8F9094" d="M-307.684,41.357"/>
	<path fill="#8F9094" d="M-293.845,37.49l-1.03-1.715c7.517-4.517,8.964-12.295,9.242-15.045h-6.21v-2h8.273l0.002,0.996
		C-283.565,20.199-283.651,31.366-293.845,37.49z"/>
	<path fill="#8F9094" d="M-315.636,37.5c-10.708-6.119-10.798-17.301-10.797-17.773l0.004-0.996h8.645v2h-6.59
		c0.263,2.749,1.716,10.453,9.73,15.033L-315.636,37.5z"/>
	<path fill="#8F9094" d="M-293.839,50.896c-0.45-0.733-1.431-1.479-2.436-1.479h-4.441v-6.97c2.514-0.187,4.62-1.64,4.785-1.761
		c1.353-1.147,1.964-2.121,2.728-4.34c2.673-7.786,2.589-24.618,2.583-25.331l-0.006-0.992h-28.563l0.008,1.008
		c0.133,16.604,1.752,21.783,2.623,24.566l0.119,0.385c0.637,2.067,1.462,3.64,2.324,4.424c1.136,1.031,3.197,1.744,5.431,1.91v7.1
		h-4.306c-1.001,0-2.031,0.768-2.438,1.49l-2,3.375l-0.049,0.091c-0.232,0.505-0.199,1.056,0.09,1.509
		c0.431,0.672,1.248,0.91,1.818,0.91h21.875c0.734,0,1.52-0.45,1.865-1.07c0.263-0.472,0.258-1.016-0.004-1.438L-293.839,50.896z
		 M-315.405,54.793l1.71-2.885c0.12-0.213,0.536-0.481,0.706-0.49h6.306v-1v-1v-9.061h-1c-2.413,0-4.328-0.741-5.085-1.43
		c-0.451-0.408-1.148-1.553-1.759-3.533l-0.122-0.393c-0.822-2.628-2.336-7.47-2.521-22.978h24.549
		c-0.024,3.766-0.27,17.256-2.473,23.671c-0.646,1.883-1.065,2.563-2.055,3.408c-0.023,0.017-2.248,1.529-4.479,1.347l-1.088-0.097
		v9.063h-0.003v2h6.444c0.142,0.002,0.547,0.226,0.723,0.51l1.697,2.865L-315.405,54.793L-315.405,54.793z"/>
</g>
<g>
	<path fill="#EC2127" d="M-307.684,138.857"/>
	<path fill="#EC2127" d="M-293.845,134.99l-1.03-1.715c7.517-4.517,8.964-12.295,9.242-15.045h-6.21v-2h8.273l0.002,0.996
		C-283.565,117.699-283.651,128.866-293.845,134.99z"/>
	<path fill="#EC2127" d="M-315.636,135c-10.708-6.119-10.798-17.301-10.797-17.773l0.004-0.996h8.645v2h-6.59
		c0.263,2.75,1.716,10.453,9.73,15.033L-315.636,135z"/>
	<path fill="#EC2127" d="M-293.839,148.396c-0.45-0.733-1.431-1.479-2.436-1.479h-4.441v-6.97c2.514-0.187,4.62-1.64,4.785-1.761
		c1.353-1.147,1.964-2.121,2.728-4.34c2.673-7.785,2.589-24.617,2.583-25.33l-0.006-0.992h-28.563l0.008,1.008
		c0.133,16.604,1.752,21.783,2.623,24.566l0.119,0.385c0.637,2.067,1.462,3.64,2.324,4.424c1.136,1.031,3.197,1.744,5.431,1.91v7.1
		h-4.306c-1.001,0-2.031,0.768-2.438,1.49l-2,3.375l-0.049,0.091c-0.232,0.505-0.199,1.056,0.09,1.509
		c0.431,0.672,1.248,0.91,1.818,0.91h21.875c0.734,0,1.52-0.45,1.865-1.07c0.263-0.472,0.258-1.016-0.004-1.438L-293.839,148.396z
		 M-315.405,152.293l1.71-2.885c0.12-0.213,0.536-0.481,0.706-0.49h6.306v-1v-1v-9.061h-1c-2.413,0-4.328-0.741-5.085-1.43
		c-0.451-0.408-1.148-1.553-1.759-3.533l-0.122-0.393c-0.822-2.628-2.336-7.47-2.521-22.979h24.549
		c-0.024,3.767-0.27,17.256-2.473,23.672c-0.646,1.883-1.065,2.563-2.055,3.408c-0.023,0.017-2.248,1.529-4.479,1.347l-1.088-0.097
		v9.063h-0.003v2h6.444c0.142,0.002,0.547,0.226,0.723,0.51l1.697,2.865L-315.405,152.293L-315.405,152.293z"/>
</g>
<g>
	<path fill="#8F9094" d="M19.69,32.631l-1.82-0.826c0.148-0.328,3.703-8.063,9.557-12.096c4.713-3.25,10.154-4.764,17.121-4.764
		c6.592,0,12.16,3.121,14.754,6.213c2.855,3.404,3.904,6.18,4.41,7.512l0.061,0.162l-1.869,0.711l-0.063-0.164
		c-0.465-1.23-1.434-3.791-4.072-6.936c-2.295-2.736-7.273-5.498-13.221-5.498c-6.543,0-11.623,1.402-15.986,4.41
		C23.161,25.079,19.724,32.555,19.69,32.631z"/>
	<g>
		<path fill="#8F9094" d="M79.774,42.236c-0.354-3.297-1.434-9.182-4.686-11.552c-3.074-2.244-6.318-2.377-7.875-2.441
			c-0.283-0.012-0.502-0.014-0.639-0.039l-43.203-0.016c-1.369,0-4.051,1.119-5.455,3.525c-0.967,1.65-1.5,3.765-1.5,5.955
			c0,3.051,0.42,4.809,1.322,5.531c0.309,0.248,0.686,0.367,1.025,0.344h0.588c0,0,1.395,0.004,3.748,0.008
			c-0.049-0.344-0.084-0.693-0.084-1.051c0-0.322,0.029-0.637,0.068-0.949c-0.561,0-1.111-0.002-1.652-0.004l-2.502-0.004
			c-0.154-0.281-0.514-1.223-0.514-3.875c0-1.84,0.436-3.596,1.227-4.945c0.973-1.666,2.943-2.535,3.729-2.535h42.951
			c0.195,0.025,0.469,0.039,0.809,0.055c1.465,0.059,4.193,0.17,6.779,2.059c1.807,1.316,3.164,4.671,3.77,9.273
			c-0.805,0.008-2.061,0.016-3.658,0.02c0.035,0.299,0.061,0.6,0.061,0.906c0,0.373-0.037,0.736-0.09,1.094
			c5.346-0.02,5.396-0.1,5.66-0.525l0.188-0.311L79.774,42.236z"/>
		<path fill="#8F9094" d="M37.638,41.58c-0.453-3.621-3.537-6.422-7.279-6.422c-3.732,0-6.807,2.787-7.273,6.393
			c-0.039,0.313-0.068,0.627-0.068,0.949c0,0.357,0.035,0.707,0.084,1.051c0.512,3.555,3.561,6.291,7.258,6.291
			c3.688,0,6.732-2.721,7.256-6.262c0.051-0.354,0.088-0.713,0.088-1.08C37.702,42.188,37.677,41.883,37.638,41.58z M30.358,47.842
			c-2.584,0-4.744-1.846-5.234-4.287c-0.068-0.34-0.107-0.693-0.107-1.055c0-0.322,0.041-0.637,0.096-0.943
			c0.449-2.496,2.625-4.398,5.246-4.398c2.631,0,4.809,1.912,5.25,4.418c0.053,0.301,0.094,0.607,0.094,0.924
			c0,0.369-0.037,0.729-0.109,1.076C35.095,46.008,32.937,47.842,30.358,47.842z"/>
		<path fill="#8F9094" d="M74.022,41.594c-0.447-3.627-3.533-6.436-7.281-6.436c-3.752,0-6.84,2.814-7.283,6.447
			c-0.035,0.293-0.059,0.592-0.059,0.895c0,0.377,0.037,0.744,0.092,1.105c0.533,3.527,3.572,6.236,7.25,6.236
			c3.684,0,6.723-2.713,7.252-6.248c0.053-0.357,0.09-0.721,0.09-1.094C74.083,42.193,74.058,41.893,74.022,41.594z M66.741,47.842
			c-2.566,0-4.713-1.82-5.225-4.236c-0.074-0.357-0.117-0.727-0.117-1.105c0-0.307,0.041-0.602,0.09-0.895
			c0.43-2.52,2.613-4.447,5.252-4.447c2.637,0,4.82,1.924,5.252,4.441c0.049,0.293,0.09,0.592,0.09,0.9
			c0,0.377-0.041,0.744-0.115,1.1C71.458,46.02,69.31,47.842,66.741,47.842z"/>
		<rect x="36.952" y="41.605" fill="#8F9094" width="23.342" height="2"/>
	</g>
</g>
<g>
	<path fill="#EC2127" d="M19.69,130.631l-1.82-0.825c0.148-0.328,3.703-8.063,9.557-12.096c4.713-3.25,10.154-4.764,17.121-4.764
		c6.592,0,12.16,3.121,14.754,6.213c2.855,3.404,3.904,6.18,4.41,7.512l0.061,0.162l-1.869,0.711l-0.063-0.164
		c-0.465-1.23-1.434-3.791-4.072-6.936c-2.295-2.736-7.273-5.498-13.221-5.498c-6.543,0-11.623,1.402-15.986,4.41
		C23.161,123.079,19.724,130.555,19.69,130.631z"/>
	<g>
		<path fill="#EC2127" d="M79.774,140.236c-0.354-3.297-1.434-9.182-4.686-11.552c-3.074-2.244-6.318-2.377-7.875-2.441
			c-0.283-0.012-0.502-0.014-0.639-0.039l-43.203-0.016c-1.369,0-4.051,1.119-5.455,3.525c-0.967,1.649-1.5,3.765-1.5,5.954
			c0,3.051,0.42,4.809,1.322,5.531c0.309,0.248,0.686,0.367,1.025,0.344h0.588c0,0,1.395,0.004,3.748,0.008
			c-0.049-0.344-0.084-0.693-0.084-1.051c0-0.322,0.029-0.637,0.068-0.949c-0.561,0-1.111-0.002-1.652-0.004l-2.502-0.004
			c-0.154-0.281-0.514-1.223-0.514-3.875c0-1.84,0.436-3.596,1.227-4.945c0.973-1.665,2.943-2.534,3.729-2.534h42.951
			c0.195,0.025,0.469,0.039,0.809,0.055c1.465,0.059,4.193,0.17,6.779,2.059c1.807,1.315,3.164,4.671,3.77,9.272
			c-0.805,0.008-2.061,0.016-3.658,0.02c0.035,0.299,0.061,0.6,0.061,0.906c0,0.373-0.037,0.736-0.09,1.094
			c5.346-0.02,5.396-0.1,5.66-0.525l0.188-0.311L79.774,140.236z"/>
		<path fill="#EC2127" d="M37.638,139.58c-0.453-3.621-3.537-6.422-7.279-6.422c-3.732,0-6.807,2.787-7.273,6.393
			c-0.039,0.313-0.068,0.627-0.068,0.949c0,0.357,0.035,0.707,0.084,1.051c0.512,3.555,3.561,6.291,7.258,6.291
			c3.688,0,6.732-2.721,7.256-6.262c0.051-0.354,0.088-0.713,0.088-1.08C37.702,140.188,37.677,139.883,37.638,139.58z
			 M30.358,145.842c-2.584,0-4.744-1.846-5.234-4.287c-0.068-0.34-0.107-0.693-0.107-1.055c0-0.322,0.041-0.637,0.096-0.943
			c0.449-2.496,2.625-4.398,5.246-4.398c2.631,0,4.809,1.912,5.25,4.418c0.053,0.301,0.094,0.607,0.094,0.924
			c0,0.369-0.037,0.729-0.109,1.076C35.095,144.008,32.937,145.842,30.358,145.842z"/>
		<path fill="#EC2127" d="M74.022,139.594c-0.447-3.627-3.533-6.436-7.281-6.436c-3.752,0-6.84,2.814-7.283,6.447
			c-0.035,0.293-0.059,0.592-0.059,0.895c0,0.377,0.037,0.744,0.092,1.105c0.533,3.527,3.572,6.236,7.25,6.236
			c3.684,0,6.723-2.713,7.252-6.248c0.053-0.357,0.09-0.721,0.09-1.094C74.083,140.193,74.058,139.893,74.022,139.594z
			 M66.741,145.842c-2.566,0-4.713-1.82-5.225-4.236c-0.074-0.357-0.117-0.727-0.117-1.105c0-0.307,0.041-0.602,0.09-0.895
			c0.43-2.52,2.613-4.447,5.252-4.447c2.637,0,4.82,1.924,5.252,4.441c0.049,0.293,0.09,0.592,0.09,0.9
			c0,0.377-0.041,0.744-0.115,1.1C71.458,144.02,69.31,145.842,66.741,145.842z"/>
		<rect x="36.952" y="139.605" fill="#EC2127" width="23.342" height="2"/>
	</g>
</g>
</svg>
