<?xml version="1.0" encoding="utf-8"?>
<!-- Generator: Adobe Illustrator 16.0.0, SVG Export Plug-In . SVG Version: 6.00 Build 0)  -->
<!DOCTYPE svg PUBLIC "-//W3C//DTD SVG 1.1//EN" "http://www.w3.org/Graphics/SVG/1.1/DTD/svg11.dtd">
<svg version="1.1" id="Layer_1" xmlns="http://www.w3.org/2000/svg" xmlns:xlink="http://www.w3.org/1999/xlink" x="0px" y="0px"
	 width="100px" height="100px" viewBox="0 0 100 100" enable-background="new 0 0 100 100" xml:space="preserve">
<g>
	<path fill="#999999" d="M84.927,53.104H13.876c-0.625,0-1.131-0.507-1.131-1.132s0.506-1.131,1.131-1.131h71.051
		c0.624,0,1.131,0.506,1.131,1.131S85.551,53.104,84.927,53.104z"/>
	<g>
		<path fill="#999999" d="M81.659,27.997c-0.026,0-0.054-0.001-0.081-0.001c-2.711-0.039-4.886-2.451-4.849-5.376
			c0.008-0.626,0.512-1.085,1.146-1.117c0.625,0.008,1.125,0.521,1.117,1.146c-0.021,1.681,1.153,3.063,2.619,3.085
			c0.877,0.021,1.724-0.336,2.389-0.984c0.786-0.765,1.245-1.875,1.26-3.046c0.036-2.976-2.083-5.429-4.722-5.467
			c-1.547-0.067-3.022,0.587-4.184,1.718c-1.349,1.313-2.137,3.211-2.161,5.209c-0.008,0.619-0.513,1.117-1.132,1.117
			c-0.004,0-0.009,0-0.014,0c-0.625-0.008-1.125-0.521-1.117-1.146c0.032-2.595,1.069-5.073,2.845-6.802
			c1.596-1.552,3.654-2.406,5.796-2.359c3.883,0.057,7.001,3.537,6.951,7.757c-0.022,1.768-0.73,3.459-1.944,4.64
			C84.499,27.422,83.11,27.997,81.659,27.997z"/>
		<path fill="#999999" d="M26.284,24.28c-0.005,0-0.009,0-0.015,0c-0.624-0.008-1.125-0.521-1.117-1.146
			c0.032-2.595,1.07-5.073,2.846-6.802c1.596-1.552,3.665-2.406,5.797-2.359c0.625,0.01,1.123,0.523,1.114,1.148
			c-0.009,0.619-0.514,1.114-1.132,1.114c-0.029-0.001-0.065,0-0.099,0c-1.508,0-2.962,0.607-4.103,1.719
			c-1.349,1.313-2.136,3.21-2.16,5.208C27.407,23.782,26.903,24.28,26.284,24.28z"/>
		<path fill="#999999" d="M80.312,16.227H33.944c-0.625,0-1.132-0.507-1.132-1.132s0.507-1.132,1.132-1.132h46.367
			c0.625,0,1.132,0.507,1.132,1.132S80.937,16.227,80.312,16.227z"/>
		<path fill="#999999" d="M77.849,23.334H73.13c-0.625,0-1.131-0.506-1.131-1.131s0.506-1.132,1.131-1.132h4.719
			c0.625,0,1.132,0.507,1.132,1.132S78.474,23.334,77.849,23.334z"/>
		<path fill="#999999" d="M82.056,28.049h-8.994c-0.624,0-1.131-0.506-1.131-1.131s0.507-1.132,1.131-1.132h8.994
			c0.625,0,1.131,0.507,1.131,1.132S82.681,28.049,82.056,28.049z"/>
		<path fill="#999999" d="M26.283,51.563c-0.625,0-1.131-0.506-1.131-1.131V23.128c0-0.624,0.506-1.131,1.131-1.131
			s1.132,0.507,1.132,1.131v27.304C27.415,51.057,26.908,51.563,26.283,51.563z"/>
		<path fill="#999999" d="M73.078,51.563c-0.625,0-1.132-0.506-1.132-1.131V23.128c0-0.624,0.507-1.131,1.132-1.131
			s1.131,0.507,1.131,1.131v27.304C74.209,51.057,73.703,51.563,73.078,51.563z"/>
	</g>
	<path fill="#999999" d="M66.313,38.688H32.688c-0.689,0-1.25-0.561-1.25-1.25c0-0.691,0.561-1.25,1.25-1.25h33.625
		c0.691,0,1.25,0.559,1.25,1.25C67.563,38.127,67.004,38.688,66.313,38.688z"/>
	<path fill="#999999" d="M66.313,45.331H32.688c-0.689,0-1.25-0.561-1.25-1.25c0-0.691,0.561-1.25,1.25-1.25h33.625
		c0.691,0,1.25,0.559,1.25,1.25C67.563,44.771,67.004,45.331,66.313,45.331z"/>
	<path fill="#999999" d="M49.216,26.688H32.019c-0.321,0-0.581-0.521-0.581-1.162s0.26-1.162,0.581-1.162h17.197
		c0.32,0,0.58,0.521,0.58,1.162S49.536,26.688,49.216,26.688z"/>
	<path fill="#999999" d="M63.507,89.095H13.828c-0.598,0-1.083-0.485-1.083-1.088V40.93c0-0.6,0.485-1.088,1.083-1.088h7.002
		c0.604,0,1.089,0.488,1.089,1.088c0,0.601-0.485,1.088-1.089,1.088h-5.913v44.903h48.59c0.599,0,1.089,0.485,1.089,1.086
		C64.596,88.609,64.105,89.095,63.507,89.095z"/>
	<path fill="#999999" d="M85.637,89.095h-7.817c-0.602,0-1.087-0.485-1.087-1.088c0-0.601,0.485-1.086,1.087-1.086h6.729V42.018
		H78.68c-0.604,0-1.088-0.487-1.088-1.088c0-0.6,0.484-1.088,1.088-1.088h6.957c0.599,0,1.084,0.488,1.084,1.088v47.077
		C86.721,88.609,86.235,89.095,85.637,89.095z"/>
</g>
</svg>
