<?xml version="1.0" encoding="utf-8"?>
<!-- Generator: Adobe Illustrator 16.0.0, SVG Export Plug-In . SVG Version: 6.00 Build 0)  -->
<!DOCTYPE svg PUBLIC "-//W3C//DTD SVG 1.1//EN" "http://www.w3.org/Graphics/SVG/1.1/DTD/svg11.dtd">
<svg version="1.1" id="Layer_1" xmlns="http://www.w3.org/2000/svg" xmlns:xlink="http://www.w3.org/1999/xlink" x="0px" y="0px"
	 width="100px" height="100px" viewBox="0 0 100 100" enable-background="new 0 0 100 100" xml:space="preserve">
<g>
	<g>
		<path fill="#999999" d="M35.751,73.005h-5.436c-0.602,0-1.088-0.485-1.088-1.088c0-0.601,0.486-1.086,1.088-1.086h4.349V66.48
			c0-0.6,0.485-1.085,1.087-1.085c0.604,0,1.088,0.485,1.088,1.085v5.437C36.839,72.52,36.354,73.005,35.751,73.005z"/>
		<path fill="#999999" d="M24.188,73.005h-5.436c-0.602,0-1.088-0.485-1.088-1.088V66.48c0-0.6,0.486-1.085,1.088-1.085
			s1.088,0.485,1.088,1.085v4.351h4.348c0.603,0,1.089,0.485,1.089,1.086C25.277,72.52,24.791,73.005,24.188,73.005z"/>
		<path fill="#999999" d="M18.753,59.642c-0.602,0-1.088-0.487-1.088-1.088v-7.927c0-0.603,0.486-1.089,1.088-1.089
			s1.088,0.486,1.088,1.089v7.927C19.841,59.154,19.354,59.642,18.753,59.642z"/>
		<path fill="#999999" d="M18.753,43.788c-0.602,0-1.088-0.486-1.088-1.087v-5.436c0-0.601,0.486-1.088,1.088-1.088h5.436
			c0.603,0,1.089,0.488,1.089,1.088c0,0.6-0.486,1.087-1.089,1.087h-4.348V42.7C19.841,43.302,19.354,43.788,18.753,43.788z"/>
		<path fill="#999999" d="M35.751,43.788c-0.602,0-1.087-0.486-1.087-1.087v-4.349h-4.349c-0.602,0-1.088-0.488-1.088-1.087
			c0-0.601,0.486-1.088,1.088-1.088h5.436c0.604,0,1.088,0.488,1.088,1.088V42.7C36.839,43.302,36.354,43.788,35.751,43.788z"/>
		<path fill="#999999" d="M35.751,59.642c-0.602,0-1.087-0.486-1.087-1.086v-7.929c0-0.601,0.485-1.086,1.087-1.086
			c0.604,0,1.088,0.486,1.088,1.086v7.929C36.839,59.155,36.354,59.642,35.751,59.642z"/>
	</g>
	<path fill="#999999" d="M49.522,32.139H29.521c-0.603,0-1.088-0.488-1.088-1.089c0-0.6,0.485-1.087,1.088-1.087h20.002
		c0.598,0,1.083,0.488,1.083,1.087C50.605,31.651,50.12,32.139,49.522,32.139z"/>
	<path fill="#999999" d="M62.682,79.216H13.003c-0.598,0-1.083-0.485-1.083-1.088V31.05c0-0.6,0.485-1.087,1.083-1.087h7.002
		c0.604,0,1.089,0.488,1.089,1.087c0,0.601-0.485,1.089-1.089,1.089h-5.913v44.903h48.59c0.599,0,1.089,0.485,1.089,1.086
		C63.771,78.73,63.28,79.216,62.682,79.216z"/>
	<path fill="#999999" d="M87.08,79.216h-7.817c-0.602,0-1.087-0.485-1.087-1.088c0-0.601,0.485-1.086,1.087-1.086h6.729V32.139
		h-5.869c-0.604,0-1.088-0.488-1.088-1.089c0-0.6,0.484-1.087,1.088-1.087h6.957c0.599,0,1.084,0.488,1.084,1.087v47.078
		C88.164,78.73,87.679,79.216,87.08,79.216z"/>
	<g>
		<path fill="#999999" d="M64.521,67.937c-0.346,0-0.676-0.165-0.875-0.443c-0.659-0.899-16.116-22.13-16.116-31.166
			c0-9.368,7.625-16.988,16.991-16.988c9.365,0,16.99,7.62,16.99,16.988c0,9.036-15.453,30.266-16.111,31.166
			C65.196,67.771,64.871,67.937,64.521,67.937z M64.521,21.514c-8.17,0-14.814,6.646-14.814,14.813
			c0,7.171,11.506,23.972,14.814,28.652c3.309-4.68,14.813-21.483,14.813-28.652C79.335,28.161,72.69,21.514,64.521,21.514z"/>
		<path fill="#999999" d="M64.521,47.494c-6.44,0-11.68-5.238-11.68-11.68c0-6.439,5.239-11.676,11.68-11.676
			c6.439,0,11.679,5.237,11.679,11.676C76.2,42.256,70.961,47.494,64.521,47.494z M64.521,26.312c-5.239,0-9.503,4.264-9.503,9.502
			c0,5.241,4.264,9.505,9.503,9.505c5.243,0,9.502-4.264,9.502-9.505C74.023,30.575,69.765,26.312,64.521,26.312z"/>
	</g>
</g>
</svg>
