<?xml version="1.0" encoding="utf-8"?>
<!-- Generator: Adobe Illustrator 16.0.0, SVG Export Plug-In . SVG Version: 6.00 Build 0)  -->
<!DOCTYPE svg PUBLIC "-//W3C//DTD SVG 1.1//EN" "http://www.w3.org/Graphics/SVG/1.1/DTD/svg11.dtd">
<svg version="1.1" id="Layer_1" xmlns="http://www.w3.org/2000/svg" xmlns:xlink="http://www.w3.org/1999/xlink" x="0px" y="0px"
	 width="100px" height="100px" viewBox="0 0 100 100" enable-background="new 0 0 100 100" xml:space="preserve">
<g>
	<path fill="#999999" d="M73.453,34.023H60.74c-0.57,0-1.03-0.462-1.03-1.03V16.889c0-0.436,0.278-0.828,0.692-0.973
		c0.414-0.141,0.874-0.006,1.146,0.337l12.713,16.104c0.245,0.307,0.29,0.729,0.119,1.086
		C74.208,33.797,73.848,34.023,73.453,34.023z M61.769,31.965h9.561l-9.561-12.11V31.965z"/>
	<path fill="#999999" d="M73.453,65.131c-0.567,0-1.029-0.459-1.029-1.03V33.35l-12.183-15.43H26.582v10.919
		c0,0.568-0.461,1.029-1.03,1.029c-0.567,0-1.03-0.461-1.03-1.029v-11.95c0-0.568,0.462-1.03,1.03-1.03H60.74
		c0.314,0,0.614,0.145,0.809,0.394l12.713,16.104c0.143,0.18,0.222,0.405,0.222,0.636v31.107
		C74.483,64.672,74.022,65.131,73.453,65.131z"/>
	<path fill="#999999" d="M73.453,81.993H25.552c-0.567,0-1.03-0.462-1.03-1.03V38.264c0-0.571,0.462-1.03,1.03-1.03
		c0.568,0,1.03,0.459,1.03,1.03v41.668h45.842v-5.139c0-0.57,0.462-1.03,1.029-1.03c0.569,0,1.03,0.46,1.03,1.03v6.169
		C74.483,81.53,74.022,81.993,73.453,81.993z"/>
	<path fill="#999999" d="M54.99,25.971H31.517c-0.569,0-1.028-0.46-1.028-1.03c0-0.566,0.458-1.029,1.028-1.029H54.99
		c0.571,0,1.031,0.462,1.031,1.029C56.021,25.511,55.562,25.971,54.99,25.971z"/>
	<path fill="#999999" d="M67.097,43.125h-35.58c-0.569,0-1.028-0.459-1.028-1.03c0-0.568,0.458-1.03,1.028-1.03h35.58
		c0.569,0,1.03,0.461,1.03,1.03C68.127,42.666,67.666,43.125,67.097,43.125z"/>
	<path fill="#999999" d="M67.097,52.791h-35.58c-0.569,0-1.028-0.463-1.028-1.03c0-0.569,0.458-1.03,1.028-1.03h35.58
		c0.569,0,1.03,0.46,1.03,1.03C68.127,52.328,67.666,52.791,67.097,52.791z"/>
	<path fill="#999999" d="M67.097,62.454h-35.58c-0.569,0-1.028-0.46-1.028-1.027c0-0.568,0.458-1.028,1.028-1.028h35.58
		c0.569,0,1.03,0.46,1.03,1.028C68.127,61.994,67.666,62.454,67.097,62.454z"/>
	<path fill="#999999" d="M67.097,72.121h-35.58c-0.569,0-1.028-0.461-1.028-1.03c0-0.569,0.458-1.03,1.028-1.03h35.58
		c0.569,0,1.03,0.46,1.03,1.03C68.127,71.66,67.666,72.121,67.097,72.121z"/>
</g>
</svg>
