<?xml version="1.0" encoding="utf-8"?>
<!-- Generator: Adobe Illustrator 16.0.0, SVG Export Plug-In . SVG Version: 6.00 Build 0)  -->
<!DOCTYPE svg PUBLIC "-//W3C//DTD SVG 1.1//EN" "http://www.w3.org/Graphics/SVG/1.1/DTD/svg11.dtd">
<svg version="1.1" id="Layer_1" xmlns="http://www.w3.org/2000/svg" xmlns:xlink="http://www.w3.org/1999/xlink" x="0px" y="0px"
	 width="100px" height="100px" viewBox="0 0 100 100" enable-background="new 0 0 100 100" xml:space="preserve">
<path fill="#999999" d="M84.744,67.449H77.76c-0.663,0-1.2-0.536-1.2-1.2c0-0.661,0.537-1.196,1.2-1.196h6.984
	c0.664,0,1.2,0.535,1.2,1.196C85.944,66.913,85.408,67.449,84.744,67.449z"/>
<path fill="#999999" d="M65.84,67.449H15.729c-0.664,0-1.2-0.536-1.2-1.2c0-0.661,0.536-1.196,1.2-1.196H65.84
	c0.664,0,1.2,0.535,1.2,1.196C67.04,66.913,66.504,67.449,65.84,67.449z"/>
<g>
	<g>
		<path fill="#999999" d="M19.373,59.764c-0.66,0-1.2-0.533-1.2-1.197c0-1.449,0.102-2.912,0.292-4.347
			c0.088-0.655,0.694-1.116,1.35-1.028c0.655,0.09,1.115,0.693,1.027,1.348c-0.178,1.33-0.271,2.684-0.271,4.027
			C20.571,59.23,20.036,59.764,19.373,59.764z"/>
		<path fill="#999999" d="M22.763,45.688c-0.182,0-0.373-0.043-0.544-0.135c-0.589-0.302-0.824-1.023-0.522-1.615
			c1.447-2.808,3.293-5.387,5.497-7.664c0.46-0.478,1.217-0.487,1.695-0.028c0.478,0.459,0.487,1.218,0.026,1.696
			c-2.036,2.106-3.749,4.493-5.085,7.093C23.617,45.446,23.2,45.688,22.763,45.688z M77.694,45.654
			c-0.434,0-0.854-0.233-1.067-0.647c-1.337-2.598-3.05-4.983-5.09-7.088c-0.464-0.476-0.451-1.234,0.022-1.696
			c0.474-0.459,1.235-0.452,1.695,0.028c2.208,2.275,4.059,4.85,5.506,7.659c0.301,0.588,0.07,1.312-0.518,1.612
			C78.065,45.614,77.88,45.654,77.694,45.654z M36.408,32.165c-0.438,0-0.859-0.241-1.071-0.662
			c-0.297-0.591-0.058-1.31,0.535-1.607c2.828-1.421,5.847-2.409,8.963-2.939c0.655-0.102,1.275,0.33,1.385,0.982
			c0.111,0.652-0.332,1.272-0.982,1.381c-2.886,0.49-5.674,1.404-8.29,2.719C36.775,32.125,36.589,32.165,36.408,32.165z
			 M64.035,32.151c-0.182,0-0.363-0.041-0.536-0.125c-2.62-1.312-5.409-2.224-8.293-2.709c-0.656-0.11-1.094-0.729-0.983-1.381
			c0.111-0.652,0.726-1.088,1.381-0.984c3.121,0.525,6.134,1.513,8.967,2.93c0.593,0.297,0.832,1.016,0.54,1.609
			C64.898,31.907,64.474,32.151,64.035,32.151z"/>
		<path fill="#999999" d="M81.101,59.764c-0.663,0-1.199-0.533-1.199-1.197c0-1.344-0.093-2.697-0.269-4.027
			c-0.089-0.654,0.371-1.258,1.027-1.348c0.659-0.088,1.256,0.373,1.349,1.028c0.19,1.435,0.288,2.897,0.288,4.347
			C82.296,59.23,81.761,59.764,81.101,59.764z"/>
	</g>
	<path fill="#999999" d="M50.234,59.764c-3.616,0-6.555-2.939-6.555-6.555c0-3.617,2.938-6.56,6.555-6.56
		c3.617,0,6.56,2.942,6.56,6.56C56.794,56.824,53.851,59.764,50.234,59.764z M50.234,49.048c-2.292,0-4.16,1.866-4.16,4.161
		c0,2.293,1.868,4.158,4.16,4.158c2.298,0,4.161-1.865,4.161-4.158C54.395,50.914,52.532,49.048,50.234,49.048z"/>
	<path fill="#999999" d="M50.239,54.405c-0.359,0-0.713-0.16-0.947-0.462c-0.407-0.523-0.314-1.274,0.208-1.682l12.927-10.073
		c0.523-0.406,1.275-0.313,1.687,0.208c0.402,0.523,0.31,1.276-0.212,1.683L50.974,54.154
		C50.752,54.324,50.496,54.405,50.239,54.405z"/>
</g>
</svg>
